%!PS-Adobe-2.0
%%Title: couple-amortized_disk.eps
%%Creator: gnuplot 4.2 patchlevel 0
%%CreationDate: Tue Mar  4 20:41:01 2008
%%DocumentFonts: (atend)
%%BoundingBox: 50 50 554 770
%%Orientation: Landscape
%%Pages: (atend)
%%EndComments
%%BeginProlog
/gnudict 256 dict def
gnudict begin
%
% The following 6 true/false flags may be edited by hand if required
% The unit line width may also be changed
%
/Color false def
/Blacktext false def
/Solid false def
/Dashlength 1 def
/Landscape true def
/Level1 false def
/Rounded false def
/TransparentPatterns false def
/gnulinewidth 5.000 def
/userlinewidth gnulinewidth def
%
/vshift -46 def
/dl1 {
  10.0 Dashlength mul mul
  Rounded { currentlinewidth 0.75 mul sub dup 0 le { pop 0.01 } if } if
} def
/dl2 {
  10.0 Dashlength mul mul
  Rounded { currentlinewidth 0.75 mul add } if
} def
/hpt_ 31.5 def
/vpt_ 31.5 def
/hpt hpt_ def
/vpt vpt_ def
Level1 {} {
/SDict 10 dict def
systemdict /pdfmark known not {
  userdict /pdfmark systemdict /cleartomark get put
} if
SDict begin [
  /Title (couple-amortized_disk.eps)
  /Subject (gnuplot plot)
  /Creator (gnuplot 4.2 patchlevel 0)
  /Author (,,,)
%  /Producer (gnuplot)
%  /Keywords ()
  /CreationDate (Tue Mar  4 20:41:01 2008)
  /DOCINFO pdfmark
end
} ifelse
%
% Gnuplot Prolog Version 4.2 (August 2006)
%
/M {moveto} bind def
/L {lineto} bind def
/R {rmoveto} bind def
/V {rlineto} bind def
/N {newpath moveto} bind def
/Z {closepath} bind def
/C {setrgbcolor} bind def
/f {rlineto fill} bind def
/vpt2 vpt 2 mul def
/hpt2 hpt 2 mul def
/Lshow {currentpoint stroke M 0 vshift R 
	Blacktext {gsave 0 setgray show grestore} {show} ifelse} def
/Rshow {currentpoint stroke M dup stringwidth pop neg vshift R
	Blacktext {gsave 0 setgray show grestore} {show} ifelse} def
/Cshow {currentpoint stroke M dup stringwidth pop -2 div vshift R 
	Blacktext {gsave 0 setgray show grestore} {show} ifelse} def
/UP {dup vpt_ mul /vpt exch def hpt_ mul /hpt exch def
  /hpt2 hpt 2 mul def /vpt2 vpt 2 mul def} def
/DL {Color {setrgbcolor Solid {pop []} if 0 setdash}
 {pop pop pop 0 setgray Solid {pop []} if 0 setdash} ifelse} def
/BL {stroke userlinewidth 2 mul setlinewidth
	Rounded {1 setlinejoin 1 setlinecap} if} def
/AL {stroke userlinewidth 2 div setlinewidth
	Rounded {1 setlinejoin 1 setlinecap} if} def
/UL {dup gnulinewidth mul /userlinewidth exch def
	dup 1 lt {pop 1} if 10 mul /udl exch def} def
/PL {stroke userlinewidth setlinewidth
	Rounded {1 setlinejoin 1 setlinecap} if} def
% Default Line colors
/LCw {1 1 1} def
/LCb {0 0 0} def
/LCa {0 0 0} def
/LC0 {1 0 0} def
/LC1 {0 1 0} def
/LC2 {0 0 1} def
/LC3 {1 0 1} def
/LC4 {0 1 1} def
/LC5 {1 1 0} def
/LC6 {0 0 0} def
/LC7 {1 0.3 0} def
/LC8 {0.5 0.5 0.5} def
% Default Line Types
/LTw {PL [] 1 setgray} def
/LTb {BL [] LCb DL} def
/LTa {AL [1 udl mul 2 udl mul] 0 setdash LCa setrgbcolor} def
/LT0 {PL [] LC0 DL} def
/LT1 {PL [4 dl1 2 dl2] LC1 DL} def
/LT2 {PL [2 dl1 3 dl2] LC2 DL} def
/LT3 {PL [1 dl1 1.5 dl2] LC3 DL} def
/LT4 {PL [6 dl1 2 dl2 1 dl1 2 dl2] LC4 DL} def
/LT5 {PL [3 dl1 3 dl2 1 dl1 3 dl2] LC5 DL} def
/LT6 {PL [2 dl1 2 dl2 2 dl1 6 dl2] LC6 DL} def
/LT7 {PL [1 dl1 2 dl2 6 dl1 2 dl2 1 dl1 2 dl2] LC7 DL} def
/LT8 {PL [2 dl1 2 dl2 2 dl1 2 dl2 2 dl1 2 dl2 2 dl1 4 dl2] LC8 DL} def
/Pnt {stroke [] 0 setdash gsave 1 setlinecap M 0 0 V stroke grestore} def
/Dia {stroke [] 0 setdash 2 copy vpt add M
  hpt neg vpt neg V hpt vpt neg V
  hpt vpt V hpt neg vpt V closepath stroke
  Pnt} def
/Pls {stroke [] 0 setdash vpt sub M 0 vpt2 V
  currentpoint stroke M
  hpt neg vpt neg R hpt2 0 V stroke
 } def
/Box {stroke [] 0 setdash 2 copy exch hpt sub exch vpt add M
  0 vpt2 neg V hpt2 0 V 0 vpt2 V
  hpt2 neg 0 V closepath stroke
  Pnt} def
/Crs {stroke [] 0 setdash exch hpt sub exch vpt add M
  hpt2 vpt2 neg V currentpoint stroke M
  hpt2 neg 0 R hpt2 vpt2 V stroke} def
/TriU {stroke [] 0 setdash 2 copy vpt 1.12 mul add M
  hpt neg vpt -1.62 mul V
  hpt 2 mul 0 V
  hpt neg vpt 1.62 mul V closepath stroke
  Pnt} def
/Star {2 copy Pls Crs} def
/BoxF {stroke [] 0 setdash exch hpt sub exch vpt add M
  0 vpt2 neg V hpt2 0 V 0 vpt2 V
  hpt2 neg 0 V closepath fill} def
/TriUF {stroke [] 0 setdash vpt 1.12 mul add M
  hpt neg vpt -1.62 mul V
  hpt 2 mul 0 V
  hpt neg vpt 1.62 mul V closepath fill} def
/TriD {stroke [] 0 setdash 2 copy vpt 1.12 mul sub M
  hpt neg vpt 1.62 mul V
  hpt 2 mul 0 V
  hpt neg vpt -1.62 mul V closepath stroke
  Pnt} def
/TriDF {stroke [] 0 setdash vpt 1.12 mul sub M
  hpt neg vpt 1.62 mul V
  hpt 2 mul 0 V
  hpt neg vpt -1.62 mul V closepath fill} def
/DiaF {stroke [] 0 setdash vpt add M
  hpt neg vpt neg V hpt vpt neg V
  hpt vpt V hpt neg vpt V closepath fill} def
/Pent {stroke [] 0 setdash 2 copy gsave
  translate 0 hpt M 4 {72 rotate 0 hpt L} repeat
  closepath stroke grestore Pnt} def
/PentF {stroke [] 0 setdash gsave
  translate 0 hpt M 4 {72 rotate 0 hpt L} repeat
  closepath fill grestore} def
/Circle {stroke [] 0 setdash 2 copy
  hpt 0 360 arc stroke Pnt} def
/CircleF {stroke [] 0 setdash hpt 0 360 arc fill} def
/C0 {BL [] 0 setdash 2 copy moveto vpt 90 450 arc} bind def
/C1 {BL [] 0 setdash 2 copy moveto
	2 copy vpt 0 90 arc closepath fill
	vpt 0 360 arc closepath} bind def
/C2 {BL [] 0 setdash 2 copy moveto
	2 copy vpt 90 180 arc closepath fill
	vpt 0 360 arc closepath} bind def
/C3 {BL [] 0 setdash 2 copy moveto
	2 copy vpt 0 180 arc closepath fill
	vpt 0 360 arc closepath} bind def
/C4 {BL [] 0 setdash 2 copy moveto
	2 copy vpt 180 270 arc closepath fill
	vpt 0 360 arc closepath} bind def
/C5 {BL [] 0 setdash 2 copy moveto
	2 copy vpt 0 90 arc
	2 copy moveto
	2 copy vpt 180 270 arc closepath fill
	vpt 0 360 arc} bind def
/C6 {BL [] 0 setdash 2 copy moveto
	2 copy vpt 90 270 arc closepath fill
	vpt 0 360 arc closepath} bind def
/C7 {BL [] 0 setdash 2 copy moveto
	2 copy vpt 0 270 arc closepath fill
	vpt 0 360 arc closepath} bind def
/C8 {BL [] 0 setdash 2 copy moveto
	2 copy vpt 270 360 arc closepath fill
	vpt 0 360 arc closepath} bind def
/C9 {BL [] 0 setdash 2 copy moveto
	2 copy vpt 270 450 arc closepath fill
	vpt 0 360 arc closepath} bind def
/C10 {BL [] 0 setdash 2 copy 2 copy moveto vpt 270 360 arc closepath fill
	2 copy moveto
	2 copy vpt 90 180 arc closepath fill
	vpt 0 360 arc closepath} bind def
/C11 {BL [] 0 setdash 2 copy moveto
	2 copy vpt 0 180 arc closepath fill
	2 copy moveto
	2 copy vpt 270 360 arc closepath fill
	vpt 0 360 arc closepath} bind def
/C12 {BL [] 0 setdash 2 copy moveto
	2 copy vpt 180 360 arc closepath fill
	vpt 0 360 arc closepath} bind def
/C13 {BL [] 0 setdash 2 copy moveto
	2 copy vpt 0 90 arc closepath fill
	2 copy moveto
	2 copy vpt 180 360 arc closepath fill
	vpt 0 360 arc closepath} bind def
/C14 {BL [] 0 setdash 2 copy moveto
	2 copy vpt 90 360 arc closepath fill
	vpt 0 360 arc} bind def
/C15 {BL [] 0 setdash 2 copy vpt 0 360 arc closepath fill
	vpt 0 360 arc closepath} bind def
/Rec {newpath 4 2 roll moveto 1 index 0 rlineto 0 exch rlineto
	neg 0 rlineto closepath} bind def
/Square {dup Rec} bind def
/Bsquare {vpt sub exch vpt sub exch vpt2 Square} bind def
/S0 {BL [] 0 setdash 2 copy moveto 0 vpt rlineto BL Bsquare} bind def
/S1 {BL [] 0 setdash 2 copy vpt Square fill Bsquare} bind def
/S2 {BL [] 0 setdash 2 copy exch vpt sub exch vpt Square fill Bsquare} bind def
/S3 {BL [] 0 setdash 2 copy exch vpt sub exch vpt2 vpt Rec fill Bsquare} bind def
/S4 {BL [] 0 setdash 2 copy exch vpt sub exch vpt sub vpt Square fill Bsquare} bind def
/S5 {BL [] 0 setdash 2 copy 2 copy vpt Square fill
	exch vpt sub exch vpt sub vpt Square fill Bsquare} bind def
/S6 {BL [] 0 setdash 2 copy exch vpt sub exch vpt sub vpt vpt2 Rec fill Bsquare} bind def
/S7 {BL [] 0 setdash 2 copy exch vpt sub exch vpt sub vpt vpt2 Rec fill
	2 copy vpt Square fill Bsquare} bind def
/S8 {BL [] 0 setdash 2 copy vpt sub vpt Square fill Bsquare} bind def
/S9 {BL [] 0 setdash 2 copy vpt sub vpt vpt2 Rec fill Bsquare} bind def
/S10 {BL [] 0 setdash 2 copy vpt sub vpt Square fill 2 copy exch vpt sub exch vpt Square fill
	Bsquare} bind def
/S11 {BL [] 0 setdash 2 copy vpt sub vpt Square fill 2 copy exch vpt sub exch vpt2 vpt Rec fill
	Bsquare} bind def
/S12 {BL [] 0 setdash 2 copy exch vpt sub exch vpt sub vpt2 vpt Rec fill Bsquare} bind def
/S13 {BL [] 0 setdash 2 copy exch vpt sub exch vpt sub vpt2 vpt Rec fill
	2 copy vpt Square fill Bsquare} bind def
/S14 {BL [] 0 setdash 2 copy exch vpt sub exch vpt sub vpt2 vpt Rec fill
	2 copy exch vpt sub exch vpt Square fill Bsquare} bind def
/S15 {BL [] 0 setdash 2 copy Bsquare fill Bsquare} bind def
/D0 {gsave translate 45 rotate 0 0 S0 stroke grestore} bind def
/D1 {gsave translate 45 rotate 0 0 S1 stroke grestore} bind def
/D2 {gsave translate 45 rotate 0 0 S2 stroke grestore} bind def
/D3 {gsave translate 45 rotate 0 0 S3 stroke grestore} bind def
/D4 {gsave translate 45 rotate 0 0 S4 stroke grestore} bind def
/D5 {gsave translate 45 rotate 0 0 S5 stroke grestore} bind def
/D6 {gsave translate 45 rotate 0 0 S6 stroke grestore} bind def
/D7 {gsave translate 45 rotate 0 0 S7 stroke grestore} bind def
/D8 {gsave translate 45 rotate 0 0 S8 stroke grestore} bind def
/D9 {gsave translate 45 rotate 0 0 S9 stroke grestore} bind def
/D10 {gsave translate 45 rotate 0 0 S10 stroke grestore} bind def
/D11 {gsave translate 45 rotate 0 0 S11 stroke grestore} bind def
/D12 {gsave translate 45 rotate 0 0 S12 stroke grestore} bind def
/D13 {gsave translate 45 rotate 0 0 S13 stroke grestore} bind def
/D14 {gsave translate 45 rotate 0 0 S14 stroke grestore} bind def
/D15 {gsave translate 45 rotate 0 0 S15 stroke grestore} bind def
/DiaE {stroke [] 0 setdash vpt add M
  hpt neg vpt neg V hpt vpt neg V
  hpt vpt V hpt neg vpt V closepath stroke} def
/BoxE {stroke [] 0 setdash exch hpt sub exch vpt add M
  0 vpt2 neg V hpt2 0 V 0 vpt2 V
  hpt2 neg 0 V closepath stroke} def
/TriUE {stroke [] 0 setdash vpt 1.12 mul add M
  hpt neg vpt -1.62 mul V
  hpt 2 mul 0 V
  hpt neg vpt 1.62 mul V closepath stroke} def
/TriDE {stroke [] 0 setdash vpt 1.12 mul sub M
  hpt neg vpt 1.62 mul V
  hpt 2 mul 0 V
  hpt neg vpt -1.62 mul V closepath stroke} def
/PentE {stroke [] 0 setdash gsave
  translate 0 hpt M 4 {72 rotate 0 hpt L} repeat
  closepath stroke grestore} def
/CircE {stroke [] 0 setdash 
  hpt 0 360 arc stroke} def
/Opaque {gsave closepath 1 setgray fill grestore 0 setgray closepath} def
/DiaW {stroke [] 0 setdash vpt add M
  hpt neg vpt neg V hpt vpt neg V
  hpt vpt V hpt neg vpt V Opaque stroke} def
/BoxW {stroke [] 0 setdash exch hpt sub exch vpt add M
  0 vpt2 neg V hpt2 0 V 0 vpt2 V
  hpt2 neg 0 V Opaque stroke} def
/TriUW {stroke [] 0 setdash vpt 1.12 mul add M
  hpt neg vpt -1.62 mul V
  hpt 2 mul 0 V
  hpt neg vpt 1.62 mul V Opaque stroke} def
/TriDW {stroke [] 0 setdash vpt 1.12 mul sub M
  hpt neg vpt 1.62 mul V
  hpt 2 mul 0 V
  hpt neg vpt -1.62 mul V Opaque stroke} def
/PentW {stroke [] 0 setdash gsave
  translate 0 hpt M 4 {72 rotate 0 hpt L} repeat
  Opaque stroke grestore} def
/CircW {stroke [] 0 setdash 
  hpt 0 360 arc Opaque stroke} def
/BoxFill {gsave Rec 1 setgray fill grestore} def
/Density {
  /Fillden exch def
  currentrgbcolor
  /ColB exch def /ColG exch def /ColR exch def
  /ColR ColR Fillden mul Fillden sub 1 add def
  /ColG ColG Fillden mul Fillden sub 1 add def
  /ColB ColB Fillden mul Fillden sub 1 add def
  ColR ColG ColB setrgbcolor} def
/BoxColFill {gsave Rec PolyFill} def
/PolyFill {gsave Density fill grestore grestore} def
/h {rlineto rlineto rlineto gsave fill grestore} bind def
%
% PostScript Level 1 Pattern Fill routine for rectangles
% Usage: x y w h s a XX PatternFill
%	x,y = lower left corner of box to be filled
%	w,h = width and height of box
%	  a = angle in degrees between lines and x-axis
%	 XX = 0/1 for no/yes cross-hatch
%
/PatternFill {gsave /PFa [ 9 2 roll ] def
  PFa 0 get PFa 2 get 2 div add PFa 1 get PFa 3 get 2 div add translate
  PFa 2 get -2 div PFa 3 get -2 div PFa 2 get PFa 3 get Rec
  gsave 1 setgray fill grestore clip
  currentlinewidth 0.5 mul setlinewidth
  /PFs PFa 2 get dup mul PFa 3 get dup mul add sqrt def
  0 0 M PFa 5 get rotate PFs -2 div dup translate
  0 1 PFs PFa 4 get div 1 add floor cvi
	{PFa 4 get mul 0 M 0 PFs V} for
  0 PFa 6 get ne {
	0 1 PFs PFa 4 get div 1 add floor cvi
	{PFa 4 get mul 0 2 1 roll M PFs 0 V} for
 } if
  stroke grestore} def
%
/languagelevel where
 {pop languagelevel} {1} ifelse
 2 lt
	{/InterpretLevel1 true def}
	{/InterpretLevel1 Level1 def}
 ifelse
%
% PostScript level 2 pattern fill definitions
%
/Level2PatternFill {
/Tile8x8 {/PaintType 2 /PatternType 1 /TilingType 1 /BBox [0 0 8 8] /XStep 8 /YStep 8}
	bind def
/KeepColor {currentrgbcolor [/Pattern /DeviceRGB] setcolorspace} bind def
<< Tile8x8
 /PaintProc {0.5 setlinewidth pop 0 0 M 8 8 L 0 8 M 8 0 L stroke} 
>> matrix makepattern
/Pat1 exch def
<< Tile8x8
 /PaintProc {0.5 setlinewidth pop 0 0 M 8 8 L 0 8 M 8 0 L stroke
	0 4 M 4 8 L 8 4 L 4 0 L 0 4 L stroke}
>> matrix makepattern
/Pat2 exch def
<< Tile8x8
 /PaintProc {0.5 setlinewidth pop 0 0 M 0 8 L
	8 8 L 8 0 L 0 0 L fill}
>> matrix makepattern
/Pat3 exch def
<< Tile8x8
 /PaintProc {0.5 setlinewidth pop -4 8 M 8 -4 L
	0 12 M 12 0 L stroke}
>> matrix makepattern
/Pat4 exch def
<< Tile8x8
 /PaintProc {0.5 setlinewidth pop -4 0 M 8 12 L
	0 -4 M 12 8 L stroke}
>> matrix makepattern
/Pat5 exch def
<< Tile8x8
 /PaintProc {0.5 setlinewidth pop -2 8 M 4 -4 L
	0 12 M 8 -4 L 4 12 M 10 0 L stroke}
>> matrix makepattern
/Pat6 exch def
<< Tile8x8
 /PaintProc {0.5 setlinewidth pop -2 0 M 4 12 L
	0 -4 M 8 12 L 4 -4 M 10 8 L stroke}
>> matrix makepattern
/Pat7 exch def
<< Tile8x8
 /PaintProc {0.5 setlinewidth pop 8 -2 M -4 4 L
	12 0 M -4 8 L 12 4 M 0 10 L stroke}
>> matrix makepattern
/Pat8 exch def
<< Tile8x8
 /PaintProc {0.5 setlinewidth pop 0 -2 M 12 4 L
	-4 0 M 12 8 L -4 4 M 8 10 L stroke}
>> matrix makepattern
/Pat9 exch def
/Pattern1 {PatternBgnd KeepColor Pat1 setpattern} bind def
/Pattern2 {PatternBgnd KeepColor Pat2 setpattern} bind def
/Pattern3 {PatternBgnd KeepColor Pat3 setpattern} bind def
/Pattern4 {PatternBgnd KeepColor Landscape {Pat5} {Pat4} ifelse setpattern} bind def
/Pattern5 {PatternBgnd KeepColor Landscape {Pat4} {Pat5} ifelse setpattern} bind def
/Pattern6 {PatternBgnd KeepColor Landscape {Pat9} {Pat6} ifelse setpattern} bind def
/Pattern7 {PatternBgnd KeepColor Landscape {Pat8} {Pat7} ifelse setpattern} bind def
} def
%
%
%End of PostScript Level 2 code
%
/PatternBgnd {
  TransparentPatterns {} {gsave 1 setgray fill grestore} ifelse
} def
%
% Substitute for Level 2 pattern fill codes with
% grayscale if Level 2 support is not selected.
%
/Level1PatternFill {
/Pattern1 {0.250 Density} bind def
/Pattern2 {0.500 Density} bind def
/Pattern3 {0.750 Density} bind def
/Pattern4 {0.125 Density} bind def
/Pattern5 {0.375 Density} bind def
/Pattern6 {0.625 Density} bind def
/Pattern7 {0.875 Density} bind def
} def
%
% Now test for support of Level 2 code
%
Level1 {Level1PatternFill} {Level2PatternFill} ifelse
%
/Symbol-Oblique /Symbol findfont [1 0 .167 1 0 0] makefont
dup length dict begin {1 index /FID eq {pop pop} {def} ifelse} forall
currentdict end definefont pop
end
%%EndProlog
%%Page: 1 1
gnudict begin
gsave
50 50 translate
0.100 0.100 scale
90 rotate
0 -5040 translate
0 setgray
newpath
(Helvetica) findfont 140 scalefont setfont
1.000 UL
LTb
1.000 UL
LTb
971 1249 M
2896 2356 L
6229 1717 M
2896 2356 L
971 1249 M
0 2214 V
0 -2214 R
47 27 V
908 1188 M
( 4) Cshow
1.000 UL
LTb
1.000 UL
LTb
2896 2356 M
-48 -27 V
1304 1185 M
48 27 V
-111 -88 R
( 4.2) Cshow
1.000 UL
LTb
1.000 UL
LTb
3229 2292 M
-47 -27 V
1638 1121 M
47 27 V
-110 -88 R
( 4.4) Cshow
1.000 UL
LTb
1.000 UL
LTb
3563 2229 M
-48 -28 V
1971 1057 M
48 27 V
1908 996 M
( 4.6) Cshow
1.000 UL
LTb
1.000 UL
LTb
3895 2165 M
-47 -28 V
2305 993 M
47 27 V
2241 932 M
( 4.8) Cshow
1.000 UL
LTb
1.000 UL
LTb
4229 2101 M
-48 -28 V
2638 929 M
47 27 V
2575 868 M
( 5) Cshow
1.000 UL
LTb
1.000 UL
LTb
4562 2037 M
-47 -28 V
2971 865 M
48 27 V
2908 804 M
( 5.2) Cshow
1.000 UL
LTb
1.000 UL
LTb
4895 1973 M
-47 -28 V
3305 801 M
47 27 V
3242 741 M
( 5.4) Cshow
1.000 UL
LTb
1.000 UL
LTb
5229 1909 M
-48 -28 V
3637 737 M
48 27 V
3575 677 M
( 5.6) Cshow
1.000 UL
LTb
1.000 UL
LTb
5562 1845 M
-47 -27 V
3971 673 M
47 28 V
3907 613 M
( 5.8) Cshow
1.000 UL
LTb
1.000 UL
LTb
5896 1781 M
-48 -27 V
4304 609 M
48 28 V
4241 549 M
( 6) Cshow
1.000 UL
LTb
1.000 UL
LTb
6229 1717 M
-47 -27 V
4304 609 M
-54 11 V
127 -34 R
( 4) Cshow
1.000 UL
LTb
1.000 UL
LTb
971 1249 M
54 -11 V
4497 720 M
-55 11 V
127 -34 R
( 4.2) Cshow
1.000 UL
LTb
1.000 UL
LTb
1163 1360 M
55 -11 V
4689 831 M
-54 10 V
127 -33 R
( 4.4) Cshow
1.000 UL
LTb
1.000 UL
LTb
1356 1470 M
54 -10 V
4882 942 M
-55 10 V
127 -34 R
( 4.6) Cshow
1.000 UL
LTb
1.000 UL
LTb
1548 1581 M
55 -10 V
5074 1052 M
-54 11 V
127 -34 R
( 4.8) Cshow
1.000 UL
LTb
1.000 UL
LTb
1741 1692 M
54 -11 V
5267 1163 M
-55 11 V
127 -34 R
( 5) Cshow
1.000 UL
LTb
1.000 UL
LTb
1933 1803 M
55 -11 V
5459 1274 M
-54 10 V
127 -33 R
( 5.2) Cshow
1.000 UL
LTb
1.000 UL
LTb
2126 1913 M
54 -10 V
5652 1385 M
-55 10 V
127 -34 R
( 5.4) Cshow
1.000 UL
LTb
1.000 UL
LTb
2318 2024 M
55 -10 V
5844 1495 M
-54 11 V
127 -34 R
( 5.6) Cshow
1.000 UL
LTb
1.000 UL
LTb
2511 2135 M
54 -11 V
6037 1606 M
-55 11 V
127 -34 R
( 5.8) Cshow
1.000 UL
LTb
1.000 UL
LTb
2703 2246 M
55 -11 V
6229 1717 M
-54 10 V
127 -33 R
( 6) Cshow
1.000 UL
LTb
1.000 UL
LTb
2896 2356 M
54 -10 V
971 1987 M
63 0 V
-189 0 R
( 0) Rshow
1.000 UL
LTb
1.000 UL
LTb
971 2233 M
63 0 V
-189 0 R
( 0.01) Rshow
1.000 UL
LTb
1.000 UL
LTb
971 2479 M
63 0 V
-189 0 R
( 0.02) Rshow
1.000 UL
LTb
1.000 UL
LTb
971 2725 M
63 0 V
-189 0 R
( 0.03) Rshow
1.000 UL
LTb
1.000 UL
LTb
971 2971 M
63 0 V
-189 0 R
( 0.04) Rshow
1.000 UL
LTb
1.000 UL
LTb
971 3217 M
63 0 V
-189 0 R
( 0.05) Rshow
1.000 UL
LTb
1.000 UL
LTb
971 3463 M
63 0 V
-189 0 R
( 0.06) Rshow
1.000 UL
LTb
1.000 UP
1.000 UP
1.000 UL
LT0
LTb
/Helvetica findfont 140 scalefont setfont
6402 4556 M
("couple-amortized_disk.out") Rshow
1.000 UP
1.000 UL
LT0
6685 4556 Pls
1685 2301 Pls
1697 2317 Pls
1709 2332 Pls
1721 2345 Pls
1733 2356 Pls
1745 2365 Pls
1757 2372 Pls
1769 2377 Pls
1781 2380 Pls
1793 2381 Pls
1805 2381 Pls
1817 2378 Pls
1829 2373 Pls
1841 2367 Pls
1853 2359 Pls
1865 2349 Pls
1877 2337 Pls
1890 2324 Pls
1902 2310 Pls
1657 2259 Pls
1669 2284 Pls
1682 2306 Pls
1694 2327 Pls
1706 2346 Pls
1718 2364 Pls
1730 2379 Pls
1742 2392 Pls
1754 2403 Pls
1766 2412 Pls
1778 2419 Pls
1790 2424 Pls
1802 2427 Pls
1814 2428 Pls
1826 2427 Pls
1838 2424 Pls
1850 2419 Pls
1862 2412 Pls
1874 2403 Pls
1886 2393 Pls
1898 2381 Pls
1910 2367 Pls
1922 2351 Pls
1934 2335 Pls
1947 2316 Pls
1654 2247 Pls
1666 2276 Pls
1678 2303 Pls
1690 2328 Pls
1702 2351 Pls
1714 2373 Pls
1726 2392 Pls
1739 2410 Pls
1751 2425 Pls
1763 2439 Pls
1775 2450 Pls
1787 2459 Pls
1799 2466 Pls
1811 2471 Pls
1823 2474 Pls
1835 2475 Pls
1847 2473 Pls
1859 2470 Pls
1871 2464 Pls
1883 2457 Pls
1895 2447 Pls
1907 2436 Pls
1919 2423 Pls
1931 2409 Pls
1943 2393 Pls
1955 2375 Pls
1967 2356 Pls
1979 2336 Pls
1991 2314 Pls
1651 2226 Pls
1663 2258 Pls
1675 2289 Pls
1687 2318 Pls
1699 2346 Pls
1711 2372 Pls
1723 2396 Pls
1735 2418 Pls
1747 2438 Pls
1759 2456 Pls
1771 2472 Pls
1783 2486 Pls
1796 2497 Pls
1808 2506 Pls
1820 2513 Pls
1832 2518 Pls
1844 2521 Pls
1856 2521 Pls
1868 2519 Pls
1880 2515 Pls
1892 2509 Pls
1904 2501 Pls
1916 2491 Pls
1928 2480 Pls
1940 2466 Pls
1952 2451 Pls
1964 2434 Pls
1976 2415 Pls
1988 2396 Pls
2000 2374 Pls
2012 2352 Pls
2024 2328 Pls
1660 2231 Pls
1672 2265 Pls
1684 2298 Pls
1696 2330 Pls
1708 2360 Pls
1720 2389 Pls
1732 2415 Pls
1744 2440 Pls
1756 2463 Pls
1768 2483 Pls
1780 2502 Pls
1792 2518 Pls
1804 2532 Pls
1816 2544 Pls
1828 2553 Pls
1840 2560 Pls
1853 2565 Pls
1865 2568 Pls
1877 2568 Pls
1889 2565 Pls
1901 2561 Pls
1913 2554 Pls
1925 2546 Pls
1937 2535 Pls
1949 2522 Pls
1961 2508 Pls
1973 2492 Pls
1985 2474 Pls
1997 2455 Pls
2009 2434 Pls
2021 2412 Pls
2033 2389 Pls
2045 2365 Pls
2057 2339 Pls
1669 2232 Pls
1681 2269 Pls
1693 2304 Pls
1705 2338 Pls
1717 2371 Pls
1729 2402 Pls
1741 2431 Pls
1753 2459 Pls
1765 2484 Pls
1777 2508 Pls
1789 2529 Pls
1801 2548 Pls
1813 2565 Pls
1825 2579 Pls
1837 2591 Pls
1849 2601 Pls
1861 2608 Pls
1873 2612 Pls
1885 2614 Pls
1897 2614 Pls
1910 2611 Pls
1922 2606 Pls
1934 2599 Pls
1946 2590 Pls
1958 2578 Pls
1970 2565 Pls
1982 2550 Pls
1994 2533 Pls
2006 2514 Pls
2018 2494 Pls
2030 2473 Pls
2042 2450 Pls
2054 2425 Pls
2066 2400 Pls
2078 2373 Pls
2090 2346 Pls
1665 2188 Pls
1677 2229 Pls
1689 2268 Pls
1702 2306 Pls
1714 2343 Pls
1726 2378 Pls
1738 2411 Pls
1750 2443 Pls
1762 2473 Pls
1774 2502 Pls
1786 2528 Pls
1798 2552 Pls
1810 2574 Pls
1822 2594 Pls
1834 2611 Pls
1846 2626 Pls
1858 2638 Pls
1870 2648 Pls
1882 2655 Pls
1894 2659 Pls
1906 2661 Pls
1918 2660 Pls
1930 2657 Pls
1942 2652 Pls
1954 2644 Pls
1967 2634 Pls
1979 2622 Pls
1991 2607 Pls
2003 2591 Pls
2015 2573 Pls
2027 2554 Pls
2039 2533 Pls
2051 2510 Pls
2063 2486 Pls
2075 2461 Pls
2087 2434 Pls
2099 2407 Pls
2111 2379 Pls
2123 2349 Pls
1674 2180 Pls
1686 2222 Pls
1698 2263 Pls
1710 2304 Pls
1722 2343 Pls
1734 2380 Pls
1746 2416 Pls
1759 2451 Pls
1771 2484 Pls
1783 2515 Pls
1795 2544 Pls
1807 2571 Pls
1819 2596 Pls
1831 2619 Pls
1843 2639 Pls
1855 2657 Pls
1867 2672 Pls
1879 2685 Pls
1891 2695 Pls
1903 2702 Pls
1915 2706 Pls
1927 2708 Pls
1939 2707 Pls
1951 2703 Pls
1963 2697 Pls
1975 2688 Pls
1987 2677 Pls
1999 2664 Pls
2011 2649 Pls
2024 2632 Pls
2036 2613 Pls
2048 2593 Pls
2060 2570 Pls
2072 2547 Pls
2084 2522 Pls
2096 2496 Pls
2108 2468 Pls
2120 2440 Pls
2132 2410 Pls
2144 2380 Pls
2156 2349 Pls
1683 2167 Pls
1695 2211 Pls
1707 2255 Pls
1719 2297 Pls
1731 2338 Pls
1743 2378 Pls
1755 2417 Pls
1767 2454 Pls
1779 2490 Pls
1791 2524 Pls
1803 2556 Pls
1816 2587 Pls
1828 2615 Pls
1840 2641 Pls
1852 2664 Pls
1864 2685 Pls
1876 2703 Pls
1888 2719 Pls
1900 2732 Pls
1912 2742 Pls
1924 2749 Pls
1936 2753 Pls
1948 2754 Pls
1960 2753 Pls
1972 2749 Pls
1984 2742 Pls
1996 2732 Pls
2008 2721 Pls
2020 2707 Pls
2032 2690 Pls
2044 2672 Pls
2056 2652 Pls
2068 2631 Pls
2081 2607 Pls
2093 2583 Pls
2105 2557 Pls
2117 2529 Pls
2129 2501 Pls
2141 2472 Pls
2153 2441 Pls
2165 2410 Pls
2177 2378 Pls
2189 2345 Pls
1692 2151 Pls
1704 2197 Pls
1716 2242 Pls
1728 2286 Pls
1740 2330 Pls
1752 2372 Pls
1764 2413 Pls
1776 2453 Pls
1788 2492 Pls
1800 2528 Pls
1812 2564 Pls
1824 2597 Pls
1836 2628 Pls
1848 2657 Pls
1860 2684 Pls
1873 2709 Pls
1885 2730 Pls
1897 2749 Pls
1909 2765 Pls
1921 2779 Pls
1933 2789 Pls
1945 2796 Pls
1957 2800 Pls
1969 2801 Pls
1981 2799 Pls
1993 2794 Pls
2005 2786 Pls
2017 2776 Pls
2029 2763 Pls
2041 2748 Pls
2053 2731 Pls
2065 2712 Pls
2077 2691 Pls
2089 2668 Pls
2101 2644 Pls
2113 2618 Pls
2126 2591 Pls
2138 2562 Pls
2150 2533 Pls
2162 2502 Pls
2174 2471 Pls
2186 2439 Pls
2198 2406 Pls
2210 2372 Pls
2222 2338 Pls
1713 2178 Pls
1725 2225 Pls
1737 2271 Pls
1749 2317 Pls
1761 2361 Pls
1773 2405 Pls
1785 2447 Pls
1797 2488 Pls
1809 2528 Pls
1821 2566 Pls
1833 2602 Pls
1845 2637 Pls
1857 2669 Pls
1869 2700 Pls
1881 2728 Pls
1893 2753 Pls
1905 2775 Pls
1917 2795 Pls
1930 2812 Pls
1942 2825 Pls
1954 2836 Pls
1966 2843 Pls
1978 2847 Pls
1990 2847 Pls
2002 2845 Pls
2014 2839 Pls
2026 2831 Pls
2038 2820 Pls
2050 2806 Pls
2062 2790 Pls
2074 2771 Pls
2086 2751 Pls
2098 2728 Pls
2110 2704 Pls
2122 2679 Pls
2134 2652 Pls
2146 2623 Pls
2158 2594 Pls
2170 2563 Pls
2183 2532 Pls
2195 2499 Pls
2207 2466 Pls
2219 2432 Pls
2231 2398 Pls
2243 2363 Pls
1722 2155 Pls
1734 2204 Pls
1746 2252 Pls
1758 2300 Pls
1770 2346 Pls
1782 2392 Pls
1794 2437 Pls
1806 2480 Pls
1818 2522 Pls
1830 2563 Pls
1842 2603 Pls
1854 2640 Pls
1866 2676 Pls
1878 2710 Pls
1890 2741 Pls
1902 2770 Pls
1914 2797 Pls
1926 2820 Pls
1938 2841 Pls
1950 2858 Pls
1962 2872 Pls
1974 2883 Pls
1987 2890 Pls
1999 2894 Pls
2011 2894 Pls
2023 2891 Pls
2035 2884 Pls
2047 2875 Pls
2059 2863 Pls
2071 2848 Pls
2083 2830 Pls
2095 2810 Pls
2107 2789 Pls
2119 2765 Pls
2131 2740 Pls
2143 2713 Pls
2155 2685 Pls
2167 2655 Pls
2179 2624 Pls
2191 2593 Pls
2203 2560 Pls
2215 2527 Pls
2227 2493 Pls
2240 2458 Pls
2252 2422 Pls
2264 2386 Pls
2276 2350 Pls
1730 2129 Pls
1742 2179 Pls
1754 2229 Pls
1766 2278 Pls
1779 2327 Pls
1791 2374 Pls
1803 2421 Pls
1815 2467 Pls
1827 2512 Pls
1839 2555 Pls
1851 2597 Pls
1863 2638 Pls
1875 2677 Pls
1887 2714 Pls
1899 2749 Pls
1911 2782 Pls
1923 2813 Pls
1935 2840 Pls
1947 2865 Pls
1959 2886 Pls
1971 2905 Pls
1983 2919 Pls
1995 2930 Pls
2007 2937 Pls
2019 2940 Pls
2031 2940 Pls
2044 2936 Pls
2056 2929 Pls
2068 2918 Pls
2080 2905 Pls
2092 2889 Pls
2104 2870 Pls
2116 2849 Pls
2128 2826 Pls
2140 2801 Pls
2152 2774 Pls
2164 2746 Pls
2176 2716 Pls
2188 2686 Pls
2200 2654 Pls
2212 2621 Pls
2224 2587 Pls
2236 2553 Pls
2248 2518 Pls
2260 2482 Pls
2272 2445 Pls
2284 2409 Pls
2297 2371 Pls
1751 2151 Pls
1763 2202 Pls
1775 2253 Pls
1787 2303 Pls
1799 2352 Pls
1811 2401 Pls
1823 2449 Pls
1836 2496 Pls
1848 2542 Pls
1860 2587 Pls
1872 2630 Pls
1884 2672 Pls
1896 2713 Pls
1908 2752 Pls
1920 2788 Pls
1932 2823 Pls
1944 2854 Pls
1956 2883 Pls
1968 2909 Pls
1980 2932 Pls
1992 2951 Pls
2004 2966 Pls
2016 2977 Pls
2028 2984 Pls
2040 2987 Pls
2052 2986 Pls
2064 2982 Pls
2076 2973 Pls
2088 2962 Pls
2101 2947 Pls
2113 2929 Pls
2125 2909 Pls
2137 2886 Pls
2149 2862 Pls
2161 2835 Pls
2173 2807 Pls
2185 2777 Pls
2197 2747 Pls
2209 2715 Pls
2221 2682 Pls
2233 2648 Pls
2245 2613 Pls
2257 2577 Pls
2269 2541 Pls
2281 2504 Pls
2293 2467 Pls
2305 2429 Pls
2317 2391 Pls
2329 2353 Pls
1760 2119 Pls
1772 2171 Pls
1784 2223 Pls
1796 2275 Pls
1808 2326 Pls
1820 2376 Pls
1832 2426 Pls
1844 2475 Pls
1856 2523 Pls
1868 2570 Pls
1880 2617 Pls
1893 2662 Pls
1905 2705 Pls
1917 2747 Pls
1929 2788 Pls
1941 2826 Pls
1953 2862 Pls
1965 2895 Pls
1977 2926 Pls
1989 2953 Pls
2001 2977 Pls
2013 2997 Pls
2025 3012 Pls
2037 3024 Pls
2049 3031 Pls
2061 3034 Pls
2073 3032 Pls
2085 3027 Pls
2097 3017 Pls
2109 3004 Pls
2121 2988 Pls
2133 2969 Pls
2146 2947 Pls
2158 2923 Pls
2170 2896 Pls
2182 2868 Pls
2194 2839 Pls
2206 2808 Pls
2218 2775 Pls
2230 2742 Pls
2242 2708 Pls
2254 2673 Pls
2266 2637 Pls
2278 2600 Pls
2290 2563 Pls
2302 2526 Pls
2314 2487 Pls
2326 2449 Pls
2338 2410 Pls
2350 2371 Pls
1781 2136 Pls
1793 2189 Pls
1805 2242 Pls
1817 2295 Pls
1829 2347 Pls
1841 2398 Pls
1853 2449 Pls
1865 2499 Pls
1877 2549 Pls
1889 2597 Pls
1901 2645 Pls
1913 2691 Pls
1925 2737 Pls
1937 2780 Pls
1950 2822 Pls
1962 2862 Pls
1974 2900 Pls
1986 2935 Pls
1998 2967 Pls
2010 2996 Pls
2022 3021 Pls
2034 3042 Pls
2046 3059 Pls
2058 3071 Pls
2070 3078 Pls
2082 3081 Pls
2094 3078 Pls
2106 3072 Pls
2118 3061 Pls
2130 3046 Pls
2142 3028 Pls
2154 3007 Pls
2166 2983 Pls
2178 2957 Pls
2190 2929 Pls
2203 2900 Pls
2215 2869 Pls
2227 2836 Pls
2239 2802 Pls
2251 2768 Pls
2263 2732 Pls
2275 2696 Pls
2287 2659 Pls
2299 2622 Pls
2311 2583 Pls
2323 2545 Pls
2335 2506 Pls
2347 2467 Pls
2359 2427 Pls
2371 2387 Pls
2383 2347 Pls
1790 2098 Pls
1802 2152 Pls
1814 2206 Pls
1826 2260 Pls
1838 2313 Pls
1850 2366 Pls
1862 2419 Pls
1874 2471 Pls
1886 2522 Pls
1898 2573 Pls
1910 2622 Pls
1922 2671 Pls
1934 2719 Pls
1946 2766 Pls
1958 2812 Pls
1970 2855 Pls
1982 2897 Pls
1994 2937 Pls
2007 2974 Pls
2019 3008 Pls
2031 3039 Pls
2043 3066 Pls
2055 3088 Pls
2067 3106 Pls
2079 3118 Pls
2091 3125 Pls
2103 3127 Pls
2115 3124 Pls
2127 3116 Pls
2139 3103 Pls
2151 3087 Pls
2163 3067 Pls
2175 3044 Pls
2187 3019 Pls
2199 2991 Pls
2211 2961 Pls
2223 2930 Pls
2235 2897 Pls
2247 2863 Pls
2260 2828 Pls
2272 2792 Pls
2284 2755 Pls
2296 2718 Pls
2308 2680 Pls
2320 2641 Pls
2332 2602 Pls
2344 2563 Pls
2356 2523 Pls
2368 2483 Pls
2380 2443 Pls
2392 2402 Pls
2404 2361 Pls
1811 2112 Pls
1823 2167 Pls
1835 2221 Pls
1847 2276 Pls
1859 2330 Pls
1871 2384 Pls
1883 2437 Pls
1895 2490 Pls
1907 2542 Pls
1919 2594 Pls
1931 2645 Pls
1943 2696 Pls
1955 2745 Pls
1967 2794 Pls
1979 2841 Pls
1991 2887 Pls
2003 2930 Pls
2015 2972 Pls
2027 3012 Pls
2039 3048 Pls
2051 3081 Pls
2064 3109 Pls
2076 3133 Pls
2088 3152 Pls
2100 3165 Pls
2112 3172 Pls
2124 3174 Pls
2136 3169 Pls
2148 3160 Pls
2160 3145 Pls
2172 3127 Pls
2184 3105 Pls
2196 3080 Pls
2208 3052 Pls
2220 3022 Pls
2232 2990 Pls
2244 2957 Pls
2256 2923 Pls
2268 2887 Pls
2280 2851 Pls
2292 2814 Pls
2304 2776 Pls
2317 2737 Pls
2329 2698 Pls
2341 2659 Pls
2353 2619 Pls
2365 2579 Pls
2377 2538 Pls
2389 2497 Pls
2401 2456 Pls
2413 2415 Pls
2425 2374 Pls
2437 2332 Pls
1831 2124 Pls
1843 2179 Pls
1856 2235 Pls
1868 2290 Pls
1880 2345 Pls
1892 2399 Pls
1904 2453 Pls
1916 2507 Pls
1928 2561 Pls
1940 2614 Pls
1952 2666 Pls
1964 2718 Pls
1976 2769 Pls
1988 2819 Pls
2000 2868 Pls
2012 2916 Pls
2024 2962 Pls
2036 3006 Pls
2048 3047 Pls
2060 3086 Pls
2072 3121 Pls
2084 3152 Pls
2096 3178 Pls
2108 3198 Pls
2121 3212 Pls
2133 3219 Pls
2145 3220 Pls
2157 3214 Pls
2169 3203 Pls
2181 3186 Pls
2193 3165 Pls
2205 3141 Pls
2217 3113 Pls
2229 3083 Pls
2241 3051 Pls
2253 3018 Pls
2265 2983 Pls
2277 2947 Pls
2289 2910 Pls
2301 2872 Pls
2313 2833 Pls
2325 2794 Pls
2337 2755 Pls
2349 2715 Pls
2361 2674 Pls
2374 2634 Pls
2386 2593 Pls
2398 2551 Pls
2410 2510 Pls
2422 2468 Pls
2434 2427 Pls
2446 2385 Pls
2458 2342 Pls
1840 2078 Pls
1852 2134 Pls
1864 2190 Pls
1876 2246 Pls
1888 2302 Pls
1900 2357 Pls
1913 2413 Pls
1925 2468 Pls
1937 2522 Pls
1949 2577 Pls
1961 2631 Pls
1973 2685 Pls
1985 2738 Pls
1997 2790 Pls
2009 2842 Pls
2021 2892 Pls
2033 2942 Pls
2045 2990 Pls
2057 3036 Pls
2069 3081 Pls
2081 3122 Pls
2093 3160 Pls
2105 3194 Pls
2117 3222 Pls
2129 3244 Pls
2141 3259 Pls
2153 3266 Pls
2166 3266 Pls
2178 3258 Pls
2190 3244 Pls
2202 3225 Pls
2214 3202 Pls
2226 3174 Pls
2238 3144 Pls
2250 3112 Pls
2262 3078 Pls
2274 3042 Pls
2286 3006 Pls
2298 2968 Pls
2310 2929 Pls
2322 2890 Pls
2334 2851 Pls
2346 2810 Pls
2358 2770 Pls
2370 2729 Pls
2382 2688 Pls
2394 2646 Pls
2406 2605 Pls
2418 2563 Pls
2431 2521 Pls
2443 2479 Pls
2455 2436 Pls
2467 2394 Pls
2479 2351 Pls
1861 2086 Pls
1873 2142 Pls
1885 2199 Pls
1897 2255 Pls
1909 2312 Pls
1921 2368 Pls
1933 2424 Pls
1945 2480 Pls
1957 2535 Pls
1970 2590 Pls
1982 2646 Pls
1994 2700 Pls
2006 2754 Pls
2018 2808 Pls
2030 2861 Pls
2042 2914 Pls
2054 2965 Pls
2066 3016 Pls
2078 3064 Pls
2090 3111 Pls
2102 3156 Pls
2114 3197 Pls
2126 3234 Pls
2138 3265 Pls
2150 3289 Pls
2162 3306 Pls
2174 3313 Pls
2186 3312 Pls
2198 3302 Pls
2210 3285 Pls
2223 3262 Pls
2235 3236 Pls
2247 3205 Pls
2259 3172 Pls
2271 3138 Pls
2283 3101 Pls
2295 3064 Pls
2307 3025 Pls
2319 2986 Pls
2331 2946 Pls
2343 2906 Pls
2355 2865 Pls
2367 2824 Pls
2379 2783 Pls
2391 2741 Pls
2403 2699 Pls
2415 2657 Pls
2427 2615 Pls
2439 2572 Pls
2451 2530 Pls
2463 2487 Pls
2475 2444 Pls
2488 2401 Pls
2500 2358 Pls
1882 2092 Pls
1894 2149 Pls
1906 2206 Pls
1918 2262 Pls
1930 2319 Pls
1942 2376 Pls
1954 2433 Pls
1966 2489 Pls
1978 2545 Pls
1990 2601 Pls
2002 2657 Pls
2014 2713 Pls
2027 2768 Pls
2039 2823 Pls
2051 2878 Pls
2063 2932 Pls
2075 2985 Pls
2087 3038 Pls
2099 3089 Pls
2111 3139 Pls
2123 3186 Pls
2135 3231 Pls
2147 3271 Pls
2159 3307 Pls
2171 3334 Pls
2183 3353 Pls
2195 3360 Pls
2207 3357 Pls
2219 3344 Pls
2231 3323 Pls
2243 3297 Pls
2255 3266 Pls
2267 3233 Pls
2280 3197 Pls
2292 3160 Pls
2304 3122 Pls
2316 3082 Pls
2328 3042 Pls
2340 3001 Pls
2352 2960 Pls
2364 2919 Pls
2376 2877 Pls
2388 2835 Pls
2400 2793 Pls
2412 2750 Pls
2424 2708 Pls
2436 2665 Pls
2448 2622 Pls
2460 2579 Pls
2472 2536 Pls
2484 2493 Pls
2496 2450 Pls
2508 2407 Pls
2520 2364 Pls
1903 2096 Pls
1915 2153 Pls
1927 2210 Pls
1939 2267 Pls
1951 2325 Pls
1963 2382 Pls
1975 2439 Pls
1987 2496 Pls
1999 2553 Pls
2011 2610 Pls
2023 2666 Pls
2035 2723 Pls
2047 2779 Pls
2059 2835 Pls
2071 2891 Pls
2084 2946 Pls
2096 3001 Pls
2108 3056 Pls
2120 3109 Pls
2132 3161 Pls
2144 3212 Pls
2156 3261 Pls
2168 3306 Pls
2180 3346 Pls
2192 3378 Pls
2204 3399 Pls
2216 3407 Pls
2228 3401 Pls
2240 3383 Pls
2252 3358 Pls
2264 3327 Pls
2276 3293 Pls
2288 3256 Pls
2300 3218 Pls
2312 3178 Pls
2324 3138 Pls
2337 3097 Pls
2349 3055 Pls
2361 3013 Pls
2373 2971 Pls
2385 2929 Pls
2397 2886 Pls
2409 2843 Pls
2421 2800 Pls
2433 2757 Pls
2445 2714 Pls
2457 2671 Pls
2469 2628 Pls
2481 2584 Pls
2493 2541 Pls
2505 2498 Pls
2517 2454 Pls
2529 2411 Pls
2541 2367 Pls
2553 2323 Pls
1924 2098 Pls
1936 2155 Pls
1948 2213 Pls
1960 2270 Pls
1972 2328 Pls
1984 2385 Pls
1996 2443 Pls
2008 2500 Pls
2020 2558 Pls
2032 2615 Pls
2044 2672 Pls
2056 2729 Pls
2068 2786 Pls
2080 2843 Pls
2092 2900 Pls
2104 2956 Pls
2116 3013 Pls
2128 3069 Pls
2141 3124 Pls
2153 3179 Pls
2165 3233 Pls
2177 3285 Pls
2189 3335 Pls
2201 3381 Pls
2213 3419 Pls
2225 3445 Pls
2237 3453 Pls
2249 3443 Pls
2261 3419 Pls
2273 3388 Pls
2285 3352 Pls
2297 3314 Pls
2309 3274 Pls
2321 3233 Pls
2333 3191 Pls
2345 3149 Pls
2357 3107 Pls
2369 3064 Pls
2381 3021 Pls
2394 2978 Pls
2406 2935 Pls
2418 2892 Pls
2430 2849 Pls
2442 2805 Pls
2454 2762 Pls
2466 2718 Pls
2478 2675 Pls
2490 2631 Pls
2502 2587 Pls
2514 2544 Pls
2526 2500 Pls
2538 2456 Pls
2550 2412 Pls
2562 2369 Pls
2574 2325 Pls
1945 2098 Pls
1957 2155 Pls
1969 2213 Pls
1981 2271 Pls
1993 2329 Pls
2005 2386 Pls
2017 2444 Pls
2029 2502 Pls
2041 2560 Pls
2053 2617 Pls
2065 2675 Pls
2077 2732 Pls
2089 2790 Pls
2101 2847 Pls
2113 2905 Pls
2125 2962 Pls
2137 3020 Pls
2149 3077 Pls
2161 3134 Pls
2173 3190 Pls
2186 3246 Pls
2198 3302 Pls
2210 3357 Pls
2222 3409 Pls
2234 3456 Pls
2246 3491 Pls
2258 3499 Pls
2270 3480 Pls
2282 3448 Pls
2294 3410 Pls
2306 3369 Pls
2318 3328 Pls
2330 3285 Pls
2342 3243 Pls
2354 3199 Pls
2366 3156 Pls
2378 3113 Pls
2390 3069 Pls
2402 3026 Pls
2414 2982 Pls
2426 2938 Pls
2438 2895 Pls
2451 2851 Pls
2463 2807 Pls
2475 2763 Pls
2487 2720 Pls
2499 2676 Pls
2511 2632 Pls
2523 2588 Pls
2535 2544 Pls
2547 2500 Pls
2559 2456 Pls
2571 2412 Pls
2583 2368 Pls
2595 2325 Pls
1965 2096 Pls
1977 2154 Pls
1990 2212 Pls
2002 2269 Pls
2014 2327 Pls
2026 2385 Pls
2038 2443 Pls
2050 2501 Pls
2062 2559 Pls
2074 2616 Pls
2086 2674 Pls
2098 2732 Pls
2110 2790 Pls
2122 2848 Pls
2134 2906 Pls
2146 2963 Pls
2158 3021 Pls
2170 3079 Pls
2182 3137 Pls
2194 3194 Pls
2206 3252 Pls
2218 3310 Pls
2230 3367 Pls
2243 3424 Pls
2255 3480 Pls
2267 3531 Pls
2279 3541 Pls
2291 3506 Pls
2303 3464 Pls
2315 3420 Pls
2327 3377 Pls
2339 3333 Pls
2351 3290 Pls
2363 3246 Pls
2375 3202 Pls
2387 3158 Pls
2399 3114 Pls
2411 3070 Pls
2423 3026 Pls
2435 2982 Pls
2447 2938 Pls
2459 2894 Pls
2471 2850 Pls
2483 2806 Pls
2495 2762 Pls
2508 2718 Pls
2520 2674 Pls
2532 2630 Pls
2544 2586 Pls
2556 2542 Pls
2568 2498 Pls
2580 2454 Pls
2592 2410 Pls
2604 2366 Pls
2616 2322 Pls
1986 2092 Pls
1998 2150 Pls
2010 2208 Pls
2022 2265 Pls
2034 2323 Pls
2047 2381 Pls
2059 2439 Pls
2071 2497 Pls
2083 2555 Pls
2095 2613 Pls
2107 2670 Pls
2119 2728 Pls
2131 2786 Pls
2143 2844 Pls
2155 2902 Pls
2167 2960 Pls
2179 3017 Pls
2191 3075 Pls
2203 3133 Pls
2215 3191 Pls
2227 3248 Pls
2239 3306 Pls
2251 3364 Pls
2263 3421 Pls
2275 3478 Pls
2287 3530 Pls
2300 3541 Pls
2312 3503 Pls
2324 3461 Pls
2336 3417 Pls
2348 3374 Pls
2360 3330 Pls
2372 3286 Pls
2384 3242 Pls
2396 3198 Pls
2408 3154 Pls
2420 3110 Pls
2432 3066 Pls
2444 3022 Pls
2456 2978 Pls
2468 2934 Pls
2480 2890 Pls
2492 2846 Pls
2504 2802 Pls
2516 2758 Pls
2528 2714 Pls
2540 2671 Pls
2552 2627 Pls
2565 2583 Pls
2577 2539 Pls
2589 2495 Pls
2601 2451 Pls
2613 2407 Pls
2625 2363 Pls
2637 2319 Pls
2007 2086 Pls
2019 2144 Pls
2031 2202 Pls
2043 2259 Pls
2055 2317 Pls
2067 2375 Pls
2079 2433 Pls
2091 2490 Pls
2104 2548 Pls
2116 2606 Pls
2128 2663 Pls
2140 2721 Pls
2152 2779 Pls
2164 2836 Pls
2176 2894 Pls
2188 2951 Pls
2200 3008 Pls
2212 3066 Pls
2224 3123 Pls
2236 3179 Pls
2248 3236 Pls
2260 3292 Pls
2272 3347 Pls
2284 3399 Pls
2296 3448 Pls
2308 3484 Pls
2320 3492 Pls
2332 3472 Pls
2344 3438 Pls
2357 3400 Pls
2369 3359 Pls
2381 3317 Pls
2393 3274 Pls
2405 3232 Pls
2417 3188 Pls
2429 3145 Pls
2441 3102 Pls
2453 3058 Pls
2465 3014 Pls
2477 2971 Pls
2489 2927 Pls
2501 2883 Pls
2513 2839 Pls
2525 2796 Pls
2537 2752 Pls
2549 2708 Pls
2561 2664 Pls
2573 2620 Pls
2585 2576 Pls
2597 2532 Pls
2609 2489 Pls
2622 2445 Pls
2634 2401 Pls
2646 2357 Pls
2658 2313 Pls
2028 2078 Pls
2040 2136 Pls
2052 2193 Pls
2064 2251 Pls
2076 2309 Pls
2088 2366 Pls
2100 2423 Pls
2112 2481 Pls
2124 2538 Pls
2136 2596 Pls
2148 2653 Pls
2161 2710 Pls
2173 2767 Pls
2185 2824 Pls
2197 2881 Pls
2209 2938 Pls
2221 2994 Pls
2233 3050 Pls
2245 3106 Pls
2257 3161 Pls
2269 3215 Pls
2281 3268 Pls
2293 3318 Pls
2305 3364 Pls
2317 3404 Pls
2329 3430 Pls
2341 3438 Pls
2353 3427 Pls
2365 3403 Pls
2377 3371 Pls
2389 3334 Pls
2401 3296 Pls
2414 3256 Pls
2426 3215 Pls
2438 3173 Pls
2450 3131 Pls
2462 3088 Pls
2474 3045 Pls
2486 3002 Pls
2498 2959 Pls
2510 2916 Pls
2522 2873 Pls
2534 2829 Pls
2546 2786 Pls
2558 2742 Pls
2570 2699 Pls
2582 2655 Pls
2594 2612 Pls
2606 2568 Pls
2618 2524 Pls
2630 2480 Pls
2642 2437 Pls
2654 2393 Pls
2666 2349 Pls
2679 2305 Pls
2049 2068 Pls
2061 2126 Pls
2073 2183 Pls
2085 2240 Pls
2097 2298 Pls
2109 2355 Pls
2121 2412 Pls
2133 2469 Pls
2145 2526 Pls
2157 2583 Pls
2169 2639 Pls
2181 2696 Pls
2193 2752 Pls
2206 2808 Pls
2218 2864 Pls
2230 2920 Pls
2242 2975 Pls
2254 3029 Pls
2266 3083 Pls
2278 3136 Pls
2290 3187 Pls
2302 3236 Pls
2314 3281 Pls
2326 3322 Pls
2338 3355 Pls
2350 3376 Pls
2362 3384 Pls
2374 3377 Pls
2386 3360 Pls
2398 3334 Pls
2410 3302 Pls
2422 3267 Pls
2434 3230 Pls
2446 3192 Pls
2458 3152 Pls
2471 3111 Pls
2483 3070 Pls
2495 3029 Pls
2507 2987 Pls
2519 2944 Pls
2531 2902 Pls
2543 2859 Pls
2555 2816 Pls
2567 2773 Pls
2579 2730 Pls
2591 2687 Pls
2603 2644 Pls
2615 2601 Pls
2627 2557 Pls
2639 2514 Pls
2651 2470 Pls
2663 2427 Pls
2675 2383 Pls
2687 2340 Pls
2699 2296 Pls
2070 2056 Pls
2082 2114 Pls
2094 2171 Pls
2106 2227 Pls
2118 2284 Pls
2130 2341 Pls
2142 2398 Pls
2154 2454 Pls
2166 2511 Pls
2178 2567 Pls
2190 2623 Pls
2202 2679 Pls
2214 2734 Pls
2226 2789 Pls
2238 2844 Pls
2250 2898 Pls
2263 2951 Pls
2275 3004 Pls
2287 3055 Pls
2299 3105 Pls
2311 3153 Pls
2323 3198 Pls
2335 3239 Pls
2347 3275 Pls
2359 3303 Pls
2371 3322 Pls
2383 3329 Pls
2395 3326 Pls
2407 3312 Pls
2419 3291 Pls
2431 3264 Pls
2443 3233 Pls
2455 3200 Pls
2467 3164 Pls
2479 3126 Pls
2491 3088 Pls
2503 3048 Pls
2515 3008 Pls
2528 2967 Pls
2540 2926 Pls
2552 2884 Pls
2564 2843 Pls
2576 2800 Pls
2588 2758 Pls
2600 2716 Pls
2612 2673 Pls
2624 2630 Pls
2636 2587 Pls
2648 2544 Pls
2660 2501 Pls
2672 2458 Pls
2684 2415 Pls
2696 2372 Pls
2708 2328 Pls
2091 2043 Pls
2103 2099 Pls
2115 2156 Pls
2127 2213 Pls
2139 2269 Pls
2151 2325 Pls
2163 2381 Pls
2175 2437 Pls
2187 2493 Pls
2199 2548 Pls
2211 2603 Pls
2223 2658 Pls
2235 2712 Pls
2247 2766 Pls
2259 2820 Pls
2271 2872 Pls
2283 2924 Pls
2295 2974 Pls
2307 3023 Pls
2320 3071 Pls
2332 3115 Pls
2344 3157 Pls
2356 3194 Pls
2368 3226 Pls
2380 3250 Pls
2392 3267 Pls
2404 3274 Pls
2416 3272 Pls
2428 3262 Pls
2440 3245 Pls
2452 3222 Pls
2464 3195 Pls
2476 3165 Pls
2488 3132 Pls
2500 3097 Pls
2512 3060 Pls
2524 3022 Pls
2536 2984 Pls
2548 2944 Pls
2560 2904 Pls
2572 2864 Pls
2585 2823 Pls
2597 2782 Pls
2609 2740 Pls
2621 2698 Pls
2633 2656 Pls
2645 2614 Pls
2657 2572 Pls
2669 2529 Pls
2681 2487 Pls
2693 2444 Pls
2705 2401 Pls
2717 2358 Pls
2729 2315 Pls
2111 2027 Pls
2124 2083 Pls
2136 2139 Pls
2148 2195 Pls
2160 2251 Pls
2172 2307 Pls
2184 2362 Pls
2196 2417 Pls
2208 2472 Pls
2220 2527 Pls
2232 2581 Pls
2244 2635 Pls
2256 2688 Pls
2268 2740 Pls
2280 2792 Pls
2292 2843 Pls
2304 2893 Pls
2316 2941 Pls
2328 2988 Pls
2340 3032 Pls
2352 3074 Pls
2364 3112 Pls
2377 3146 Pls
2389 3175 Pls
2401 3197 Pls
2413 3212 Pls
2425 3219 Pls
2437 3219 Pls
2449 3211 Pls
2461 3197 Pls
2473 3177 Pls
2485 3153 Pls
2497 3126 Pls
2509 3096 Pls
2521 3063 Pls
2533 3029 Pls
2545 2993 Pls
2557 2956 Pls
2569 2918 Pls
2581 2880 Pls
2593 2840 Pls
2605 2801 Pls
2617 2760 Pls
2629 2720 Pls
2642 2679 Pls
2654 2637 Pls
2666 2596 Pls
2678 2554 Pls
2690 2512 Pls
2702 2470 Pls
2714 2428 Pls
2726 2386 Pls
2738 2343 Pls
2750 2301 Pls
2132 2010 Pls
2144 2065 Pls
2156 2121 Pls
2168 2176 Pls
2181 2232 Pls
2193 2286 Pls
2205 2341 Pls
2217 2395 Pls
2229 2449 Pls
2241 2503 Pls
2253 2556 Pls
2265 2609 Pls
2277 2661 Pls
2289 2712 Pls
2301 2762 Pls
2313 2811 Pls
2325 2859 Pls
2337 2905 Pls
2349 2949 Pls
2361 2991 Pls
2373 3030 Pls
2385 3065 Pls
2397 3097 Pls
2409 3123 Pls
2421 3143 Pls
2434 3157 Pls
2446 3164 Pls
2458 3165 Pls
2470 3159 Pls
2482 3147 Pls
2494 3130 Pls
2506 3109 Pls
2518 3084 Pls
2530 3057 Pls
2542 3027 Pls
2554 2994 Pls
2566 2961 Pls
2578 2926 Pls
2590 2889 Pls
2602 2852 Pls
2614 2814 Pls
2626 2776 Pls
2638 2736 Pls
2650 2697 Pls
2662 2657 Pls
2674 2616 Pls
2686 2575 Pls
2699 2534 Pls
2711 2493 Pls
2723 2452 Pls
2735 2410 Pls
2747 2368 Pls
2759 2326 Pls
2771 2284 Pls
2153 1990 Pls
2165 2046 Pls
2177 2101 Pls
2189 2155 Pls
2201 2210 Pls
2213 2264 Pls
2226 2318 Pls
2238 2371 Pls
2250 2424 Pls
2262 2477 Pls
2274 2529 Pls
2286 2580 Pls
2298 2631 Pls
2310 2680 Pls
2322 2729 Pls
2334 2776 Pls
2346 2822 Pls
2358 2866 Pls
2370 2908 Pls
2382 2948 Pls
2394 2984 Pls
2406 3017 Pls
2418 3046 Pls
2430 3070 Pls
2442 3089 Pls
2454 3102 Pls
2466 3109 Pls
2478 3111 Pls
2491 3106 Pls
2503 3096 Pls
2515 3082 Pls
2527 3063 Pls
2539 3041 Pls
2551 3015 Pls
2563 2988 Pls
2575 2957 Pls
2587 2926 Pls
2599 2892 Pls
2611 2858 Pls
2623 2822 Pls
2635 2785 Pls
2647 2748 Pls
2659 2710 Pls
2671 2671 Pls
2683 2632 Pls
2695 2593 Pls
2707 2553 Pls
2719 2513 Pls
2731 2472 Pls
2743 2431 Pls
2756 2390 Pls
2768 2349 Pls
2780 2307 Pls
2792 2266 Pls
2174 1970 Pls
2186 2024 Pls
2198 2078 Pls
2210 2132 Pls
2222 2186 Pls
2234 2240 Pls
2246 2293 Pls
2258 2345 Pls
2270 2397 Pls
2283 2448 Pls
2295 2499 Pls
2307 2549 Pls
2319 2598 Pls
2331 2647 Pls
2343 2693 Pls
2355 2739 Pls
2367 2783 Pls
2379 2825 Pls
2391 2865 Pls
2403 2902 Pls
2415 2937 Pls
2427 2967 Pls
2439 2994 Pls
2451 3017 Pls
2463 3035 Pls
2475 3047 Pls
2487 3054 Pls
2499 3056 Pls
2511 3053 Pls
2523 3045 Pls
2535 3032 Pls
2548 3015 Pls
2560 2995 Pls
2572 2972 Pls
2584 2946 Pls
2596 2918 Pls
2608 2888 Pls
2620 2857 Pls
2632 2824 Pls
2644 2790 Pls
2656 2755 Pls
2668 2718 Pls
2680 2682 Pls
2692 2644 Pls
2704 2606 Pls
2716 2567 Pls
2728 2528 Pls
2740 2489 Pls
2752 2449 Pls
2764 2409 Pls
2776 2369 Pls
2788 2328 Pls
2800 2287 Pls
2195 1947 Pls
2207 2001 Pls
2219 2055 Pls
2231 2108 Pls
2243 2161 Pls
2255 2213 Pls
2267 2265 Pls
2279 2317 Pls
2291 2368 Pls
2303 2418 Pls
2315 2468 Pls
2327 2516 Pls
2340 2564 Pls
2352 2611 Pls
2364 2656 Pls
2376 2700 Pls
2388 2742 Pls
2400 2782 Pls
2412 2820 Pls
2424 2856 Pls
2436 2888 Pls
2448 2917 Pls
2460 2942 Pls
2472 2963 Pls
2484 2980 Pls
2496 2992 Pls
2508 2999 Pls
2520 3002 Pls
2532 2999 Pls
2544 2992 Pls
2556 2981 Pls
2568 2967 Pls
2580 2948 Pls
2592 2927 Pls
2605 2903 Pls
2617 2877 Pls
2629 2849 Pls
2641 2819 Pls
2653 2788 Pls
2665 2755 Pls
2677 2722 Pls
2689 2687 Pls
2701 2651 Pls
2713 2615 Pls
2725 2578 Pls
2737 2540 Pls
2749 2502 Pls
2761 2463 Pls
2773 2424 Pls
2785 2385 Pls
2797 2345 Pls
2809 2305 Pls
2821 2265 Pls
2216 1923 Pls
2228 1976 Pls
2240 2029 Pls
2252 2081 Pls
2264 2134 Pls
2276 2185 Pls
2288 2236 Pls
2300 2287 Pls
2312 2337 Pls
2324 2386 Pls
2336 2434 Pls
2348 2482 Pls
2360 2528 Pls
2372 2573 Pls
2384 2617 Pls
2397 2659 Pls
2409 2700 Pls
2421 2738 Pls
2433 2774 Pls
2445 2808 Pls
2457 2838 Pls
2469 2866 Pls
2481 2890 Pls
2493 2910 Pls
2505 2925 Pls
2517 2937 Pls
2529 2944 Pls
2541 2947 Pls
2553 2945 Pls
2565 2940 Pls
2577 2930 Pls
2589 2917 Pls
2601 2900 Pls
2613 2881 Pls
2625 2859 Pls
2637 2835 Pls
2649 2808 Pls
2662 2780 Pls
2674 2750 Pls
2686 2719 Pls
2698 2687 Pls
2710 2653 Pls
2722 2619 Pls
2734 2584 Pls
2746 2548 Pls
2758 2511 Pls
2770 2474 Pls
2782 2436 Pls
2794 2398 Pls
2806 2359 Pls
2818 2320 Pls
2830 2281 Pls
2237 1897 Pls
2249 1950 Pls
2261 2002 Pls
2273 2053 Pls
2285 2105 Pls
2297 2155 Pls
2309 2206 Pls
2321 2255 Pls
2333 2304 Pls
2345 2352 Pls
2357 2399 Pls
2369 2445 Pls
2381 2490 Pls
2393 2534 Pls
2405 2576 Pls
2417 2617 Pls
2429 2656 Pls
2441 2692 Pls
2454 2727 Pls
2466 2759 Pls
2478 2788 Pls
2490 2814 Pls
2502 2837 Pls
2514 2856 Pls
2526 2871 Pls
2538 2882 Pls
2550 2889 Pls
2562 2892 Pls
2574 2891 Pls
2586 2887 Pls
2598 2878 Pls
2610 2866 Pls
2622 2851 Pls
2634 2834 Pls
2646 2813 Pls
2658 2790 Pls
2670 2766 Pls
2682 2739 Pls
2694 2711 Pls
2706 2681 Pls
2719 2650 Pls
2731 2618 Pls
2743 2585 Pls
2755 2551 Pls
2767 2516 Pls
2779 2480 Pls
2791 2444 Pls
2803 2407 Pls
2815 2370 Pls
2827 2332 Pls
2839 2294 Pls
2851 2255 Pls
2270 1922 Pls
2282 1973 Pls
2294 2024 Pls
2306 2074 Pls
2318 2124 Pls
2330 2173 Pls
2342 2222 Pls
2354 2270 Pls
2366 2316 Pls
2378 2362 Pls
2390 2407 Pls
2402 2451 Pls
2414 2493 Pls
2426 2534 Pls
2438 2573 Pls
2450 2610 Pls
2462 2646 Pls
2474 2679 Pls
2486 2709 Pls
2498 2737 Pls
2511 2762 Pls
2523 2783 Pls
2535 2802 Pls
2547 2816 Pls
2559 2827 Pls
2571 2834 Pls
2583 2837 Pls
2595 2837 Pls
2607 2833 Pls
2619 2826 Pls
2631 2815 Pls
2643 2802 Pls
2655 2785 Pls
2667 2766 Pls
2679 2745 Pls
2691 2722 Pls
2703 2697 Pls
2715 2670 Pls
2727 2642 Pls
2739 2612 Pls
2751 2581 Pls
2763 2549 Pls
2776 2516 Pls
2788 2482 Pls
2800 2448 Pls
2812 2413 Pls
2824 2377 Pls
2836 2340 Pls
2848 2303 Pls
2860 2266 Pls
2290 1892 Pls
2303 1943 Pls
2315 1993 Pls
2327 2043 Pls
2339 2091 Pls
2351 2140 Pls
2363 2187 Pls
2375 2234 Pls
2387 2279 Pls
2399 2324 Pls
2411 2368 Pls
2423 2410 Pls
2435 2451 Pls
2447 2491 Pls
2459 2528 Pls
2471 2564 Pls
2483 2598 Pls
2495 2630 Pls
2507 2659 Pls
2519 2686 Pls
2531 2709 Pls
2543 2730 Pls
2555 2747 Pls
2568 2761 Pls
2580 2772 Pls
2592 2779 Pls
2604 2783 Pls
2616 2783 Pls
2628 2780 Pls
2640 2773 Pls
2652 2764 Pls
2664 2751 Pls
2676 2736 Pls
2688 2719 Pls
2700 2699 Pls
2712 2677 Pls
2724 2653 Pls
2736 2628 Pls
2748 2601 Pls
2760 2572 Pls
2772 2543 Pls
2784 2512 Pls
2796 2480 Pls
2808 2448 Pls
2820 2414 Pls
2833 2380 Pls
2845 2345 Pls
2857 2309 Pls
2869 2273 Pls
2881 2236 Pls
2323 1912 Pls
2335 1961 Pls
2347 2009 Pls
2360 2057 Pls
2372 2104 Pls
2384 2151 Pls
2396 2196 Pls
2408 2241 Pls
2420 2285 Pls
2432 2327 Pls
2444 2368 Pls
2456 2408 Pls
2468 2446 Pls
2480 2483 Pls
2492 2517 Pls
2504 2550 Pls
2516 2580 Pls
2528 2608 Pls
2540 2634 Pls
2552 2656 Pls
2564 2676 Pls
2576 2693 Pls
2588 2707 Pls
2600 2717 Pls
2344 1879 Pls
2356 1927 Pls
2368 1975 Pls
2380 2022 Pls
2392 2068 Pls
2404 2114 Pls
2417 2158 Pls
2429 2202 Pls
2441 2244 Pls
2453 2285 Pls
2465 2325 Pls
2477 2364 Pls
2489 2401 Pls
2501 2436 Pls
2513 2469 Pls
2525 2501 Pls
2537 2530 Pls
2549 2557 Pls
2561 2581 Pls
2573 2603 Pls
2585 2622 Pls
2597 2638 Pls
2609 2652 Pls
2621 2662 Pls
2633 2669 Pls
2645 2673 Pls
2657 2674 Pls
2669 2672 Pls
2682 2667 Pls
2694 2659 Pls
2706 2649 Pls
2718 2636 Pls
2730 2621 Pls
2742 2604 Pls
2754 2584 Pls
2766 2563 Pls
2778 2540 Pls
2790 2516 Pls
2802 2490 Pls
2814 2462 Pls
2826 2434 Pls
2838 2404 Pls
2850 2374 Pls
2862 2342 Pls
2874 2310 Pls
2886 2277 Pls
2898 2243 Pls
2910 2209 Pls
2377 1892 Pls
2389 1939 Pls
2401 1985 Pls
2413 2031 Pls
2425 2075 Pls
2437 2119 Pls
2449 2161 Pls
2461 2202 Pls
2474 2242 Pls
2486 2281 Pls
2498 2319 Pls
2510 2354 Pls
2522 2389 Pls
2534 2421 Pls
2546 2451 Pls
2558 2479 Pls
2570 2505 Pls
2582 2529 Pls
2594 2550 Pls
2606 2568 Pls
2618 2584 Pls
2630 2597 Pls
2642 2607 Pls
2654 2614 Pls
2666 2618 Pls
2678 2619 Pls
2690 2618 Pls
2702 2614 Pls
2714 2607 Pls
2726 2597 Pls
2739 2585 Pls
2751 2571 Pls
2763 2555 Pls
2775 2537 Pls
2787 2517 Pls
2799 2495 Pls
2811 2472 Pls
2823 2447 Pls
2835 2421 Pls
2847 2393 Pls
2859 2365 Pls
2871 2335 Pls
2883 2305 Pls
2895 2273 Pls
2907 2241 Pls
2919 2208 Pls
2410 1903 Pls
2422 1948 Pls
2434 1992 Pls
2446 2035 Pls
2458 2078 Pls
2470 2119 Pls
2482 2160 Pls
2494 2199 Pls
2506 2236 Pls
2518 2273 Pls
2531 2307 Pls
2543 2340 Pls
2555 2372 Pls
2567 2401 Pls
2579 2428 Pls
2591 2453 Pls
2603 2476 Pls
2615 2496 Pls
2627 2514 Pls
2639 2529 Pls
2651 2542 Pls
2663 2552 Pls
2675 2559 Pls
2687 2563 Pls
2699 2565 Pls
2711 2564 Pls
2723 2560 Pls
2735 2554 Pls
2747 2545 Pls
2759 2534 Pls
2771 2521 Pls
2783 2506 Pls
2796 2489 Pls
2808 2470 Pls
2820 2449 Pls
2832 2427 Pls
2844 2403 Pls
2856 2378 Pls
2868 2352 Pls
2880 2324 Pls
2892 2296 Pls
2904 2266 Pls
2916 2236 Pls
2928 2204 Pls
2443 1909 Pls
2455 1952 Pls
2467 1995 Pls
2479 2036 Pls
2491 2077 Pls
2503 2116 Pls
2515 2154 Pls
2527 2191 Pls
2539 2226 Pls
2551 2260 Pls
2563 2292 Pls
2575 2322 Pls
2588 2350 Pls
2600 2377 Pls
2612 2401 Pls
2624 2423 Pls
2636 2443 Pls
2648 2460 Pls
2660 2475 Pls
2672 2487 Pls
2684 2497 Pls
2696 2504 Pls
2708 2508 Pls
2720 2510 Pls
2732 2509 Pls
2744 2506 Pls
2756 2501 Pls
2768 2493 Pls
2780 2482 Pls
2792 2470 Pls
2804 2456 Pls
2816 2440 Pls
2828 2422 Pls
2840 2402 Pls
2853 2381 Pls
2865 2358 Pls
2877 2334 Pls
2889 2309 Pls
2901 2282 Pls
2913 2255 Pls
2925 2226 Pls
2937 2197 Pls
2476 1912 Pls
2488 1953 Pls
2500 1994 Pls
2512 2033 Pls
2524 2072 Pls
2536 2109 Pls
2548 2145 Pls
2560 2179 Pls
2572 2211 Pls
2584 2243 Pls
2596 2272 Pls
2608 2299 Pls
2620 2325 Pls
2632 2348 Pls
2645 2370 Pls
2657 2389 Pls
2669 2406 Pls
2681 2420 Pls
2693 2432 Pls
2705 2442 Pls
2717 2449 Pls
2729 2453 Pls
2741 2455 Pls
2753 2455 Pls
2765 2452 Pls
2777 2447 Pls
2789 2440 Pls
2801 2431 Pls
2813 2419 Pls
2825 2406 Pls
2837 2390 Pls
2849 2373 Pls
2861 2355 Pls
2873 2334 Pls
2885 2313 Pls
2898 2290 Pls
2910 2265 Pls
2922 2240 Pls
2934 2213 Pls
2946 2186 Pls
2509 1911 Pls
2521 1951 Pls
2533 1989 Pls
2545 2027 Pls
2557 2063 Pls
2569 2098 Pls
2581 2131 Pls
2593 2163 Pls
2605 2193 Pls
2617 2221 Pls
2629 2248 Pls
2641 2273 Pls
2653 2296 Pls
2665 2316 Pls
2677 2335 Pls
2689 2351 Pls
2702 2365 Pls
2714 2377 Pls
2726 2386 Pls
2738 2394 Pls
2750 2398 Pls
2762 2401 Pls
2774 2401 Pls
2786 2398 Pls
2798 2394 Pls
2810 2387 Pls
2822 2378 Pls
2834 2368 Pls
2846 2355 Pls
2858 2341 Pls
2870 2325 Pls
2882 2307 Pls
2894 2287 Pls
2906 2267 Pls
2918 2245 Pls
2930 2221 Pls
2942 2197 Pls
2955 2171 Pls
2542 1907 Pls
2554 1945 Pls
2566 1981 Pls
2578 2016 Pls
2590 2050 Pls
2602 2083 Pls
2614 2113 Pls
2626 2143 Pls
2638 2171 Pls
2650 2196 Pls
2662 2221 Pls
2674 2243 Pls
2686 2263 Pls
2698 2281 Pls
2710 2297 Pls
2722 2311 Pls
2734 2322 Pls
2746 2331 Pls
2759 2338 Pls
2771 2343 Pls
2783 2346 Pls
2795 2346 Pls
2807 2344 Pls
2819 2340 Pls
2831 2334 Pls
2843 2326 Pls
2855 2316 Pls
2867 2304 Pls
2879 2291 Pls
2891 2275 Pls
2903 2258 Pls
2915 2240 Pls
2927 2220 Pls
2939 2199 Pls
2951 2176 Pls
2963 2153 Pls
2575 1899 Pls
2587 1935 Pls
2599 1969 Pls
2611 2002 Pls
2623 2034 Pls
2635 2064 Pls
2647 2092 Pls
2659 2119 Pls
2671 2145 Pls
2683 2168 Pls
2695 2189 Pls
2707 2209 Pls
2719 2227 Pls
2731 2242 Pls
2743 2256 Pls
2755 2267 Pls
2767 2276 Pls
2779 2283 Pls
2791 2288 Pls
2803 2291 Pls
2816 2292 Pls
2828 2290 Pls
2840 2287 Pls
2852 2281 Pls
2864 2273 Pls
2876 2264 Pls
2888 2253 Pls
2900 2240 Pls
2912 2226 Pls
2924 2209 Pls
2936 2192 Pls
2948 2173 Pls
2960 2152 Pls
2972 2131 Pls
2620 1921 Pls
2632 1954 Pls
2644 1984 Pls
2656 2014 Pls
2668 2042 Pls
2680 2068 Pls
2692 2092 Pls
2704 2115 Pls
2716 2136 Pls
2728 2155 Pls
2740 2173 Pls
2752 2188 Pls
2764 2201 Pls
2776 2212 Pls
2788 2221 Pls
2800 2228 Pls
2812 2233 Pls
2824 2236 Pls
2836 2237 Pls
2848 2236 Pls
2860 2233 Pls
2873 2228 Pls
2885 2221 Pls
2897 2212 Pls
2909 2201 Pls
2921 2189 Pls
2933 2175 Pls
2945 2160 Pls
2957 2143 Pls
2969 2125 Pls
2665 1935 Pls
2677 1963 Pls
2689 1991 Pls
2701 2016 Pls
2713 2040 Pls
2725 2062 Pls
2737 2083 Pls
2749 2101 Pls
2761 2118 Pls
2773 2133 Pls
2785 2146 Pls
2797 2157 Pls
2809 2166 Pls
2821 2173 Pls
2833 2178 Pls
2845 2181 Pls
2857 2182 Pls
2869 2182 Pls
2881 2179 Pls
2893 2174 Pls
2905 2168 Pls
2918 2160 Pls
2930 2150 Pls
2942 2138 Pls
2954 2125 Pls
2966 2110 Pls
2709 1939 Pls
2722 1964 Pls
2734 1988 Pls
2746 2009 Pls
2758 2029 Pls
2770 2047 Pls
2782 2064 Pls
2794 2079 Pls
2806 2091 Pls
2818 2102 Pls
2830 2111 Pls
2842 2118 Pls
2854 2123 Pls
2866 2126 Pls
2878 2128 Pls
2890 2127 Pls
2902 2125 Pls
2914 2121 Pls
2926 2115 Pls
2938 2107 Pls
2950 2098 Pls
2962 2087 Pls
2766 1956 Pls
2779 1976 Pls
2791 1993 Pls
2803 2010 Pls
2815 2024 Pls
2827 2036 Pls
2839 2047 Pls
2851 2056 Pls
2863 2063 Pls
2875 2068 Pls
2887 2072 Pls
2899 2073 Pls
2911 2073 Pls
2923 2071 Pls
2935 2067 Pls
2947 2061 Pls
2836 1969 Pls
2848 1982 Pls
2860 1992 Pls
2872 2001 Pls
2884 2008 Pls
2896 2013 Pls
2908 2017 Pls
2920 2018 Pls
4279 2432 Pls
4291 2444 Pls
4303 2455 Pls
4315 2463 Pls
4327 2470 Pls
4339 2475 Pls
4351 2479 Pls
4363 2480 Pls
4252 2412 Pls
4264 2431 Pls
4276 2449 Pls
4288 2465 Pls
4300 2479 Pls
4312 2491 Pls
4324 2502 Pls
4336 2511 Pls
4348 2517 Pls
4360 2522 Pls
4372 2526 Pls
4384 2527 Pls
4396 2526 Pls
4408 2524 Pls
4420 2520 Pls
4433 2515 Pls
4237 2388 Pls
4249 2413 Pls
4261 2436 Pls
4273 2457 Pls
4285 2477 Pls
4297 2495 Pls
4309 2511 Pls
4321 2526 Pls
4333 2538 Pls
4345 2549 Pls
4357 2558 Pls
4369 2564 Pls
4381 2569 Pls
4393 2572 Pls
4405 2574 Pls
4417 2573 Pls
4429 2570 Pls
4441 2566 Pls
4453 2560 Pls
4465 2552 Pls
4477 2542 Pls
4490 2531 Pls
4233 2376 Pls
4245 2404 Pls
4257 2431 Pls
4269 2457 Pls
4281 2480 Pls
4294 2502 Pls
4306 2523 Pls
4318 2541 Pls
4330 2558 Pls
4342 2572 Pls
4354 2585 Pls
4366 2596 Pls
4378 2605 Pls
4390 2612 Pls
4402 2616 Pls
4414 2619 Pls
4426 2620 Pls
4438 2619 Pls
4450 2616 Pls
4462 2611 Pls
4474 2605 Pls
4486 2597 Pls
4498 2586 Pls
4510 2575 Pls
4522 2562 Pls
4534 2547 Pls
4230 2355 Pls
4242 2387 Pls
4254 2417 Pls
4266 2447 Pls
4278 2474 Pls
4290 2500 Pls
4302 2525 Pls
4314 2547 Pls
4326 2568 Pls
4339 2587 Pls
4351 2604 Pls
4363 2619 Pls
4375 2632 Pls
4387 2643 Pls
4399 2652 Pls
4411 2659 Pls
4423 2663 Pls
4435 2666 Pls
4447 2667 Pls
4459 2665 Pls
4471 2662 Pls
4483 2657 Pls
4495 2650 Pls
4507 2641 Pls
4519 2630 Pls
4531 2618 Pls
4543 2604 Pls
4555 2588 Pls
4567 2572 Pls
4579 2553 Pls
4227 2325 Pls
4239 2360 Pls
4251 2395 Pls
4263 2427 Pls
4275 2459 Pls
4287 2489 Pls
4299 2517 Pls
4311 2544 Pls
4323 2569 Pls
4335 2592 Pls
4347 2613 Pls
4359 2633 Pls
4371 2650 Pls
4383 2666 Pls
4396 2679 Pls
4408 2690 Pls
4420 2699 Pls
4432 2706 Pls
4444 2710 Pls
4456 2713 Pls
4468 2713 Pls
4480 2712 Pls
4492 2708 Pls
4504 2702 Pls
4516 2695 Pls
4528 2685 Pls
4540 2674 Pls
4552 2661 Pls
4564 2646 Pls
4576 2630 Pls
4588 2612 Pls
4600 2593 Pls
4612 2572 Pls
4624 2551 Pls
4236 2325 Pls
4248 2363 Pls
4260 2399 Pls
4272 2434 Pls
4284 2468 Pls
4296 2500 Pls
4308 2531 Pls
4320 2560 Pls
4332 2587 Pls
4344 2613 Pls
4356 2637 Pls
4368 2659 Pls
4380 2679 Pls
4392 2696 Pls
4404 2712 Pls
4416 2726 Pls
4428 2737 Pls
4440 2746 Pls
4453 2753 Pls
4465 2757 Pls
4477 2760 Pls
4489 2760 Pls
4501 2758 Pls
4513 2754 Pls
4525 2747 Pls
4537 2739 Pls
4549 2729 Pls
4561 2717 Pls
4573 2703 Pls
4585 2688 Pls
4597 2671 Pls
4609 2652 Pls
4621 2632 Pls
4633 2611 Pls
4645 2588 Pls
4657 2565 Pls
4244 2322 Pls
4257 2361 Pls
4269 2399 Pls
4281 2437 Pls
4293 2473 Pls
4305 2507 Pls
4317 2540 Pls
4329 2572 Pls
4341 2602 Pls
4353 2630 Pls
4365 2657 Pls
4377 2681 Pls
4389 2704 Pls
4401 2724 Pls
4413 2742 Pls
4425 2759 Pls
4437 2772 Pls
4449 2784 Pls
4461 2793 Pls
4473 2800 Pls
4485 2804 Pls
4497 2806 Pls
4510 2806 Pls
4522 2804 Pls
4534 2799 Pls
4546 2792 Pls
4558 2783 Pls
4570 2773 Pls
4582 2760 Pls
4594 2745 Pls
4606 2729 Pls
4618 2711 Pls
4630 2692 Pls
4642 2671 Pls
4654 2649 Pls
4666 2625 Pls
4678 2600 Pls
4690 2575 Pls
4253 2315 Pls
4265 2356 Pls
4277 2396 Pls
4289 2436 Pls
4301 2474 Pls
4314 2511 Pls
4326 2546 Pls
4338 2580 Pls
4350 2613 Pls
4362 2644 Pls
4374 2673 Pls
4386 2700 Pls
4398 2725 Pls
4410 2748 Pls
4422 2770 Pls
4434 2788 Pls
4446 2805 Pls
4458 2819 Pls
4470 2831 Pls
4482 2840 Pls
4494 2847 Pls
4506 2851 Pls
4518 2853 Pls
4530 2853 Pls
4542 2850 Pls
4554 2844 Pls
4567 2837 Pls
4579 2827 Pls
4591 2816 Pls
4603 2802 Pls
4615 2787 Pls
4627 2770 Pls
4639 2751 Pls
4651 2731 Pls
4663 2709 Pls
4675 2686 Pls
4687 2661 Pls
4699 2636 Pls
4711 2609 Pls
4723 2581 Pls
4262 2304 Pls
4274 2347 Pls
4286 2390 Pls
4298 2431 Pls
4310 2471 Pls
4322 2510 Pls
4334 2548 Pls
4346 2585 Pls
4359 2620 Pls
4371 2653 Pls
4383 2685 Pls
4395 2715 Pls
4407 2743 Pls
4419 2769 Pls
4431 2793 Pls
4443 2815 Pls
4455 2834 Pls
4467 2851 Pls
4479 2866 Pls
4491 2878 Pls
4503 2887 Pls
4515 2894 Pls
4527 2898 Pls
4539 2900 Pls
4551 2899 Pls
4563 2896 Pls
4575 2890 Pls
4587 2882 Pls
4599 2871 Pls
4611 2859 Pls
4624 2844 Pls
4636 2828 Pls
4648 2810 Pls
4660 2790 Pls
4672 2769 Pls
4684 2746 Pls
4696 2722 Pls
4708 2697 Pls
4720 2670 Pls
4732 2643 Pls
4744 2614 Pls
4756 2585 Pls
4271 2290 Pls
4283 2335 Pls
4295 2379 Pls
4307 2422 Pls
4319 2465 Pls
4331 2506 Pls
4343 2546 Pls
4355 2585 Pls
4367 2622 Pls
4379 2658 Pls
4391 2693 Pls
4403 2726 Pls
4416 2757 Pls
4428 2786 Pls
4440 2813 Pls
4452 2837 Pls
4464 2860 Pls
4476 2880 Pls
4488 2898 Pls
4500 2912 Pls
4512 2925 Pls
4524 2934 Pls
4536 2941 Pls
4548 2945 Pls
4560 2946 Pls
4572 2945 Pls
4584 2941 Pls
4596 2935 Pls
4608 2926 Pls
4620 2915 Pls
4632 2901 Pls
4644 2886 Pls
4656 2869 Pls
4668 2850 Pls
4681 2829 Pls
4693 2807 Pls
4705 2783 Pls
4717 2758 Pls
4729 2731 Pls
4741 2704 Pls
4753 2675 Pls
4765 2646 Pls
4777 2615 Pls
4789 2584 Pls
4280 2272 Pls
4292 2319 Pls
4304 2365 Pls
4316 2410 Pls
4328 2454 Pls
4340 2497 Pls
4352 2540 Pls
4364 2581 Pls
4376 2621 Pls
4388 2659 Pls
4400 2696 Pls
4412 2732 Pls
4424 2766 Pls
4436 2798 Pls
4448 2828 Pls
4460 2856 Pls
4473 2882 Pls
4485 2905 Pls
4497 2926 Pls
4509 2944 Pls
4521 2959 Pls
4533 2972 Pls
4545 2981 Pls
4557 2988 Pls
4569 2992 Pls
4581 2993 Pls
4593 2991 Pls
4605 2987 Pls
4617 2980 Pls
4629 2970 Pls
4641 2958 Pls
4653 2944 Pls
4665 2927 Pls
4677 2909 Pls
4689 2889 Pls
4701 2867 Pls
4713 2843 Pls
4725 2818 Pls
4738 2792 Pls
4750 2765 Pls
4762 2736 Pls
4774 2707 Pls
4786 2676 Pls
4798 2645 Pls
4810 2613 Pls
4822 2580 Pls
4289 2251 Pls
4301 2299 Pls
4313 2346 Pls
4325 2393 Pls
4337 2439 Pls
4349 2485 Pls
4361 2529 Pls
4373 2572 Pls
4385 2615 Pls
4397 2656 Pls
4409 2695 Pls
4421 2734 Pls
4433 2770 Pls
4445 2805 Pls
4457 2839 Pls
4469 2870 Pls
4481 2899 Pls
4493 2925 Pls
4505 2950 Pls
4517 2971 Pls
4530 2990 Pls
4542 3006 Pls
4554 3019 Pls
4566 3028 Pls
4578 3035 Pls
4590 3039 Pls
4602 3040 Pls
4614 3037 Pls
4626 3032 Pls
4638 3024 Pls
4650 3014 Pls
4662 3001 Pls
4674 2985 Pls
4686 2968 Pls
4698 2948 Pls
4710 2927 Pls
4722 2904 Pls
4734 2879 Pls
4746 2853 Pls
4758 2826 Pls
4770 2797 Pls
4782 2768 Pls
4795 2737 Pls
4807 2706 Pls
4819 2674 Pls
4831 2640 Pls
4843 2607 Pls
4855 2572 Pls
4309 2275 Pls
4321 2325 Pls
4334 2373 Pls
4346 2421 Pls
4358 2468 Pls
4370 2514 Pls
4382 2560 Pls
4394 2604 Pls
4406 2647 Pls
4418 2690 Pls
4430 2730 Pls
4442 2770 Pls
4454 2808 Pls
4466 2844 Pls
4478 2879 Pls
4490 2911 Pls
4502 2941 Pls
4514 2969 Pls
4526 2994 Pls
4538 3016 Pls
4550 3036 Pls
4562 3052 Pls
4574 3065 Pls
4587 3075 Pls
4599 3082 Pls
4611 3086 Pls
4623 3086 Pls
4635 3083 Pls
4647 3077 Pls
4659 3068 Pls
4671 3057 Pls
4683 3043 Pls
4695 3026 Pls
4707 3008 Pls
4719 2987 Pls
4731 2964 Pls
4743 2940 Pls
4755 2914 Pls
4767 2887 Pls
4779 2859 Pls
4791 2829 Pls
4803 2798 Pls
4815 2767 Pls
4827 2734 Pls
4839 2701 Pls
4852 2667 Pls
4864 2632 Pls
4876 2597 Pls
4318 2249 Pls
4330 2299 Pls
4342 2349 Pls
4354 2398 Pls
4366 2447 Pls
4379 2495 Pls
4391 2542 Pls
4403 2589 Pls
4415 2634 Pls
4427 2679 Pls
4439 2722 Pls
4451 2765 Pls
4463 2805 Pls
4475 2845 Pls
4487 2882 Pls
4499 2918 Pls
4511 2951 Pls
4523 2983 Pls
4535 3012 Pls
4547 3038 Pls
4559 3061 Pls
4571 3082 Pls
4583 3099 Pls
4595 3112 Pls
4607 3123 Pls
4619 3129 Pls
4631 3133 Pls
4644 3132 Pls
4656 3129 Pls
4668 3122 Pls
4680 3112 Pls
4692 3100 Pls
4704 3084 Pls
4716 3067 Pls
4728 3047 Pls
4740 3025 Pls
4752 3001 Pls
4764 2975 Pls
4776 2948 Pls
4788 2920 Pls
4800 2890 Pls
4812 2859 Pls
4824 2828 Pls
4836 2795 Pls
4848 2761 Pls
4860 2727 Pls
4872 2692 Pls
4884 2657 Pls
4896 2620 Pls
4909 2584 Pls
4327 2218 Pls
4339 2270 Pls
4351 2321 Pls
4363 2372 Pls
4375 2422 Pls
4387 2472 Pls
4399 2521 Pls
4411 2569 Pls
4423 2617 Pls
4436 2664 Pls
4448 2709 Pls
4460 2754 Pls
4472 2797 Pls
4484 2840 Pls
4496 2880 Pls
4508 2919 Pls
4520 2956 Pls
4532 2991 Pls
4544 3024 Pls
4556 3054 Pls
4568 3082 Pls
4580 3106 Pls
4592 3127 Pls
4604 3145 Pls
4616 3159 Pls
4628 3170 Pls
4640 3176 Pls
4652 3179 Pls
4664 3179 Pls
4676 3174 Pls
4688 3167 Pls
4701 3156 Pls
4713 3142 Pls
4725 3125 Pls
4737 3106 Pls
4749 3085 Pls
4761 3062 Pls
4773 3036 Pls
4785 3009 Pls
4797 2981 Pls
4809 2951 Pls
4821 2920 Pls
4833 2888 Pls
4845 2855 Pls
4857 2822 Pls
4869 2787 Pls
4881 2752 Pls
4893 2716 Pls
4905 2680 Pls
4917 2643 Pls
4929 2605 Pls
4348 2238 Pls
4360 2290 Pls
4372 2342 Pls
4384 2394 Pls
4396 2445 Pls
4408 2495 Pls
4420 2545 Pls
4432 2595 Pls
4444 2643 Pls
4456 2691 Pls
4468 2738 Pls
4480 2784 Pls
4493 2829 Pls
4505 2872 Pls
4517 2914 Pls
4529 2955 Pls
4541 2993 Pls
4553 3030 Pls
4565 3064 Pls
4577 3096 Pls
4589 3125 Pls
4601 3150 Pls
4613 3173 Pls
4625 3191 Pls
4637 3206 Pls
4649 3217 Pls
4661 3223 Pls
4673 3226 Pls
4685 3225 Pls
4697 3220 Pls
4709 3211 Pls
4721 3199 Pls
4733 3184 Pls
4745 3166 Pls
4758 3145 Pls
4770 3122 Pls
4782 3097 Pls
4794 3070 Pls
4806 3042 Pls
4818 3012 Pls
4830 2981 Pls
4842 2949 Pls
4854 2916 Pls
4866 2882 Pls
4878 2847 Pls
4890 2811 Pls
4902 2775 Pls
4914 2738 Pls
4926 2701 Pls
4938 2663 Pls
4950 2625 Pls
4962 2587 Pls
4369 2255 Pls
4381 2309 Pls
4393 2361 Pls
4405 2414 Pls
4417 2466 Pls
4429 2517 Pls
4441 2568 Pls
4453 2619 Pls
4465 2668 Pls
4477 2717 Pls
4489 2766 Pls
4501 2813 Pls
4513 2859 Pls
4525 2904 Pls
4537 2947 Pls
4550 2989 Pls
4562 3030 Pls
4574 3068 Pls
4586 3104 Pls
4598 3137 Pls
4610 3167 Pls
4622 3194 Pls
4634 3218 Pls
4646 3237 Pls
4658 3253 Pls
4670 3264 Pls
4682 3270 Pls
4694 3273 Pls
4706 3271 Pls
4718 3265 Pls
4730 3255 Pls
4742 3241 Pls
4754 3224 Pls
4766 3205 Pls
4778 3183 Pls
4790 3158 Pls
4802 3132 Pls
4815 3103 Pls
4827 3073 Pls
4839 3042 Pls
4851 3010 Pls
4863 2976 Pls
4875 2942 Pls
4887 2907 Pls
4899 2871 Pls
4911 2834 Pls
4923 2797 Pls
4935 2759 Pls
4947 2721 Pls
4959 2683 Pls
4971 2644 Pls
4983 2604 Pls
4378 2218 Pls
4390 2272 Pls
4402 2326 Pls
4414 2379 Pls
4426 2432 Pls
4438 2485 Pls
4450 2537 Pls
4462 2589 Pls
4474 2641 Pls
4486 2692 Pls
4498 2742 Pls
4510 2791 Pls
4522 2840 Pls
4534 2887 Pls
4546 2934 Pls
4558 2979 Pls
4570 3022 Pls
4582 3064 Pls
4594 3104 Pls
4607 3142 Pls
4619 3177 Pls
4631 3209 Pls
4643 3238 Pls
4655 3262 Pls
4667 3283 Pls
4679 3299 Pls
4691 3311 Pls
4703 3317 Pls
4715 3319 Pls
4727 3316 Pls
4739 3309 Pls
4751 3298 Pls
4763 3283 Pls
4775 3264 Pls
4787 3243 Pls
4799 3219 Pls
4811 3193 Pls
4823 3164 Pls
4835 3134 Pls
4847 3103 Pls
4859 3070 Pls
4872 3037 Pls
4884 3002 Pls
4896 2966 Pls
4908 2930 Pls
4920 2893 Pls
4932 2855 Pls
4944 2817 Pls
4956 2778 Pls
4968 2739 Pls
4980 2700 Pls
4992 2660 Pls
5004 2620 Pls
4399 2232 Pls
4411 2286 Pls
4423 2341 Pls
4435 2395 Pls
4447 2449 Pls
4459 2503 Pls
4471 2556 Pls
4483 2609 Pls
4495 2661 Pls
4507 2713 Pls
4519 2764 Pls
4531 2815 Pls
4543 2865 Pls
4555 2914 Pls
4567 2962 Pls
4579 3008 Pls
4591 3054 Pls
4603 3097 Pls
4615 3139 Pls
4627 3179 Pls
4639 3216 Pls
4651 3250 Pls
4664 3280 Pls
4676 3307 Pls
4688 3329 Pls
4700 3346 Pls
4712 3358 Pls
4724 3364 Pls
4736 3366 Pls
4748 3362 Pls
4760 3353 Pls
4772 3340 Pls
4784 3323 Pls
4796 3303 Pls
4808 3280 Pls
4820 3254 Pls
4832 3226 Pls
4844 3196 Pls
4856 3164 Pls
4868 3131 Pls
4880 3097 Pls
4892 3062 Pls
4904 3025 Pls
4916 2989 Pls
4929 2951 Pls
4941 2913 Pls
4953 2874 Pls
4965 2835 Pls
4977 2796 Pls
4989 2756 Pls
5001 2716 Pls
5013 2676 Pls
5025 2635 Pls
4407 2189 Pls
4419 2244 Pls
4431 2299 Pls
4443 2354 Pls
4456 2409 Pls
4468 2464 Pls
4480 2518 Pls
4492 2572 Pls
4504 2626 Pls
4516 2679 Pls
4528 2732 Pls
4540 2785 Pls
4552 2837 Pls
4564 2888 Pls
4576 2938 Pls
4588 2988 Pls
4600 3036 Pls
4612 3083 Pls
4624 3129 Pls
4636 3172 Pls
4648 3214 Pls
4660 3253 Pls
4672 3289 Pls
4684 3322 Pls
4696 3350 Pls
4708 3374 Pls
4721 3392 Pls
4733 3405 Pls
4745 3411 Pls
4757 3412 Pls
4769 3407 Pls
4781 3397 Pls
4793 3382 Pls
4805 3363 Pls
4817 3340 Pls
4829 3315 Pls
4841 3287 Pls
4853 3257 Pls
4865 3225 Pls
4877 3191 Pls
4889 3157 Pls
4901 3121 Pls
4913 3084 Pls
4925 3047 Pls
4937 3009 Pls
4949 2970 Pls
4961 2931 Pls
4973 2892 Pls
4986 2852 Pls
4998 2812 Pls
5010 2771 Pls
5022 2730 Pls
5034 2689 Pls
5046 2648 Pls
4428 2199 Pls
4440 2255 Pls
4452 2311 Pls
4464 2366 Pls
4476 2422 Pls
4488 2477 Pls
4500 2532 Pls
4513 2587 Pls
4525 2642 Pls
4537 2696 Pls
4549 2750 Pls
4561 2803 Pls
4573 2856 Pls
4585 2908 Pls
4597 2960 Pls
4609 3011 Pls
4621 3061 Pls
4633 3110 Pls
4645 3158 Pls
4657 3204 Pls
4669 3248 Pls
4681 3289 Pls
4693 3328 Pls
4705 3363 Pls
4717 3393 Pls
4729 3419 Pls
4741 3438 Pls
4753 3452 Pls
4765 3458 Pls
4778 3458 Pls
4790 3452 Pls
4802 3440 Pls
4814 3422 Pls
4826 3401 Pls
4838 3376 Pls
4850 3348 Pls
4862 3318 Pls
4874 3285 Pls
4886 3252 Pls
4898 3216 Pls
4910 3180 Pls
4922 3143 Pls
4934 3105 Pls
4946 3066 Pls
4958 3027 Pls
4970 2988 Pls
4982 2948 Pls
4994 2907 Pls
5006 2866 Pls
5018 2825 Pls
5031 2784 Pls
5043 2743 Pls
5055 2701 Pls
5067 2659 Pls
4449 2208 Pls
4461 2264 Pls
4473 2320 Pls
4485 2376 Pls
4497 2432 Pls
4509 2488 Pls
4521 2544 Pls
4533 2599 Pls
4545 2655 Pls
4557 2710 Pls
4570 2765 Pls
4582 2819 Pls
4594 2873 Pls
4606 2927 Pls
4618 2980 Pls
4630 3032 Pls
4642 3084 Pls
4654 3134 Pls
4666 3184 Pls
4678 3232 Pls
4690 3278 Pls
4702 3323 Pls
4714 3364 Pls
4726 3402 Pls
4738 3435 Pls
4750 3463 Pls
4762 3484 Pls
4774 3499 Pls
4786 3505 Pls
4798 3504 Pls
4810 3496 Pls
4822 3481 Pls
4835 3461 Pls
4847 3437 Pls
4859 3409 Pls
4871 3379 Pls
4883 3346 Pls
4895 3311 Pls
4907 3276 Pls
4919 3239 Pls
4931 3201 Pls
4943 3162 Pls
4955 3123 Pls
4967 3083 Pls
4979 3043 Pls
4991 3002 Pls
5003 2962 Pls
5015 2920 Pls
5027 2879 Pls
5039 2837 Pls
5051 2795 Pls
5063 2753 Pls
5075 2711 Pls
5088 2669 Pls
4470 2214 Pls
4482 2271 Pls
4494 2328 Pls
4506 2385 Pls
4518 2441 Pls
4530 2497 Pls
4542 2554 Pls
4554 2610 Pls
4566 2666 Pls
4578 2722 Pls
4590 2777 Pls
4602 2832 Pls
4614 2888 Pls
4627 2942 Pls
4639 2996 Pls
4651 3050 Pls
4663 3103 Pls
4675 3156 Pls
4687 3207 Pls
4699 3258 Pls
4711 3306 Pls
4723 3353 Pls
4735 3398 Pls
4747 3439 Pls
4759 3475 Pls
4771 3506 Pls
4783 3530 Pls
4795 3546 Pls
4807 3552 Pls
4819 3550 Pls
4831 3539 Pls
4843 3521 Pls
4855 3498 Pls
4867 3470 Pls
4879 3439 Pls
4892 3406 Pls
4904 3371 Pls
4916 3335 Pls
4928 3297 Pls
4940 3258 Pls
4952 3219 Pls
4964 3179 Pls
4976 3138 Pls
4988 3098 Pls
5000 3056 Pls
5012 3015 Pls
5024 2973 Pls
5036 2931 Pls
5048 2889 Pls
5060 2847 Pls
5072 2804 Pls
5084 2762 Pls
5096 2719 Pls
5108 2676 Pls
4479 2162 Pls
4491 2220 Pls
4503 2277 Pls
4515 2334 Pls
4527 2391 Pls
4539 2448 Pls
4551 2504 Pls
4563 2561 Pls
4575 2618 Pls
4587 2674 Pls
4599 2731 Pls
4611 2787 Pls
4623 2843 Pls
4635 2899 Pls
4647 2955 Pls
4659 3010 Pls
4671 3065 Pls
4684 3120 Pls
4696 3174 Pls
4708 3227 Pls
4720 3279 Pls
4732 3331 Pls
4744 3380 Pls
4756 3428 Pls
4768 3473 Pls
4780 3513 Pls
4792 3548 Pls
4804 3575 Pls
4816 3593 Pls
4828 3599 Pls
4840 3594 Pls
4852 3580 Pls
4864 3558 Pls
4876 3531 Pls
4888 3500 Pls
4900 3466 Pls
4912 3430 Pls
4924 3393 Pls
4936 3354 Pls
4949 3315 Pls
4961 3274 Pls
4973 3234 Pls
4985 3193 Pls
4997 3151 Pls
5009 3109 Pls
5021 3067 Pls
5033 3025 Pls
5045 2982 Pls
5057 2940 Pls
5069 2897 Pls
5081 2854 Pls
5093 2811 Pls
5105 2768 Pls
5117 2725 Pls
5129 2682 Pls
4500 2165 Pls
4512 2223 Pls
4524 2280 Pls
4536 2338 Pls
4548 2395 Pls
4560 2452 Pls
4572 2509 Pls
4584 2567 Pls
4596 2624 Pls
4608 2681 Pls
4620 2738 Pls
4632 2795 Pls
4644 2851 Pls
4656 2908 Pls
4668 2964 Pls
4680 3021 Pls
4692 3077 Pls
4704 3132 Pls
4716 3188 Pls
4728 3243 Pls
4741 3297 Pls
4753 3351 Pls
4765 3403 Pls
4777 3454 Pls
4789 3503 Pls
4801 3548 Pls
4813 3587 Pls
4825 3619 Pls
4837 3639 Pls
4849 3646 Pls
4861 3638 Pls
4873 3619 Pls
4885 3592 Pls
4897 3561 Pls
4909 3526 Pls
4921 3489 Pls
4933 3450 Pls
4945 3410 Pls
4957 3370 Pls
4969 3329 Pls
4981 3287 Pls
4993 3245 Pls
5006 3203 Pls
5018 3160 Pls
5030 3118 Pls
5042 3075 Pls
5054 3032 Pls
5066 2989 Pls
5078 2946 Pls
5090 2903 Pls
5102 2860 Pls
5114 2816 Pls
5126 2773 Pls
5138 2730 Pls
5150 2686 Pls
4520 2167 Pls
4533 2224 Pls
4545 2282 Pls
4557 2340 Pls
4569 2397 Pls
4581 2455 Pls
4593 2512 Pls
4605 2570 Pls
4617 2627 Pls
4629 2684 Pls
4641 2742 Pls
4653 2799 Pls
4665 2856 Pls
4677 2914 Pls
4689 2971 Pls
4701 3028 Pls
4713 3084 Pls
4725 3141 Pls
4737 3198 Pls
4749 3254 Pls
4761 3310 Pls
4773 3366 Pls
4785 3420 Pls
4798 3474 Pls
4810 3527 Pls
4822 3577 Pls
4834 3623 Pls
4846 3661 Pls
4858 3686 Pls
4870 3692 Pls
4882 3679 Pls
4894 3654 Pls
4906 3621 Pls
4918 3585 Pls
4930 3546 Pls
4942 3506 Pls
4954 3465 Pls
4966 3423 Pls
4978 3381 Pls
4990 3338 Pls
5002 3296 Pls
5014 3253 Pls
5026 3210 Pls
5038 3167 Pls
5051 3123 Pls
5063 3080 Pls
5075 3037 Pls
5087 2993 Pls
5099 2950 Pls
5111 2906 Pls
5123 2863 Pls
5135 2819 Pls
5147 2775 Pls
5159 2732 Pls
5171 2688 Pls
4541 2166 Pls
4553 2224 Pls
4565 2282 Pls
4577 2339 Pls
4590 2397 Pls
4602 2455 Pls
4614 2513 Pls
4626 2570 Pls
4638 2628 Pls
4650 2686 Pls
4662 2743 Pls
4674 2801 Pls
4686 2858 Pls
4698 2916 Pls
4710 2973 Pls
4722 3031 Pls
4734 3088 Pls
4746 3146 Pls
4758 3203 Pls
4770 3260 Pls
4782 3318 Pls
4794 3375 Pls
4806 3431 Pls
4818 3488 Pls
4830 3543 Pls
4842 3598 Pls
4855 3650 Pls
4867 3698 Pls
4879 3732 Pls
4891 3737 Pls
4903 3715 Pls
4915 3681 Pls
4927 3642 Pls
4939 3601 Pls
4951 3559 Pls
4963 3516 Pls
4975 3473 Pls
4987 3430 Pls
4999 3387 Pls
5011 3344 Pls
5023 3300 Pls
5035 3257 Pls
5047 3213 Pls
5059 3169 Pls
5071 3126 Pls
5083 3082 Pls
5095 3038 Pls
5108 2995 Pls
5120 2951 Pls
5132 2907 Pls
5144 2863 Pls
5156 2819 Pls
5168 2776 Pls
5180 2732 Pls
5192 2688 Pls
4562 2164 Pls
4574 2222 Pls
4586 2280 Pls
4598 2337 Pls
4610 2395 Pls
4622 2453 Pls
4634 2511 Pls
4647 2568 Pls
4659 2626 Pls
4671 2684 Pls
4683 2742 Pls
4695 2800 Pls
4707 2857 Pls
4719 2915 Pls
4731 2973 Pls
4743 3031 Pls
4755 3088 Pls
4767 3146 Pls
4779 3204 Pls
4791 3262 Pls
4803 3319 Pls
4815 3377 Pls
4827 3435 Pls
4839 3492 Pls
4851 3550 Pls
4863 3607 Pls
4875 3665 Pls
4887 3721 Pls
4899 3773 Pls
4912 3776 Pls
4924 3737 Pls
4936 3694 Pls
4948 3651 Pls
4960 3607 Pls
4972 3563 Pls
4984 3520 Pls
4996 3476 Pls
5008 3432 Pls
5020 3388 Pls
5032 3344 Pls
5044 3300 Pls
5056 3257 Pls
5068 3213 Pls
5080 3169 Pls
5092 3125 Pls
5104 3081 Pls
5116 3037 Pls
5128 2993 Pls
5140 2949 Pls
5152 2905 Pls
5165 2861 Pls
5177 2818 Pls
5189 2774 Pls
5201 2730 Pls
5213 2686 Pls
4583 2160 Pls
4595 2218 Pls
4607 2276 Pls
4619 2333 Pls
4631 2391 Pls
4643 2449 Pls
4655 2507 Pls
4667 2564 Pls
4679 2622 Pls
4691 2680 Pls
4704 2738 Pls
4716 2795 Pls
4728 2853 Pls
4740 2911 Pls
4752 2969 Pls
4764 3026 Pls
4776 3084 Pls
4788 3142 Pls
4800 3200 Pls
4812 3257 Pls
4824 3315 Pls
4836 3373 Pls
4848 3430 Pls
4860 3488 Pls
4872 3545 Pls
4884 3603 Pls
4896 3659 Pls
4908 3715 Pls
4920 3765 Pls
4932 3768 Pls
4944 3731 Pls
4956 3689 Pls
4969 3646 Pls
4981 3603 Pls
4993 3559 Pls
5005 3515 Pls
5017 3472 Pls
5029 3428 Pls
5041 3384 Pls
5053 3340 Pls
5065 3296 Pls
5077 3252 Pls
5089 3208 Pls
5101 3165 Pls
5113 3121 Pls
5125 3077 Pls
5137 3033 Pls
5149 2989 Pls
5161 2945 Pls
5173 2901 Pls
5185 2857 Pls
5197 2813 Pls
5209 2770 Pls
5222 2726 Pls
5234 2682 Pls
4604 2154 Pls
4616 2212 Pls
4628 2269 Pls
4640 2327 Pls
4652 2385 Pls
4664 2443 Pls
4676 2500 Pls
4688 2558 Pls
4700 2616 Pls
4712 2673 Pls
4724 2731 Pls
4736 2788 Pls
4748 2846 Pls
4761 2903 Pls
4773 2961 Pls
4785 3018 Pls
4797 3076 Pls
4809 3133 Pls
4821 3190 Pls
4833 3248 Pls
4845 3305 Pls
4857 3362 Pls
4869 3418 Pls
4881 3474 Pls
4893 3530 Pls
4905 3584 Pls
4917 3636 Pls
4929 3682 Pls
4941 3715 Pls
4953 3720 Pls
4965 3699 Pls
4977 3666 Pls
4989 3628 Pls
5001 3587 Pls
5013 3546 Pls
5026 3503 Pls
5038 3461 Pls
5050 3418 Pls
5062 3374 Pls
5074 3331 Pls
5086 3288 Pls
5098 3244 Pls
5110 3201 Pls
5122 3157 Pls
5134 3113 Pls
5146 3070 Pls
5158 3026 Pls
5170 2982 Pls
5182 2938 Pls
5194 2895 Pls
5206 2851 Pls
5218 2807 Pls
5230 2763 Pls
5242 2719 Pls
5254 2676 Pls
4625 2146 Pls
4637 2204 Pls
4649 2262 Pls
4661 2319 Pls
4673 2377 Pls
4685 2434 Pls
4697 2492 Pls
4709 2549 Pls
4721 2606 Pls
4733 2664 Pls
4745 2721 Pls
4757 2778 Pls
4769 2836 Pls
4781 2893 Pls
4793 2950 Pls
4805 3007 Pls
4818 3064 Pls
4830 3120 Pls
4842 3177 Pls
4854 3233 Pls
4866 3289 Pls
4878 3344 Pls
4890 3399 Pls
4902 3452 Pls
4914 3504 Pls
4926 3554 Pls
4938 3599 Pls
4950 3636 Pls
4962 3661 Pls
4974 3667 Pls
4986 3655 Pls
4998 3630 Pls
5010 3598 Pls
5022 3562 Pls
5034 3524 Pls
5046 3484 Pls
5058 3443 Pls
5071 3402 Pls
5083 3360 Pls
5095 3317 Pls
5107 3275 Pls
5119 3232 Pls
5131 3189 Pls
5143 3146 Pls
5155 3103 Pls
5167 3059 Pls
5179 3016 Pls
5191 2973 Pls
5203 2929 Pls
5215 2886 Pls
5227 2842 Pls
5239 2798 Pls
5251 2755 Pls
5263 2711 Pls
5275 2668 Pls
4646 2137 Pls
4658 2194 Pls
4670 2252 Pls
4682 2309 Pls
4694 2366 Pls
4706 2423 Pls
4718 2481 Pls
4730 2538 Pls
4742 2595 Pls
4754 2652 Pls
4766 2709 Pls
4778 2766 Pls
4790 2822 Pls
4802 2879 Pls
4814 2935 Pls
4826 2991 Pls
4838 3047 Pls
4850 3103 Pls
4862 3158 Pls
4875 3213 Pls
4887 3267 Pls
4899 3321 Pls
4911 3373 Pls
4923 3423 Pls
4935 3471 Pls
4947 3516 Pls
4959 3555 Pls
4971 3586 Pls
4983 3606 Pls
4995 3612 Pls
5007 3605 Pls
5019 3587 Pls
5031 3561 Pls
5043 3530 Pls
5055 3495 Pls
5067 3458 Pls
5079 3420 Pls
5091 3380 Pls
5103 3340 Pls
5115 3299 Pls
5128 3258 Pls
5140 3216 Pls
5152 3174 Pls
5164 3131 Pls
5176 3089 Pls
5188 3046 Pls
5200 3003 Pls
5212 2960 Pls
5224 2917 Pls
5236 2874 Pls
5248 2831 Pls
5260 2788 Pls
5272 2744 Pls
5284 2701 Pls
5296 2657 Pls
4667 2126 Pls
4679 2183 Pls
4691 2240 Pls
4703 2297 Pls
4715 2354 Pls
4727 2411 Pls
4739 2468 Pls
4751 2524 Pls
4763 2581 Pls
4775 2637 Pls
4787 2694 Pls
4799 2750 Pls
4811 2806 Pls
4823 2862 Pls
4835 2917 Pls
4847 2973 Pls
4859 3027 Pls
4871 3082 Pls
4883 3136 Pls
4895 3189 Pls
4907 3241 Pls
4919 3292 Pls
4932 3341 Pls
4944 3389 Pls
4956 3433 Pls
4968 3473 Pls
4980 3507 Pls
4992 3534 Pls
5004 3551 Pls
5016 3558 Pls
5028 3553 Pls
5040 3540 Pls
5052 3518 Pls
5064 3492 Pls
5076 3461 Pls
5088 3427 Pls
5100 3392 Pls
5112 3354 Pls
5124 3316 Pls
5136 3277 Pls
5148 3237 Pls
5160 3196 Pls
5172 3155 Pls
5185 3113 Pls
5197 3072 Pls
5209 3030 Pls
5221 2988 Pls
5233 2945 Pls
5245 2903 Pls
5257 2860 Pls
5269 2817 Pls
5281 2774 Pls
5293 2732 Pls
5305 2689 Pls
5317 2645 Pls
4699 2170 Pls
4711 2226 Pls
4724 2283 Pls
4736 2340 Pls
4748 2396 Pls
4760 2452 Pls
4772 2509 Pls
4784 2565 Pls
4796 2620 Pls
4808 2676 Pls
4820 2732 Pls
4832 2787 Pls
4844 2842 Pls
4856 2896 Pls
4868 2951 Pls
4880 3004 Pls
4892 3057 Pls
4904 3109 Pls
4916 3161 Pls
4928 3211 Pls
4940 3259 Pls
4952 3306 Pls
4964 3350 Pls
4976 3391 Pls
4989 3427 Pls
5001 3457 Pls
5013 3481 Pls
5025 3497 Pls
5037 3503 Pls
5049 3501 Pls
5061 3490 Pls
5073 3473 Pls
5085 3450 Pls
5097 3423 Pls
5109 3392 Pls
5121 3359 Pls
5133 3324 Pls
5145 3288 Pls
5157 3251 Pls
5169 3212 Pls
5181 3173 Pls
5193 3133 Pls
5205 3093 Pls
5217 3052 Pls
5229 3011 Pls
5242 2969 Pls
5254 2928 Pls
5266 2886 Pls
5278 2844 Pls
5290 2802 Pls
5302 2759 Pls
5314 2717 Pls
5326 2674 Pls
5338 2632 Pls
4720 2155 Pls
4732 2211 Pls
4744 2267 Pls
4756 2323 Pls
4768 2379 Pls
4781 2435 Pls
4793 2491 Pls
4805 2546 Pls
4817 2601 Pls
4829 2656 Pls
4841 2711 Pls
4853 2765 Pls
4865 2819 Pls
4877 2873 Pls
4889 2926 Pls
4901 2978 Pls
4913 3029 Pls
4925 3080 Pls
4937 3129 Pls
4949 3177 Pls
4961 3223 Pls
4973 3267 Pls
4985 3308 Pls
4997 3345 Pls
5009 3378 Pls
5021 3406 Pls
5033 3427 Pls
5046 3442 Pls
5058 3448 Pls
5070 3447 Pls
5082 3439 Pls
5094 3425 Pls
5106 3405 Pls
5118 3381 Pls
5130 3353 Pls
5142 3323 Pls
5154 3291 Pls
5166 3257 Pls
5178 3221 Pls
5190 3184 Pls
5202 3147 Pls
5214 3108 Pls
5226 3069 Pls
5238 3029 Pls
5250 2989 Pls
5262 2949 Pls
5274 2908 Pls
5286 2867 Pls
5299 2825 Pls
5311 2784 Pls
5323 2742 Pls
5335 2700 Pls
5347 2658 Pls
5359 2616 Pls
4741 2138 Pls
4753 2194 Pls
4765 2249 Pls
4777 2305 Pls
4789 2360 Pls
4801 2416 Pls
4813 2471 Pls
4825 2525 Pls
4838 2580 Pls
4850 2634 Pls
4862 2688 Pls
4874 2741 Pls
4886 2794 Pls
4898 2846 Pls
4910 2898 Pls
4922 2949 Pls
4934 2998 Pls
4946 3047 Pls
4958 3094 Pls
4970 3140 Pls
4982 3184 Pls
4994 3225 Pls
5006 3263 Pls
5018 3298 Pls
5030 3329 Pls
5042 3354 Pls
5054 3373 Pls
5066 3387 Pls
5078 3393 Pls
5091 3393 Pls
5103 3387 Pls
5115 3375 Pls
5127 3358 Pls
5139 3337 Pls
5151 3312 Pls
5163 3284 Pls
5175 3254 Pls
5187 3222 Pls
5199 3189 Pls
5211 3154 Pls
5223 3118 Pls
5235 3080 Pls
5247 3043 Pls
5259 3004 Pls
5271 2965 Pls
5283 2926 Pls
5295 2886 Pls
5307 2845 Pls
5319 2805 Pls
5331 2764 Pls
5343 2723 Pls
5356 2681 Pls
5368 2640 Pls
4762 2119 Pls
4774 2175 Pls
4786 2230 Pls
4798 2285 Pls
4810 2340 Pls
4822 2394 Pls
4834 2449 Pls
4846 2503 Pls
4858 2556 Pls
4870 2609 Pls
4882 2662 Pls
4895 2715 Pls
4907 2766 Pls
4919 2817 Pls
4931 2867 Pls
4943 2917 Pls
4955 2965 Pls
4967 3012 Pls
4979 3057 Pls
4991 3101 Pls
5003 3142 Pls
5015 3181 Pls
5027 3217 Pls
5039 3249 Pls
5051 3278 Pls
5063 3301 Pls
5075 3319 Pls
5087 3332 Pls
5099 3338 Pls
5111 3339 Pls
5123 3334 Pls
5135 3324 Pls
5148 3309 Pls
5160 3291 Pls
5172 3268 Pls
5184 3243 Pls
5196 3215 Pls
5208 3185 Pls
5220 3154 Pls
5232 3120 Pls
5244 3086 Pls
5256 3050 Pls
5268 3014 Pls
5280 2977 Pls
5292 2939 Pls
5304 2900 Pls
5316 2861 Pls
5328 2822 Pls
5340 2782 Pls
5352 2742 Pls
5364 2701 Pls
5376 2661 Pls
5388 2620 Pls
4795 2154 Pls
4807 2209 Pls
4819 2263 Pls
4831 2317 Pls
4843 2371 Pls
4855 2425 Pls
4867 2478 Pls
4879 2531 Pls
4891 2583 Pls
4903 2635 Pls
4915 2686 Pls
4927 2736 Pls
4939 2786 Pls
4952 2835 Pls
4964 2883 Pls
4976 2929 Pls
4988 2974 Pls
5000 3018 Pls
5012 3059 Pls
5024 3099 Pls
5036 3136 Pls
5048 3169 Pls
5060 3200 Pls
5072 3226 Pls
5084 3248 Pls
5096 3265 Pls
5108 3277 Pls
5120 3283 Pls
5132 3285 Pls
5144 3281 Pls
5156 3273 Pls
5168 3260 Pls
5180 3243 Pls
5192 3223 Pls
5205 3200 Pls
5217 3174 Pls
5229 3146 Pls
5241 3116 Pls
5253 3085 Pls
5265 3052 Pls
5277 3018 Pls
5289 2983 Pls
5301 2947 Pls
5313 2910 Pls
5325 2873 Pls
5337 2835 Pls
5349 2796 Pls
5361 2757 Pls
5373 2718 Pls
5385 2678 Pls
5397 2638 Pls
5409 2598 Pls
4816 2132 Pls
4828 2186 Pls
4840 2240 Pls
4852 2293 Pls
4864 2346 Pls
4876 2399 Pls
4888 2451 Pls
4900 2503 Pls
4912 2554 Pls
4924 2605 Pls
4936 2655 Pls
4948 2704 Pls
4960 2753 Pls
4972 2800 Pls
4984 2846 Pls
4996 2891 Pls
5009 2935 Pls
5021 2977 Pls
5033 3016 Pls
5045 3054 Pls
5057 3089 Pls
5069 3120 Pls
5081 3149 Pls
5093 3173 Pls
5105 3194 Pls
5117 3210 Pls
5129 3222 Pls
5141 3228 Pls
5153 3230 Pls
5165 3227 Pls
5177 3220 Pls
5189 3209 Pls
5201 3194 Pls
5213 3176 Pls
5225 3155 Pls
5237 3131 Pls
5249 3105 Pls
5262 3077 Pls
5274 3047 Pls
5286 3016 Pls
5298 2983 Pls
5310 2950 Pls
5322 2915 Pls
5334 2880 Pls
5346 2843 Pls
5358 2806 Pls
5370 2769 Pls
5382 2731 Pls
5394 2692 Pls
5406 2654 Pls
5418 2614 Pls
4849 2162 Pls
4861 2215 Pls
4873 2267 Pls
4885 2320 Pls
4897 2371 Pls
4909 2423 Pls
4921 2474 Pls
4933 2524 Pls
4945 2574 Pls
4957 2623 Pls
4969 2671 Pls
4981 2718 Pls
4993 2764 Pls
5005 2808 Pls
5017 2852 Pls
5029 2894 Pls
5041 2934 Pls
5053 2972 Pls
5066 3007 Pls
5078 3040 Pls
5090 3070 Pls
5102 3097 Pls
5114 3121 Pls
5126 3140 Pls
5138 3155 Pls
5150 3167 Pls
5162 3173 Pls
5174 3176 Pls
5186 3174 Pls
5198 3168 Pls
5210 3158 Pls
5222 3145 Pls
5234 3128 Pls
5246 3109 Pls
5258 3087 Pls
5270 3062 Pls
5282 3036 Pls
5294 3008 Pls
5306 2978 Pls
5319 2947 Pls
5331 2915 Pls
5343 2881 Pls
5355 2847 Pls
5367 2812 Pls
5379 2776 Pls
5391 2740 Pls
5403 2703 Pls
5415 2665 Pls
5427 2627 Pls
5439 2588 Pls
4870 2136 Pls
4882 2188 Pls
4894 2240 Pls
4906 2291 Pls
4918 2342 Pls
4930 2393 Pls
4942 2443 Pls
4954 2492 Pls
4966 2541 Pls
4978 2588 Pls
4990 2635 Pls
5002 2681 Pls
5014 2726 Pls
5026 2769 Pls
5038 2811 Pls
5050 2851 Pls
5062 2889 Pls
5074 2926 Pls
5086 2960 Pls
5098 2991 Pls
5111 3020 Pls
5123 3045 Pls
5135 3068 Pls
5147 3086 Pls
5159 3101 Pls
5171 3111 Pls
5183 3118 Pls
5195 3121 Pls
5207 3120 Pls
5219 3115 Pls
5231 3106 Pls
5243 3094 Pls
5255 3079 Pls
5267 3061 Pls
5279 3041 Pls
5291 3018 Pls
5303 2993 Pls
5315 2967 Pls
5327 2939 Pls
5339 2909 Pls
5351 2878 Pls
5363 2846 Pls
5376 2813 Pls
5388 2779 Pls
5400 2744 Pls
5412 2709 Pls
5424 2673 Pls
5436 2636 Pls
5448 2599 Pls
4902 2160 Pls
4915 2211 Pls
4927 2262 Pls
4939 2312 Pls
4951 2361 Pls
4963 2410 Pls
4975 2458 Pls
4987 2506 Pls
4999 2552 Pls
5011 2598 Pls
5023 2643 Pls
5035 2686 Pls
5047 2728 Pls
5059 2768 Pls
5071 2807 Pls
5083 2844 Pls
5095 2879 Pls
5107 2911 Pls
5119 2941 Pls
5131 2969 Pls
5143 2993 Pls
5155 3014 Pls
5168 3032 Pls
5180 3046 Pls
5192 3056 Pls
5204 3063 Pls
5216 3066 Pls
5228 3066 Pls
5240 3061 Pls
5252 3054 Pls
5264 3043 Pls
5276 3029 Pls
5288 3013 Pls
5300 2994 Pls
5312 2973 Pls
5324 2950 Pls
5336 2924 Pls
5348 2898 Pls
5360 2869 Pls
5372 2840 Pls
5384 2809 Pls
5396 2777 Pls
5408 2744 Pls
5420 2711 Pls
5433 2676 Pls
5445 2641 Pls
5457 2605 Pls
5469 2569 Pls
4923 2130 Pls
4935 2181 Pls
4947 2230 Pls
4959 2280 Pls
4972 2328 Pls
4984 2376 Pls
4996 2423 Pls
5008 2470 Pls
5020 2515 Pls
5032 2560 Pls
5044 2603 Pls
5056 2645 Pls
5068 2686 Pls
5080 2725 Pls
5092 2762 Pls
5104 2798 Pls
5116 2831 Pls
5128 2862 Pls
5140 2891 Pls
5152 2917 Pls
5164 2940 Pls
5176 2961 Pls
5188 2977 Pls
5200 2991 Pls
5212 3001 Pls
5225 3008 Pls
5237 3011 Pls
5249 3011 Pls
5261 3008 Pls
5273 3001 Pls
5285 2992 Pls
5297 2979 Pls
5309 2964 Pls
5321 2946 Pls
5333 2926 Pls
5345 2905 Pls
5357 2881 Pls
5369 2856 Pls
5381 2829 Pls
5393 2800 Pls
5405 2771 Pls
5417 2740 Pls
5429 2708 Pls
5441 2676 Pls
5453 2642 Pls
5465 2608 Pls
5477 2573 Pls
4956 2149 Pls
4968 2198 Pls
4980 2246 Pls
4992 2294 Pls
5004 2341 Pls
5016 2387 Pls
5029 2432 Pls
5041 2477 Pls
5053 2520 Pls
5065 2562 Pls
5077 2603 Pls
5089 2642 Pls
5101 2680 Pls
5113 2716 Pls
5125 2750 Pls
5137 2782 Pls
5149 2812 Pls
5161 2840 Pls
5173 2865 Pls
5185 2887 Pls
5197 2907 Pls
5209 2923 Pls
5221 2936 Pls
5233 2946 Pls
5245 2953 Pls
5257 2957 Pls
5269 2957 Pls
5282 2954 Pls
5294 2948 Pls
5306 2940 Pls
5318 2928 Pls
5330 2914 Pls
5342 2898 Pls
5354 2879 Pls
5366 2859 Pls
5378 2836 Pls
5390 2812 Pls
5402 2787 Pls
5414 2759 Pls
5426 2731 Pls
5438 2702 Pls
5450 2671 Pls
5462 2640 Pls
5474 2607 Pls
5486 2574 Pls
4977 2116 Pls
4989 2164 Pls
5001 2212 Pls
5013 2258 Pls
5025 2304 Pls
5037 2349 Pls
5049 2394 Pls
5061 2437 Pls
5073 2479 Pls
5086 2520 Pls
5098 2559 Pls
5110 2598 Pls
5122 2634 Pls
5134 2669 Pls
5146 2702 Pls
5158 2733 Pls
5170 2762 Pls
5182 2789 Pls
5194 2813 Pls
5206 2834 Pls
5218 2853 Pls
5230 2869 Pls
5242 2881 Pls
5254 2891 Pls
5266 2898 Pls
5278 2902 Pls
5290 2902 Pls
5302 2900 Pls
5314 2895 Pls
5326 2887 Pls
5339 2877 Pls
5351 2864 Pls
5363 2849 Pls
5375 2831 Pls
5387 2812 Pls
5399 2791 Pls
5411 2768 Pls
5423 2743 Pls
5435 2718 Pls
5447 2690 Pls
5459 2662 Pls
5471 2633 Pls
5483 2602 Pls
5495 2571 Pls
5507 2539 Pls
5010 2129 Pls
5022 2176 Pls
5034 2221 Pls
5046 2266 Pls
5058 2311 Pls
5070 2354 Pls
5082 2396 Pls
5094 2437 Pls
5106 2477 Pls
5118 2515 Pls
5131 2552 Pls
5143 2588 Pls
5155 2622 Pls
5167 2653 Pls
5179 2683 Pls
5191 2711 Pls
5203 2737 Pls
5215 2760 Pls
5227 2781 Pls
5239 2799 Pls
5251 2814 Pls
5263 2826 Pls
5275 2836 Pls
5287 2843 Pls
5299 2847 Pls
5311 2848 Pls
5323 2846 Pls
5335 2842 Pls
5347 2835 Pls
5359 2825 Pls
5371 2813 Pls
5383 2799 Pls
5396 2783 Pls
5408 2764 Pls
5420 2744 Pls
5432 2723 Pls
5444 2699 Pls
5456 2675 Pls
5468 2649 Pls
5480 2621 Pls
5492 2593 Pls
5504 2563 Pls
5516 2533 Pls
5043 2139 Pls
5055 2184 Pls
5067 2228 Pls
5079 2271 Pls
5091 2313 Pls
5103 2354 Pls
5115 2394 Pls
5127 2433 Pls
5139 2470 Pls
5151 2506 Pls
5163 2541 Pls
5175 2573 Pls
5188 2604 Pls
5200 2633 Pls
5212 2660 Pls
5224 2685 Pls
5236 2707 Pls
5248 2727 Pls
5260 2744 Pls
5272 2759 Pls
5284 2772 Pls
5296 2781 Pls
5308 2788 Pls
5320 2792 Pls
5332 2793 Pls
5344 2792 Pls
5356 2788 Pls
5368 2782 Pls
5380 2773 Pls
5392 2762 Pls
5404 2749 Pls
5416 2734 Pls
5428 2716 Pls
5440 2697 Pls
5453 2677 Pls
5465 2654 Pls
5477 2631 Pls
5489 2606 Pls
5501 2580 Pls
5513 2552 Pls
5525 2524 Pls
5076 2145 Pls
5088 2188 Pls
5100 2230 Pls
5112 2271 Pls
5124 2311 Pls
5136 2350 Pls
5148 2388 Pls
5160 2425 Pls
5172 2459 Pls
5184 2493 Pls
5196 2524 Pls
5208 2554 Pls
5220 2582 Pls
5232 2608 Pls
5245 2632 Pls
5257 2654 Pls
5269 2673 Pls
5281 2690 Pls
5293 2705 Pls
5305 2717 Pls
5317 2726 Pls
5329 2733 Pls
5341 2737 Pls
5353 2739 Pls
5365 2738 Pls
5377 2734 Pls
5389 2729 Pls
5401 2721 Pls
5413 2710 Pls
5425 2698 Pls
5437 2684 Pls
5449 2668 Pls
5461 2650 Pls
5473 2630 Pls
5485 2609 Pls
5497 2586 Pls
5510 2562 Pls
5522 2537 Pls
5534 2511 Pls
5109 2147 Pls
5121 2188 Pls
5133 2229 Pls
5145 2268 Pls
5157 2306 Pls
5169 2343 Pls
5181 2378 Pls
5193 2412 Pls
5205 2444 Pls
5217 2475 Pls
5229 2504 Pls
5241 2531 Pls
5253 2556 Pls
5265 2580 Pls
5277 2601 Pls
5289 2619 Pls
5302 2636 Pls
5314 2650 Pls
5326 2662 Pls
5338 2671 Pls
5350 2678 Pls
5362 2682 Pls
5374 2684 Pls
5386 2684 Pls
5398 2681 Pls
5410 2676 Pls
5422 2668 Pls
5434 2659 Pls
5446 2647 Pls
5458 2634 Pls
5470 2618 Pls
5482 2601 Pls
5494 2583 Pls
5506 2562 Pls
5518 2541 Pls
5530 2518 Pls
5542 2493 Pls
5142 2146 Pls
5154 2185 Pls
5166 2224 Pls
5178 2261 Pls
5190 2296 Pls
5202 2331 Pls
5214 2364 Pls
5226 2395 Pls
5238 2425 Pls
5250 2453 Pls
5262 2480 Pls
5274 2504 Pls
5286 2527 Pls
5298 2547 Pls
5310 2565 Pls
5322 2581 Pls
5334 2595 Pls
5346 2607 Pls
5359 2616 Pls
5371 2623 Pls
5383 2627 Pls
5395 2629 Pls
5407 2629 Pls
5419 2627 Pls
5431 2622 Pls
5443 2615 Pls
5455 2607 Pls
5467 2596 Pls
5479 2583 Pls
5491 2569 Pls
5503 2552 Pls
5515 2535 Pls
5527 2515 Pls
5539 2495 Pls
5175 2141 Pls
5187 2179 Pls
5199 2215 Pls
5211 2250 Pls
5223 2283 Pls
5235 2315 Pls
5247 2346 Pls
5259 2375 Pls
5271 2402 Pls
5283 2428 Pls
5295 2452 Pls
5307 2474 Pls
5319 2493 Pls
5331 2511 Pls
5343 2527 Pls
5355 2540 Pls
5367 2552 Pls
5379 2561 Pls
5391 2568 Pls
5403 2572 Pls
5416 2575 Pls
5428 2575 Pls
5440 2573 Pls
5452 2569 Pls
5464 2562 Pls
5476 2554 Pls
5488 2544 Pls
5500 2532 Pls
5512 2518 Pls
5524 2503 Pls
5536 2486 Pls
5548 2468 Pls
5208 2133 Pls
5220 2168 Pls
5232 2202 Pls
5244 2235 Pls
5256 2266 Pls
5268 2296 Pls
5280 2325 Pls
5292 2351 Pls
5304 2376 Pls
5316 2399 Pls
5328 2420 Pls
5340 2440 Pls
5352 2457 Pls
5364 2472 Pls
5376 2486 Pls
5388 2497 Pls
5400 2506 Pls
5412 2513 Pls
5424 2517 Pls
5436 2520 Pls
5448 2520 Pls
5460 2519 Pls
5473 2515 Pls
5485 2509 Pls
5497 2502 Pls
5509 2492 Pls
5521 2481 Pls
5533 2468 Pls
5545 2453 Pls
5252 2154 Pls
5265 2186 Pls
5277 2217 Pls
5289 2246 Pls
5301 2274 Pls
5313 2300 Pls
5325 2324 Pls
5337 2346 Pls
5349 2367 Pls
5361 2386 Pls
5373 2403 Pls
5385 2418 Pls
5397 2431 Pls
5409 2442 Pls
5421 2451 Pls
5433 2457 Pls
5445 2462 Pls
5457 2465 Pls
5469 2466 Pls
5481 2464 Pls
5493 2461 Pls
5505 2456 Pls
5517 2449 Pls
5530 2440 Pls
5542 2429 Pls
5297 2167 Pls
5309 2196 Pls
5322 2222 Pls
5334 2248 Pls
5346 2271 Pls
5358 2293 Pls
5370 2314 Pls
5382 2332 Pls
5394 2349 Pls
5406 2363 Pls
5418 2376 Pls
5430 2387 Pls
5442 2396 Pls
5454 2402 Pls
5466 2407 Pls
5478 2410 Pls
5490 2411 Pls
5502 2410 Pls
5514 2407 Pls
1.000 UL
LTb
6229 1717 M
4304 609 L
971 1249 M
4304 609 L
1.000 UP
stroke
grestore
end
showpage
%%Trailer
%%DocumentFonts: Helvetica
%%Pages: 1
