%!PS-Adobe-2.0
%%Title: couple-disk.eps
%%Creator: gnuplot 4.2 patchlevel 0
%%CreationDate: Tue Mar  4 20:40:56 2008
%%DocumentFonts: (atend)
%%BoundingBox: 50 50 554 770
%%Orientation: Landscape
%%Pages: (atend)
%%EndComments
%%BeginProlog
/gnudict 256 dict def
gnudict begin
%
% The following 6 true/false flags may be edited by hand if required
% The unit line width may also be changed
%
/Color false def
/Blacktext false def
/Solid false def
/Dashlength 1 def
/Landscape true def
/Level1 false def
/Rounded false def
/TransparentPatterns false def
/gnulinewidth 5.000 def
/userlinewidth gnulinewidth def
%
/vshift -46 def
/dl1 {
  10.0 Dashlength mul mul
  Rounded { currentlinewidth 0.75 mul sub dup 0 le { pop 0.01 } if } if
} def
/dl2 {
  10.0 Dashlength mul mul
  Rounded { currentlinewidth 0.75 mul add } if
} def
/hpt_ 31.5 def
/vpt_ 31.5 def
/hpt hpt_ def
/vpt vpt_ def
Level1 {} {
/SDict 10 dict def
systemdict /pdfmark known not {
  userdict /pdfmark systemdict /cleartomark get put
} if
SDict begin [
  /Title (couple-disk.eps)
  /Subject (gnuplot plot)
  /Creator (gnuplot 4.2 patchlevel 0)
  /Author (,,,)
%  /Producer (gnuplot)
%  /Keywords ()
  /CreationDate (Tue Mar  4 20:40:56 2008)
  /DOCINFO pdfmark
end
} ifelse
%
% Gnuplot Prolog Version 4.2 (August 2006)
%
/M {moveto} bind def
/L {lineto} bind def
/R {rmoveto} bind def
/V {rlineto} bind def
/N {newpath moveto} bind def
/Z {closepath} bind def
/C {setrgbcolor} bind def
/f {rlineto fill} bind def
/vpt2 vpt 2 mul def
/hpt2 hpt 2 mul def
/Lshow {currentpoint stroke M 0 vshift R 
	Blacktext {gsave 0 setgray show grestore} {show} ifelse} def
/Rshow {currentpoint stroke M dup stringwidth pop neg vshift R
	Blacktext {gsave 0 setgray show grestore} {show} ifelse} def
/Cshow {currentpoint stroke M dup stringwidth pop -2 div vshift R 
	Blacktext {gsave 0 setgray show grestore} {show} ifelse} def
/UP {dup vpt_ mul /vpt exch def hpt_ mul /hpt exch def
  /hpt2 hpt 2 mul def /vpt2 vpt 2 mul def} def
/DL {Color {setrgbcolor Solid {pop []} if 0 setdash}
 {pop pop pop 0 setgray Solid {pop []} if 0 setdash} ifelse} def
/BL {stroke userlinewidth 2 mul setlinewidth
	Rounded {1 setlinejoin 1 setlinecap} if} def
/AL {stroke userlinewidth 2 div setlinewidth
	Rounded {1 setlinejoin 1 setlinecap} if} def
/UL {dup gnulinewidth mul /userlinewidth exch def
	dup 1 lt {pop 1} if 10 mul /udl exch def} def
/PL {stroke userlinewidth setlinewidth
	Rounded {1 setlinejoin 1 setlinecap} if} def
% Default Line colors
/LCw {1 1 1} def
/LCb {0 0 0} def
/LCa {0 0 0} def
/LC0 {1 0 0} def
/LC1 {0 1 0} def
/LC2 {0 0 1} def
/LC3 {1 0 1} def
/LC4 {0 1 1} def
/LC5 {1 1 0} def
/LC6 {0 0 0} def
/LC7 {1 0.3 0} def
/LC8 {0.5 0.5 0.5} def
% Default Line Types
/LTw {PL [] 1 setgray} def
/LTb {BL [] LCb DL} def
/LTa {AL [1 udl mul 2 udl mul] 0 setdash LCa setrgbcolor} def
/LT0 {PL [] LC0 DL} def
/LT1 {PL [4 dl1 2 dl2] LC1 DL} def
/LT2 {PL [2 dl1 3 dl2] LC2 DL} def
/LT3 {PL [1 dl1 1.5 dl2] LC3 DL} def
/LT4 {PL [6 dl1 2 dl2 1 dl1 2 dl2] LC4 DL} def
/LT5 {PL [3 dl1 3 dl2 1 dl1 3 dl2] LC5 DL} def
/LT6 {PL [2 dl1 2 dl2 2 dl1 6 dl2] LC6 DL} def
/LT7 {PL [1 dl1 2 dl2 6 dl1 2 dl2 1 dl1 2 dl2] LC7 DL} def
/LT8 {PL [2 dl1 2 dl2 2 dl1 2 dl2 2 dl1 2 dl2 2 dl1 4 dl2] LC8 DL} def
/Pnt {stroke [] 0 setdash gsave 1 setlinecap M 0 0 V stroke grestore} def
/Dia {stroke [] 0 setdash 2 copy vpt add M
  hpt neg vpt neg V hpt vpt neg V
  hpt vpt V hpt neg vpt V closepath stroke
  Pnt} def
/Pls {stroke [] 0 setdash vpt sub M 0 vpt2 V
  currentpoint stroke M
  hpt neg vpt neg R hpt2 0 V stroke
 } def
/Box {stroke [] 0 setdash 2 copy exch hpt sub exch vpt add M
  0 vpt2 neg V hpt2 0 V 0 vpt2 V
  hpt2 neg 0 V closepath stroke
  Pnt} def
/Crs {stroke [] 0 setdash exch hpt sub exch vpt add M
  hpt2 vpt2 neg V currentpoint stroke M
  hpt2 neg 0 R hpt2 vpt2 V stroke} def
/TriU {stroke [] 0 setdash 2 copy vpt 1.12 mul add M
  hpt neg vpt -1.62 mul V
  hpt 2 mul 0 V
  hpt neg vpt 1.62 mul V closepath stroke
  Pnt} def
/Star {2 copy Pls Crs} def
/BoxF {stroke [] 0 setdash exch hpt sub exch vpt add M
  0 vpt2 neg V hpt2 0 V 0 vpt2 V
  hpt2 neg 0 V closepath fill} def
/TriUF {stroke [] 0 setdash vpt 1.12 mul add M
  hpt neg vpt -1.62 mul V
  hpt 2 mul 0 V
  hpt neg vpt 1.62 mul V closepath fill} def
/TriD {stroke [] 0 setdash 2 copy vpt 1.12 mul sub M
  hpt neg vpt 1.62 mul V
  hpt 2 mul 0 V
  hpt neg vpt -1.62 mul V closepath stroke
  Pnt} def
/TriDF {stroke [] 0 setdash vpt 1.12 mul sub M
  hpt neg vpt 1.62 mul V
  hpt 2 mul 0 V
  hpt neg vpt -1.62 mul V closepath fill} def
/DiaF {stroke [] 0 setdash vpt add M
  hpt neg vpt neg V hpt vpt neg V
  hpt vpt V hpt neg vpt V closepath fill} def
/Pent {stroke [] 0 setdash 2 copy gsave
  translate 0 hpt M 4 {72 rotate 0 hpt L} repeat
  closepath stroke grestore Pnt} def
/PentF {stroke [] 0 setdash gsave
  translate 0 hpt M 4 {72 rotate 0 hpt L} repeat
  closepath fill grestore} def
/Circle {stroke [] 0 setdash 2 copy
  hpt 0 360 arc stroke Pnt} def
/CircleF {stroke [] 0 setdash hpt 0 360 arc fill} def
/C0 {BL [] 0 setdash 2 copy moveto vpt 90 450 arc} bind def
/C1 {BL [] 0 setdash 2 copy moveto
	2 copy vpt 0 90 arc closepath fill
	vpt 0 360 arc closepath} bind def
/C2 {BL [] 0 setdash 2 copy moveto
	2 copy vpt 90 180 arc closepath fill
	vpt 0 360 arc closepath} bind def
/C3 {BL [] 0 setdash 2 copy moveto
	2 copy vpt 0 180 arc closepath fill
	vpt 0 360 arc closepath} bind def
/C4 {BL [] 0 setdash 2 copy moveto
	2 copy vpt 180 270 arc closepath fill
	vpt 0 360 arc closepath} bind def
/C5 {BL [] 0 setdash 2 copy moveto
	2 copy vpt 0 90 arc
	2 copy moveto
	2 copy vpt 180 270 arc closepath fill
	vpt 0 360 arc} bind def
/C6 {BL [] 0 setdash 2 copy moveto
	2 copy vpt 90 270 arc closepath fill
	vpt 0 360 arc closepath} bind def
/C7 {BL [] 0 setdash 2 copy moveto
	2 copy vpt 0 270 arc closepath fill
	vpt 0 360 arc closepath} bind def
/C8 {BL [] 0 setdash 2 copy moveto
	2 copy vpt 270 360 arc closepath fill
	vpt 0 360 arc closepath} bind def
/C9 {BL [] 0 setdash 2 copy moveto
	2 copy vpt 270 450 arc closepath fill
	vpt 0 360 arc closepath} bind def
/C10 {BL [] 0 setdash 2 copy 2 copy moveto vpt 270 360 arc closepath fill
	2 copy moveto
	2 copy vpt 90 180 arc closepath fill
	vpt 0 360 arc closepath} bind def
/C11 {BL [] 0 setdash 2 copy moveto
	2 copy vpt 0 180 arc closepath fill
	2 copy moveto
	2 copy vpt 270 360 arc closepath fill
	vpt 0 360 arc closepath} bind def
/C12 {BL [] 0 setdash 2 copy moveto
	2 copy vpt 180 360 arc closepath fill
	vpt 0 360 arc closepath} bind def
/C13 {BL [] 0 setdash 2 copy moveto
	2 copy vpt 0 90 arc closepath fill
	2 copy moveto
	2 copy vpt 180 360 arc closepath fill
	vpt 0 360 arc closepath} bind def
/C14 {BL [] 0 setdash 2 copy moveto
	2 copy vpt 90 360 arc closepath fill
	vpt 0 360 arc} bind def
/C15 {BL [] 0 setdash 2 copy vpt 0 360 arc closepath fill
	vpt 0 360 arc closepath} bind def
/Rec {newpath 4 2 roll moveto 1 index 0 rlineto 0 exch rlineto
	neg 0 rlineto closepath} bind def
/Square {dup Rec} bind def
/Bsquare {vpt sub exch vpt sub exch vpt2 Square} bind def
/S0 {BL [] 0 setdash 2 copy moveto 0 vpt rlineto BL Bsquare} bind def
/S1 {BL [] 0 setdash 2 copy vpt Square fill Bsquare} bind def
/S2 {BL [] 0 setdash 2 copy exch vpt sub exch vpt Square fill Bsquare} bind def
/S3 {BL [] 0 setdash 2 copy exch vpt sub exch vpt2 vpt Rec fill Bsquare} bind def
/S4 {BL [] 0 setdash 2 copy exch vpt sub exch vpt sub vpt Square fill Bsquare} bind def
/S5 {BL [] 0 setdash 2 copy 2 copy vpt Square fill
	exch vpt sub exch vpt sub vpt Square fill Bsquare} bind def
/S6 {BL [] 0 setdash 2 copy exch vpt sub exch vpt sub vpt vpt2 Rec fill Bsquare} bind def
/S7 {BL [] 0 setdash 2 copy exch vpt sub exch vpt sub vpt vpt2 Rec fill
	2 copy vpt Square fill Bsquare} bind def
/S8 {BL [] 0 setdash 2 copy vpt sub vpt Square fill Bsquare} bind def
/S9 {BL [] 0 setdash 2 copy vpt sub vpt vpt2 Rec fill Bsquare} bind def
/S10 {BL [] 0 setdash 2 copy vpt sub vpt Square fill 2 copy exch vpt sub exch vpt Square fill
	Bsquare} bind def
/S11 {BL [] 0 setdash 2 copy vpt sub vpt Square fill 2 copy exch vpt sub exch vpt2 vpt Rec fill
	Bsquare} bind def
/S12 {BL [] 0 setdash 2 copy exch vpt sub exch vpt sub vpt2 vpt Rec fill Bsquare} bind def
/S13 {BL [] 0 setdash 2 copy exch vpt sub exch vpt sub vpt2 vpt Rec fill
	2 copy vpt Square fill Bsquare} bind def
/S14 {BL [] 0 setdash 2 copy exch vpt sub exch vpt sub vpt2 vpt Rec fill
	2 copy exch vpt sub exch vpt Square fill Bsquare} bind def
/S15 {BL [] 0 setdash 2 copy Bsquare fill Bsquare} bind def
/D0 {gsave translate 45 rotate 0 0 S0 stroke grestore} bind def
/D1 {gsave translate 45 rotate 0 0 S1 stroke grestore} bind def
/D2 {gsave translate 45 rotate 0 0 S2 stroke grestore} bind def
/D3 {gsave translate 45 rotate 0 0 S3 stroke grestore} bind def
/D4 {gsave translate 45 rotate 0 0 S4 stroke grestore} bind def
/D5 {gsave translate 45 rotate 0 0 S5 stroke grestore} bind def
/D6 {gsave translate 45 rotate 0 0 S6 stroke grestore} bind def
/D7 {gsave translate 45 rotate 0 0 S7 stroke grestore} bind def
/D8 {gsave translate 45 rotate 0 0 S8 stroke grestore} bind def
/D9 {gsave translate 45 rotate 0 0 S9 stroke grestore} bind def
/D10 {gsave translate 45 rotate 0 0 S10 stroke grestore} bind def
/D11 {gsave translate 45 rotate 0 0 S11 stroke grestore} bind def
/D12 {gsave translate 45 rotate 0 0 S12 stroke grestore} bind def
/D13 {gsave translate 45 rotate 0 0 S13 stroke grestore} bind def
/D14 {gsave translate 45 rotate 0 0 S14 stroke grestore} bind def
/D15 {gsave translate 45 rotate 0 0 S15 stroke grestore} bind def
/DiaE {stroke [] 0 setdash vpt add M
  hpt neg vpt neg V hpt vpt neg V
  hpt vpt V hpt neg vpt V closepath stroke} def
/BoxE {stroke [] 0 setdash exch hpt sub exch vpt add M
  0 vpt2 neg V hpt2 0 V 0 vpt2 V
  hpt2 neg 0 V closepath stroke} def
/TriUE {stroke [] 0 setdash vpt 1.12 mul add M
  hpt neg vpt -1.62 mul V
  hpt 2 mul 0 V
  hpt neg vpt 1.62 mul V closepath stroke} def
/TriDE {stroke [] 0 setdash vpt 1.12 mul sub M
  hpt neg vpt 1.62 mul V
  hpt 2 mul 0 V
  hpt neg vpt -1.62 mul V closepath stroke} def
/PentE {stroke [] 0 setdash gsave
  translate 0 hpt M 4 {72 rotate 0 hpt L} repeat
  closepath stroke grestore} def
/CircE {stroke [] 0 setdash 
  hpt 0 360 arc stroke} def
/Opaque {gsave closepath 1 setgray fill grestore 0 setgray closepath} def
/DiaW {stroke [] 0 setdash vpt add M
  hpt neg vpt neg V hpt vpt neg V
  hpt vpt V hpt neg vpt V Opaque stroke} def
/BoxW {stroke [] 0 setdash exch hpt sub exch vpt add M
  0 vpt2 neg V hpt2 0 V 0 vpt2 V
  hpt2 neg 0 V Opaque stroke} def
/TriUW {stroke [] 0 setdash vpt 1.12 mul add M
  hpt neg vpt -1.62 mul V
  hpt 2 mul 0 V
  hpt neg vpt 1.62 mul V Opaque stroke} def
/TriDW {stroke [] 0 setdash vpt 1.12 mul sub M
  hpt neg vpt 1.62 mul V
  hpt 2 mul 0 V
  hpt neg vpt -1.62 mul V Opaque stroke} def
/PentW {stroke [] 0 setdash gsave
  translate 0 hpt M 4 {72 rotate 0 hpt L} repeat
  Opaque stroke grestore} def
/CircW {stroke [] 0 setdash 
  hpt 0 360 arc Opaque stroke} def
/BoxFill {gsave Rec 1 setgray fill grestore} def
/Density {
  /Fillden exch def
  currentrgbcolor
  /ColB exch def /ColG exch def /ColR exch def
  /ColR ColR Fillden mul Fillden sub 1 add def
  /ColG ColG Fillden mul Fillden sub 1 add def
  /ColB ColB Fillden mul Fillden sub 1 add def
  ColR ColG ColB setrgbcolor} def
/BoxColFill {gsave Rec PolyFill} def
/PolyFill {gsave Density fill grestore grestore} def
/h {rlineto rlineto rlineto gsave fill grestore} bind def
%
% PostScript Level 1 Pattern Fill routine for rectangles
% Usage: x y w h s a XX PatternFill
%	x,y = lower left corner of box to be filled
%	w,h = width and height of box
%	  a = angle in degrees between lines and x-axis
%	 XX = 0/1 for no/yes cross-hatch
%
/PatternFill {gsave /PFa [ 9 2 roll ] def
  PFa 0 get PFa 2 get 2 div add PFa 1 get PFa 3 get 2 div add translate
  PFa 2 get -2 div PFa 3 get -2 div PFa 2 get PFa 3 get Rec
  gsave 1 setgray fill grestore clip
  currentlinewidth 0.5 mul setlinewidth
  /PFs PFa 2 get dup mul PFa 3 get dup mul add sqrt def
  0 0 M PFa 5 get rotate PFs -2 div dup translate
  0 1 PFs PFa 4 get div 1 add floor cvi
	{PFa 4 get mul 0 M 0 PFs V} for
  0 PFa 6 get ne {
	0 1 PFs PFa 4 get div 1 add floor cvi
	{PFa 4 get mul 0 2 1 roll M PFs 0 V} for
 } if
  stroke grestore} def
%
/languagelevel where
 {pop languagelevel} {1} ifelse
 2 lt
	{/InterpretLevel1 true def}
	{/InterpretLevel1 Level1 def}
 ifelse
%
% PostScript level 2 pattern fill definitions
%
/Level2PatternFill {
/Tile8x8 {/PaintType 2 /PatternType 1 /TilingType 1 /BBox [0 0 8 8] /XStep 8 /YStep 8}
	bind def
/KeepColor {currentrgbcolor [/Pattern /DeviceRGB] setcolorspace} bind def
<< Tile8x8
 /PaintProc {0.5 setlinewidth pop 0 0 M 8 8 L 0 8 M 8 0 L stroke} 
>> matrix makepattern
/Pat1 exch def
<< Tile8x8
 /PaintProc {0.5 setlinewidth pop 0 0 M 8 8 L 0 8 M 8 0 L stroke
	0 4 M 4 8 L 8 4 L 4 0 L 0 4 L stroke}
>> matrix makepattern
/Pat2 exch def
<< Tile8x8
 /PaintProc {0.5 setlinewidth pop 0 0 M 0 8 L
	8 8 L 8 0 L 0 0 L fill}
>> matrix makepattern
/Pat3 exch def
<< Tile8x8
 /PaintProc {0.5 setlinewidth pop -4 8 M 8 -4 L
	0 12 M 12 0 L stroke}
>> matrix makepattern
/Pat4 exch def
<< Tile8x8
 /PaintProc {0.5 setlinewidth pop -4 0 M 8 12 L
	0 -4 M 12 8 L stroke}
>> matrix makepattern
/Pat5 exch def
<< Tile8x8
 /PaintProc {0.5 setlinewidth pop -2 8 M 4 -4 L
	0 12 M 8 -4 L 4 12 M 10 0 L stroke}
>> matrix makepattern
/Pat6 exch def
<< Tile8x8
 /PaintProc {0.5 setlinewidth pop -2 0 M 4 12 L
	0 -4 M 8 12 L 4 -4 M 10 8 L stroke}
>> matrix makepattern
/Pat7 exch def
<< Tile8x8
 /PaintProc {0.5 setlinewidth pop 8 -2 M -4 4 L
	12 0 M -4 8 L 12 4 M 0 10 L stroke}
>> matrix makepattern
/Pat8 exch def
<< Tile8x8
 /PaintProc {0.5 setlinewidth pop 0 -2 M 12 4 L
	-4 0 M 12 8 L -4 4 M 8 10 L stroke}
>> matrix makepattern
/Pat9 exch def
/Pattern1 {PatternBgnd KeepColor Pat1 setpattern} bind def
/Pattern2 {PatternBgnd KeepColor Pat2 setpattern} bind def
/Pattern3 {PatternBgnd KeepColor Pat3 setpattern} bind def
/Pattern4 {PatternBgnd KeepColor Landscape {Pat5} {Pat4} ifelse setpattern} bind def
/Pattern5 {PatternBgnd KeepColor Landscape {Pat4} {Pat5} ifelse setpattern} bind def
/Pattern6 {PatternBgnd KeepColor Landscape {Pat9} {Pat6} ifelse setpattern} bind def
/Pattern7 {PatternBgnd KeepColor Landscape {Pat8} {Pat7} ifelse setpattern} bind def
} def
%
%
%End of PostScript Level 2 code
%
/PatternBgnd {
  TransparentPatterns {} {gsave 1 setgray fill grestore} ifelse
} def
%
% Substitute for Level 2 pattern fill codes with
% grayscale if Level 2 support is not selected.
%
/Level1PatternFill {
/Pattern1 {0.250 Density} bind def
/Pattern2 {0.500 Density} bind def
/Pattern3 {0.750 Density} bind def
/Pattern4 {0.125 Density} bind def
/Pattern5 {0.375 Density} bind def
/Pattern6 {0.625 Density} bind def
/Pattern7 {0.875 Density} bind def
} def
%
% Now test for support of Level 2 code
%
Level1 {Level1PatternFill} {Level2PatternFill} ifelse
%
/Symbol-Oblique /Symbol findfont [1 0 .167 1 0 0] makefont
dup length dict begin {1 index /FID eq {pop pop} {def} ifelse} forall
currentdict end definefont pop
end
%%EndProlog
%%Page: 1 1
gnudict begin
gsave
50 50 translate
0.100 0.100 scale
90 rotate
0 -5040 translate
0 setgray
newpath
(Helvetica) findfont 140 scalefont setfont
1.000 UL
LTb
1.000 UL
LTb
971 1249 M
2896 2356 L
6229 1717 M
2896 2356 L
971 1249 M
0 2214 V
0 -2214 R
47 27 V
908 1188 M
( 4) Cshow
1.000 UL
LTb
1.000 UL
LTb
2896 2356 M
-48 -27 V
1304 1185 M
48 27 V
-111 -88 R
( 4.2) Cshow
1.000 UL
LTb
1.000 UL
LTb
3229 2292 M
-47 -27 V
1638 1121 M
47 27 V
-110 -88 R
( 4.4) Cshow
1.000 UL
LTb
1.000 UL
LTb
3563 2229 M
-48 -28 V
1971 1057 M
48 27 V
1908 996 M
( 4.6) Cshow
1.000 UL
LTb
1.000 UL
LTb
3895 2165 M
-47 -28 V
2305 993 M
47 27 V
2241 932 M
( 4.8) Cshow
1.000 UL
LTb
1.000 UL
LTb
4229 2101 M
-48 -28 V
2638 929 M
47 27 V
2575 868 M
( 5) Cshow
1.000 UL
LTb
1.000 UL
LTb
4562 2037 M
-47 -28 V
2971 865 M
48 27 V
2908 804 M
( 5.2) Cshow
1.000 UL
LTb
1.000 UL
LTb
4895 1973 M
-47 -28 V
3305 801 M
47 27 V
3242 741 M
( 5.4) Cshow
1.000 UL
LTb
1.000 UL
LTb
5229 1909 M
-48 -28 V
3637 737 M
48 27 V
3575 677 M
( 5.6) Cshow
1.000 UL
LTb
1.000 UL
LTb
5562 1845 M
-47 -27 V
3971 673 M
47 28 V
3907 613 M
( 5.8) Cshow
1.000 UL
LTb
1.000 UL
LTb
5896 1781 M
-48 -27 V
4304 609 M
48 28 V
4241 549 M
( 6) Cshow
1.000 UL
LTb
1.000 UL
LTb
6229 1717 M
-47 -27 V
4304 609 M
-54 11 V
127 -34 R
( 4) Cshow
1.000 UL
LTb
1.000 UL
LTb
971 1249 M
54 -11 V
4497 720 M
-55 11 V
127 -34 R
( 4.2) Cshow
1.000 UL
LTb
1.000 UL
LTb
1163 1360 M
55 -11 V
4689 831 M
-54 10 V
127 -33 R
( 4.4) Cshow
1.000 UL
LTb
1.000 UL
LTb
1356 1470 M
54 -10 V
4882 942 M
-55 10 V
127 -34 R
( 4.6) Cshow
1.000 UL
LTb
1.000 UL
LTb
1548 1581 M
55 -10 V
5074 1052 M
-54 11 V
127 -34 R
( 4.8) Cshow
1.000 UL
LTb
1.000 UL
LTb
1741 1692 M
54 -11 V
5267 1163 M
-55 11 V
127 -34 R
( 5) Cshow
1.000 UL
LTb
1.000 UL
LTb
1933 1803 M
55 -11 V
5459 1274 M
-54 10 V
127 -33 R
( 5.2) Cshow
1.000 UL
LTb
1.000 UL
LTb
2126 1913 M
54 -10 V
5652 1385 M
-55 10 V
127 -34 R
( 5.4) Cshow
1.000 UL
LTb
1.000 UL
LTb
2318 2024 M
55 -10 V
5844 1495 M
-54 11 V
127 -34 R
( 5.6) Cshow
1.000 UL
LTb
1.000 UL
LTb
2511 2135 M
54 -11 V
6037 1606 M
-55 11 V
127 -34 R
( 5.8) Cshow
1.000 UL
LTb
1.000 UL
LTb
2703 2246 M
55 -11 V
6229 1717 M
-54 10 V
127 -33 R
( 6) Cshow
1.000 UL
LTb
1.000 UL
LTb
2896 2356 M
54 -10 V
971 1987 M
63 0 V
-189 0 R
( 0.01965) Rshow
1.000 UL
LTb
1.000 UL
LTb
971 2151 M
63 0 V
-189 0 R
( 0.0197) Rshow
1.000 UL
LTb
1.000 UL
LTb
971 2315 M
63 0 V
-189 0 R
( 0.01975) Rshow
1.000 UL
LTb
1.000 UL
LTb
971 2479 M
63 0 V
-189 0 R
( 0.0198) Rshow
1.000 UL
LTb
1.000 UL
LTb
971 2643 M
63 0 V
-189 0 R
( 0.01985) Rshow
1.000 UL
LTb
1.000 UL
LTb
971 2807 M
63 0 V
-189 0 R
( 0.0199) Rshow
1.000 UL
LTb
1.000 UL
LTb
971 2971 M
63 0 V
-189 0 R
( 0.01995) Rshow
1.000 UL
LTb
1.000 UL
LTb
971 3135 M
63 0 V
-189 0 R
( 0.02) Rshow
1.000 UL
LTb
1.000 UL
LTb
971 3299 M
63 0 V
-189 0 R
( 0.02005) Rshow
1.000 UL
LTb
1.000 UL
LTb
971 3463 M
63 0 V
-189 0 R
( 0.0201) Rshow
1.000 UL
LTb
1.000 UP
1.000 UP
1.000 UL
LT0
LTb
/Helvetica findfont 140 scalefont setfont
6402 4556 M
("couple-disk.out") Rshow
1.000 UP
1.000 UL
LT0
6685 4556 Pls
1658 3001 Pls
1670 3008 Pls
1682 3014 Pls
1694 3021 Pls
1706 3028 Pls
1719 3035 Pls
1619 2962 Pls
1631 2969 Pls
1643 2976 Pls
1655 2983 Pls
1667 2990 Pls
1679 2997 Pls
1691 3004 Pls
1703 3010 Pls
1715 3017 Pls
1727 3024 Pls
1739 3031 Pls
1751 3038 Pls
1763 3045 Pls
1776 3052 Pls
1788 3059 Pls
1800 3066 Pls
1604 2937 Pls
1616 2944 Pls
1628 2951 Pls
1640 2958 Pls
1652 2965 Pls
1664 2972 Pls
1676 2979 Pls
1688 2986 Pls
1700 2993 Pls
1712 3000 Pls
1724 3006 Pls
1736 3013 Pls
1748 3020 Pls
1760 3027 Pls
1772 3034 Pls
1784 3041 Pls
1796 3048 Pls
1808 3055 Pls
1820 3062 Pls
1833 3069 Pls
1845 3076 Pls
1857 3083 Pls
1600 2919 Pls
1612 2926 Pls
1625 2933 Pls
1637 2940 Pls
1649 2947 Pls
1661 2954 Pls
1673 2961 Pls
1685 2968 Pls
1697 2975 Pls
1709 2982 Pls
1721 2989 Pls
1733 2996 Pls
1745 3002 Pls
1757 3009 Pls
1769 3016 Pls
1781 3023 Pls
1793 3030 Pls
1805 3037 Pls
1817 3044 Pls
1829 3051 Pls
1841 3058 Pls
1853 3065 Pls
1865 3072 Pls
1877 3079 Pls
1890 3086 Pls
1902 3093 Pls
1597 2901 Pls
1609 2908 Pls
1621 2915 Pls
1633 2922 Pls
1645 2929 Pls
1657 2936 Pls
1669 2943 Pls
1682 2950 Pls
1694 2957 Pls
1706 2964 Pls
1718 2971 Pls
1730 2978 Pls
1742 2985 Pls
1754 2992 Pls
1766 2998 Pls
1778 3005 Pls
1790 3012 Pls
1802 3019 Pls
1814 3026 Pls
1826 3033 Pls
1838 3040 Pls
1850 3047 Pls
1862 3054 Pls
1874 3061 Pls
1886 3068 Pls
1898 3075 Pls
1910 3082 Pls
1922 3089 Pls
1934 3096 Pls
1947 3102 Pls
1606 2890 Pls
1618 2897 Pls
1630 2904 Pls
1642 2911 Pls
1654 2918 Pls
1666 2925 Pls
1678 2932 Pls
1690 2939 Pls
1702 2946 Pls
1714 2953 Pls
1726 2960 Pls
1739 2967 Pls
1751 2974 Pls
1763 2981 Pls
1775 2988 Pls
1787 2994 Pls
1799 3001 Pls
1811 3008 Pls
1823 3015 Pls
1835 3022 Pls
1847 3029 Pls
1859 3036 Pls
1871 3043 Pls
1883 3050 Pls
1895 3057 Pls
1907 3064 Pls
1919 3071 Pls
1931 3078 Pls
1943 3085 Pls
1955 3092 Pls
1967 3098 Pls
1979 3105 Pls
1991 3112 Pls
1603 2873 Pls
1615 2880 Pls
1627 2886 Pls
1639 2893 Pls
1651 2900 Pls
1663 2907 Pls
1675 2914 Pls
1687 2921 Pls
1699 2928 Pls
1711 2935 Pls
1723 2942 Pls
1735 2949 Pls
1747 2956 Pls
1759 2963 Pls
1771 2970 Pls
1783 2977 Pls
1796 2984 Pls
1808 2990 Pls
1820 2997 Pls
1832 3004 Pls
1844 3011 Pls
1856 3018 Pls
1868 3025 Pls
1880 3032 Pls
1892 3039 Pls
1904 3046 Pls
1916 3053 Pls
1928 3060 Pls
1940 3067 Pls
1952 3074 Pls
1964 3081 Pls
1976 3088 Pls
1988 3094 Pls
2000 3101 Pls
2012 3108 Pls
2024 3115 Pls
1612 2862 Pls
1624 2869 Pls
1636 2876 Pls
1648 2882 Pls
1660 2889 Pls
1672 2896 Pls
1684 2903 Pls
1696 2910 Pls
1708 2917 Pls
1720 2924 Pls
1732 2931 Pls
1744 2938 Pls
1756 2945 Pls
1768 2952 Pls
1780 2959 Pls
1792 2966 Pls
1804 2973 Pls
1816 2980 Pls
1828 2986 Pls
1840 2993 Pls
1853 3000 Pls
1865 3007 Pls
1877 3014 Pls
1889 3021 Pls
1901 3028 Pls
1913 3035 Pls
1925 3042 Pls
1937 3049 Pls
1949 3056 Pls
1961 3063 Pls
1973 3070 Pls
1985 3077 Pls
1997 3084 Pls
2009 3090 Pls
2021 3097 Pls
2033 3104 Pls
2045 3111 Pls
2057 3118 Pls
1620 2851 Pls
1632 2858 Pls
1645 2865 Pls
1657 2872 Pls
1669 2878 Pls
1681 2885 Pls
1693 2892 Pls
1705 2899 Pls
1717 2906 Pls
1729 2913 Pls
1741 2920 Pls
1753 2927 Pls
1765 2934 Pls
1777 2941 Pls
1789 2948 Pls
1801 2955 Pls
1813 2962 Pls
1825 2969 Pls
1837 2976 Pls
1849 2982 Pls
1861 2989 Pls
1873 2996 Pls
1885 3003 Pls
1897 3010 Pls
1910 3017 Pls
1922 3024 Pls
1934 3031 Pls
1946 3038 Pls
1958 3045 Pls
1970 3052 Pls
1982 3059 Pls
1994 3066 Pls
2006 3073 Pls
2018 3080 Pls
2030 3086 Pls
2042 3093 Pls
2054 3100 Pls
2066 3107 Pls
2078 3114 Pls
2090 3121 Pls
1629 2840 Pls
1641 2847 Pls
1653 2854 Pls
1665 2861 Pls
1677 2868 Pls
1689 2874 Pls
1702 2881 Pls
1714 2888 Pls
1726 2895 Pls
1738 2902 Pls
1750 2909 Pls
1762 2916 Pls
1774 2923 Pls
1786 2930 Pls
1798 2937 Pls
1810 2944 Pls
1822 2951 Pls
1834 2958 Pls
1846 2965 Pls
1858 2972 Pls
1870 2978 Pls
1882 2985 Pls
1894 2992 Pls
1906 2999 Pls
1918 3006 Pls
1930 3013 Pls
1942 3020 Pls
1954 3027 Pls
1967 3034 Pls
1979 3041 Pls
1991 3048 Pls
2003 3055 Pls
2015 3062 Pls
2027 3069 Pls
2039 3075 Pls
2051 3082 Pls
2063 3089 Pls
2075 3096 Pls
2087 3103 Pls
2099 3110 Pls
2111 3117 Pls
2123 3124 Pls
1638 2829 Pls
1650 2836 Pls
1662 2843 Pls
1674 2850 Pls
1686 2857 Pls
1698 2864 Pls
1710 2870 Pls
1722 2877 Pls
1734 2884 Pls
1746 2891 Pls
1759 2898 Pls
1771 2905 Pls
1783 2912 Pls
1795 2919 Pls
1807 2926 Pls
1819 2933 Pls
1831 2940 Pls
1843 2947 Pls
1855 2954 Pls
1867 2961 Pls
1879 2968 Pls
1891 2974 Pls
1903 2981 Pls
1915 2988 Pls
1927 2995 Pls
1939 3002 Pls
1951 3009 Pls
1963 3016 Pls
1975 3023 Pls
1987 3030 Pls
1999 3037 Pls
2011 3044 Pls
2024 3051 Pls
2036 3058 Pls
2048 3065 Pls
2060 3071 Pls
2072 3078 Pls
2084 3085 Pls
2096 3092 Pls
2108 3099 Pls
2120 3106 Pls
2132 3113 Pls
2144 3120 Pls
2156 3127 Pls
1647 2818 Pls
1659 2825 Pls
1671 2832 Pls
1683 2839 Pls
1695 2846 Pls
1707 2853 Pls
1719 2860 Pls
1731 2866 Pls
1743 2873 Pls
1755 2880 Pls
1767 2887 Pls
1779 2894 Pls
1791 2901 Pls
1803 2908 Pls
1816 2915 Pls
1828 2922 Pls
1840 2929 Pls
1852 2936 Pls
1864 2943 Pls
1876 2950 Pls
1888 2957 Pls
1900 2964 Pls
1912 2970 Pls
1924 2977 Pls
1936 2984 Pls
1948 2991 Pls
1960 2998 Pls
1972 3005 Pls
1984 3012 Pls
1996 3019 Pls
2008 3026 Pls
2020 3033 Pls
2032 3040 Pls
2044 3047 Pls
2056 3054 Pls
2068 3061 Pls
2081 3067 Pls
2093 3074 Pls
2105 3081 Pls
2117 3088 Pls
2129 3095 Pls
2141 3102 Pls
2153 3109 Pls
2165 3116 Pls
2177 3123 Pls
2189 3130 Pls
1656 2807 Pls
1668 2814 Pls
1680 2821 Pls
1692 2828 Pls
1704 2835 Pls
1716 2842 Pls
1728 2849 Pls
1740 2856 Pls
1752 2862 Pls
1764 2869 Pls
1776 2876 Pls
1788 2883 Pls
1800 2890 Pls
1812 2897 Pls
1824 2904 Pls
1836 2911 Pls
1848 2918 Pls
1860 2925 Pls
1873 2932 Pls
1885 2939 Pls
1897 2946 Pls
1909 2953 Pls
1921 2960 Pls
1933 2966 Pls
1945 2973 Pls
1957 2980 Pls
1969 2987 Pls
1981 2994 Pls
1993 3001 Pls
2005 3008 Pls
2017 3015 Pls
2029 3022 Pls
2041 3029 Pls
2053 3036 Pls
2065 3043 Pls
2077 3050 Pls
2089 3057 Pls
2101 3063 Pls
2113 3070 Pls
2126 3077 Pls
2138 3084 Pls
2150 3091 Pls
2162 3098 Pls
2174 3105 Pls
2186 3112 Pls
2198 3119 Pls
2210 3126 Pls
2222 3133 Pls
1677 2803 Pls
1689 2810 Pls
1701 2817 Pls
1713 2824 Pls
1725 2831 Pls
1737 2838 Pls
1749 2845 Pls
1761 2852 Pls
1773 2858 Pls
1785 2865 Pls
1797 2872 Pls
1809 2879 Pls
1821 2886 Pls
1833 2893 Pls
1845 2900 Pls
1857 2907 Pls
1869 2914 Pls
1881 2921 Pls
1893 2928 Pls
1905 2935 Pls
1917 2942 Pls
1930 2949 Pls
1942 2956 Pls
1954 2962 Pls
1966 2969 Pls
1978 2976 Pls
1990 2983 Pls
2002 2990 Pls
2014 2997 Pls
2026 3004 Pls
2038 3011 Pls
2050 3018 Pls
2062 3025 Pls
2074 3032 Pls
2086 3039 Pls
2098 3046 Pls
2110 3053 Pls
2122 3059 Pls
2134 3066 Pls
2146 3073 Pls
2158 3080 Pls
2170 3087 Pls
2183 3094 Pls
2195 3101 Pls
2207 3108 Pls
2219 3115 Pls
2231 3122 Pls
2243 3129 Pls
1685 2792 Pls
1697 2799 Pls
1709 2806 Pls
1722 2813 Pls
1734 2820 Pls
1746 2827 Pls
1758 2834 Pls
1770 2841 Pls
1782 2848 Pls
1794 2854 Pls
1806 2861 Pls
1818 2868 Pls
1830 2875 Pls
1842 2882 Pls
1854 2889 Pls
1866 2896 Pls
1878 2903 Pls
1890 2910 Pls
1902 2917 Pls
1914 2924 Pls
1926 2931 Pls
1938 2938 Pls
1950 2945 Pls
1962 2952 Pls
1974 2958 Pls
1987 2965 Pls
1999 2972 Pls
2011 2979 Pls
2023 2986 Pls
2035 2993 Pls
2047 3000 Pls
2059 3007 Pls
2071 3014 Pls
2083 3021 Pls
2095 3028 Pls
2107 3035 Pls
2119 3042 Pls
2131 3049 Pls
2143 3055 Pls
2155 3062 Pls
2167 3069 Pls
2179 3076 Pls
2191 3083 Pls
2203 3090 Pls
2215 3097 Pls
2227 3104 Pls
2240 3111 Pls
2252 3118 Pls
2264 3125 Pls
2276 3132 Pls
1706 2788 Pls
1718 2795 Pls
1730 2802 Pls
1742 2809 Pls
1754 2816 Pls
1766 2823 Pls
1779 2830 Pls
1791 2837 Pls
1803 2844 Pls
1815 2850 Pls
1827 2857 Pls
1839 2864 Pls
1851 2871 Pls
1863 2878 Pls
1875 2885 Pls
1887 2892 Pls
1899 2899 Pls
1911 2906 Pls
1923 2913 Pls
1935 2920 Pls
1947 2927 Pls
1959 2934 Pls
1971 2941 Pls
1983 2948 Pls
1995 2954 Pls
2007 2961 Pls
2019 2968 Pls
2031 2975 Pls
2044 2982 Pls
2056 2989 Pls
2068 2996 Pls
2080 3003 Pls
2092 3010 Pls
2104 3017 Pls
2116 3024 Pls
2128 3031 Pls
2140 3038 Pls
2152 3045 Pls
2164 3051 Pls
2176 3058 Pls
2188 3065 Pls
2200 3072 Pls
2212 3079 Pls
2224 3086 Pls
2236 3093 Pls
2248 3100 Pls
2260 3107 Pls
2272 3114 Pls
2284 3121 Pls
2297 3128 Pls
1715 2777 Pls
1727 2784 Pls
1739 2791 Pls
1751 2798 Pls
1763 2805 Pls
1775 2812 Pls
1787 2819 Pls
1799 2826 Pls
1811 2833 Pls
1823 2840 Pls
1836 2846 Pls
1848 2853 Pls
1860 2860 Pls
1872 2867 Pls
1884 2874 Pls
1896 2881 Pls
1908 2888 Pls
1920 2895 Pls
1932 2902 Pls
1944 2909 Pls
1956 2916 Pls
1968 2923 Pls
1980 2930 Pls
1992 2937 Pls
2004 2944 Pls
2016 2950 Pls
2028 2957 Pls
2040 2964 Pls
2052 2971 Pls
2064 2978 Pls
2076 2985 Pls
2088 2992 Pls
2101 2999 Pls
2113 3006 Pls
2125 3013 Pls
2137 3020 Pls
2149 3027 Pls
2161 3034 Pls
2173 3041 Pls
2185 3047 Pls
2197 3054 Pls
2209 3061 Pls
2221 3068 Pls
2233 3075 Pls
2245 3082 Pls
2257 3089 Pls
2269 3096 Pls
2281 3103 Pls
2293 3110 Pls
2305 3117 Pls
2317 3124 Pls
2329 3131 Pls
1736 2773 Pls
1748 2780 Pls
1760 2787 Pls
1772 2794 Pls
1784 2801 Pls
1796 2808 Pls
1808 2815 Pls
1820 2822 Pls
1832 2829 Pls
1844 2836 Pls
1856 2842 Pls
1868 2849 Pls
1880 2856 Pls
1893 2863 Pls
1905 2870 Pls
1917 2877 Pls
1929 2884 Pls
1941 2891 Pls
1953 2898 Pls
1965 2905 Pls
1977 2912 Pls
1989 2919 Pls
2001 2926 Pls
2013 2933 Pls
2025 2940 Pls
2037 2946 Pls
2049 2953 Pls
2061 2960 Pls
2073 2967 Pls
2085 2974 Pls
2097 2981 Pls
2109 2988 Pls
2121 2995 Pls
2133 3002 Pls
2146 3009 Pls
2158 3016 Pls
2170 3023 Pls
2182 3030 Pls
2194 3037 Pls
2206 3043 Pls
2218 3050 Pls
2230 3057 Pls
2242 3064 Pls
2254 3071 Pls
2266 3078 Pls
2278 3085 Pls
2290 3092 Pls
2302 3099 Pls
2314 3106 Pls
2326 3113 Pls
2338 3120 Pls
2350 3127 Pls
1745 2762 Pls
1757 2769 Pls
1769 2776 Pls
1781 2783 Pls
1793 2790 Pls
1805 2797 Pls
1817 2804 Pls
1829 2811 Pls
1841 2818 Pls
1853 2825 Pls
1865 2832 Pls
1877 2838 Pls
1889 2845 Pls
1901 2852 Pls
1913 2859 Pls
1925 2866 Pls
1937 2873 Pls
1950 2880 Pls
1962 2887 Pls
1974 2894 Pls
1986 2901 Pls
1998 2908 Pls
2010 2915 Pls
2022 2922 Pls
2034 2929 Pls
2046 2936 Pls
2058 2942 Pls
2070 2949 Pls
2082 2956 Pls
2094 2963 Pls
2106 2970 Pls
2118 2977 Pls
2130 2984 Pls
2142 2991 Pls
2154 2998 Pls
2166 3005 Pls
2178 3012 Pls
2190 3019 Pls
2203 3026 Pls
2215 3033 Pls
2227 3039 Pls
2239 3046 Pls
2251 3053 Pls
2263 3060 Pls
2275 3067 Pls
2287 3074 Pls
2299 3081 Pls
2311 3088 Pls
2323 3095 Pls
2335 3102 Pls
2347 3109 Pls
2359 3116 Pls
2371 3123 Pls
2383 3130 Pls
1766 2758 Pls
1778 2765 Pls
1790 2772 Pls
1802 2779 Pls
1814 2786 Pls
1826 2793 Pls
1838 2800 Pls
1850 2807 Pls
1862 2814 Pls
1874 2821 Pls
1886 2828 Pls
1898 2834 Pls
1910 2841 Pls
1922 2848 Pls
1934 2855 Pls
1946 2862 Pls
1958 2869 Pls
1970 2876 Pls
1982 2883 Pls
1994 2890 Pls
2007 2897 Pls
2019 2904 Pls
2031 2911 Pls
2043 2918 Pls
2055 2925 Pls
2067 2932 Pls
2079 2938 Pls
2091 2945 Pls
2103 2952 Pls
2115 2959 Pls
2127 2966 Pls
2139 2973 Pls
2151 2980 Pls
2163 2987 Pls
2175 2994 Pls
2187 3001 Pls
2199 3008 Pls
2211 3015 Pls
2223 3022 Pls
2235 3029 Pls
2247 3035 Pls
2260 3042 Pls
2272 3049 Pls
2284 3056 Pls
2296 3063 Pls
2308 3070 Pls
2320 3077 Pls
2332 3084 Pls
2344 3091 Pls
2356 3098 Pls
2368 3105 Pls
2380 3112 Pls
2392 3119 Pls
2404 3126 Pls
1786 2754 Pls
1799 2761 Pls
1811 2768 Pls
1823 2775 Pls
1835 2782 Pls
1847 2789 Pls
1859 2796 Pls
1871 2803 Pls
1883 2810 Pls
1895 2817 Pls
1907 2824 Pls
1919 2830 Pls
1931 2837 Pls
1943 2844 Pls
1955 2851 Pls
1967 2858 Pls
1979 2865 Pls
1991 2872 Pls
2003 2879 Pls
2015 2886 Pls
2027 2893 Pls
2039 2900 Pls
2051 2907 Pls
2064 2914 Pls
2076 2921 Pls
2088 2928 Pls
2100 2934 Pls
2112 2941 Pls
2124 2948 Pls
2136 2955 Pls
2148 2962 Pls
2160 2969 Pls
2172 2976 Pls
2184 2983 Pls
2196 2990 Pls
2208 2997 Pls
2220 3004 Pls
2232 3011 Pls
2244 3018 Pls
2256 3025 Pls
2268 3031 Pls
2280 3038 Pls
2292 3045 Pls
2304 3052 Pls
2317 3059 Pls
2329 3066 Pls
2341 3073 Pls
2353 3080 Pls
2365 3087 Pls
2377 3094 Pls
2389 3101 Pls
2401 3108 Pls
2413 3115 Pls
2425 3122 Pls
2437 3129 Pls
1795 2743 Pls
1807 2750 Pls
1819 2757 Pls
1831 2764 Pls
1843 2771 Pls
1856 2778 Pls
1868 2785 Pls
1880 2792 Pls
1892 2799 Pls
1904 2806 Pls
1916 2813 Pls
1928 2820 Pls
1940 2826 Pls
1952 2833 Pls
1964 2840 Pls
1976 2847 Pls
1988 2854 Pls
2000 2861 Pls
2012 2868 Pls
2024 2875 Pls
2036 2882 Pls
2048 2889 Pls
2060 2896 Pls
2072 2903 Pls
2084 2910 Pls
2096 2917 Pls
2108 2924 Pls
2121 2930 Pls
2133 2937 Pls
2145 2944 Pls
2157 2951 Pls
2169 2958 Pls
2181 2965 Pls
2193 2972 Pls
2205 2979 Pls
2217 2986 Pls
2229 2993 Pls
2241 3000 Pls
2253 3007 Pls
2265 3014 Pls
2277 3021 Pls
2289 3027 Pls
2301 3034 Pls
2313 3041 Pls
2325 3048 Pls
2337 3055 Pls
2349 3062 Pls
2361 3069 Pls
2374 3076 Pls
2386 3083 Pls
2398 3090 Pls
2410 3097 Pls
2422 3104 Pls
2434 3111 Pls
2446 3118 Pls
2458 3125 Pls
1816 2739 Pls
1828 2746 Pls
1840 2753 Pls
1852 2760 Pls
1864 2767 Pls
1876 2774 Pls
1888 2781 Pls
1900 2788 Pls
1913 2795 Pls
1925 2802 Pls
1937 2809 Pls
1949 2816 Pls
1961 2822 Pls
1973 2829 Pls
1985 2836 Pls
1997 2843 Pls
2009 2850 Pls
2021 2857 Pls
2033 2864 Pls
2045 2871 Pls
2057 2878 Pls
2069 2885 Pls
2081 2892 Pls
2093 2899 Pls
2105 2906 Pls
2117 2913 Pls
2129 2920 Pls
2141 2926 Pls
2153 2933 Pls
2166 2940 Pls
2178 2947 Pls
2190 2954 Pls
2202 2961 Pls
2214 2968 Pls
2226 2975 Pls
2238 2982 Pls
2250 2989 Pls
2262 2996 Pls
2274 3003 Pls
2286 3010 Pls
2298 3017 Pls
2310 3023 Pls
2322 3030 Pls
2334 3037 Pls
2346 3044 Pls
2358 3051 Pls
2370 3058 Pls
2382 3065 Pls
2394 3072 Pls
2406 3079 Pls
2418 3086 Pls
2431 3093 Pls
2443 3100 Pls
2455 3107 Pls
2467 3114 Pls
2479 3121 Pls
1837 2735 Pls
1849 2742 Pls
1861 2749 Pls
1873 2756 Pls
1885 2763 Pls
1897 2770 Pls
1909 2777 Pls
1921 2784 Pls
1933 2791 Pls
1945 2798 Pls
1957 2805 Pls
1970 2812 Pls
1982 2818 Pls
1994 2825 Pls
2006 2832 Pls
2018 2839 Pls
2030 2846 Pls
2042 2853 Pls
2054 2860 Pls
2066 2867 Pls
2078 2874 Pls
2090 2881 Pls
2102 2888 Pls
2114 2895 Pls
2126 2902 Pls
2138 2909 Pls
2150 2916 Pls
2162 2922 Pls
2174 2929 Pls
2186 2936 Pls
2198 2943 Pls
2210 2950 Pls
2223 2957 Pls
2235 2964 Pls
2247 2971 Pls
2259 2978 Pls
2271 2985 Pls
2283 2992 Pls
2295 2999 Pls
2307 3006 Pls
2319 3013 Pls
2331 3019 Pls
2343 3026 Pls
2355 3033 Pls
2367 3040 Pls
2379 3047 Pls
2391 3054 Pls
2403 3061 Pls
2415 3068 Pls
2427 3075 Pls
2439 3082 Pls
2451 3089 Pls
2463 3096 Pls
2475 3103 Pls
2488 3110 Pls
2500 3117 Pls
1858 2731 Pls
1870 2738 Pls
1882 2745 Pls
1894 2752 Pls
1906 2759 Pls
1918 2766 Pls
1930 2773 Pls
1942 2780 Pls
1954 2787 Pls
1966 2794 Pls
1978 2801 Pls
1990 2808 Pls
2002 2814 Pls
2014 2821 Pls
2027 2828 Pls
2039 2835 Pls
2051 2842 Pls
2063 2849 Pls
2075 2856 Pls
2087 2863 Pls
2099 2870 Pls
2111 2877 Pls
2123 2884 Pls
2135 2891 Pls
2147 2898 Pls
2159 2905 Pls
2171 2912 Pls
2183 2918 Pls
2195 2925 Pls
2207 2932 Pls
2219 2939 Pls
2231 2946 Pls
2243 2953 Pls
2255 2960 Pls
2267 2967 Pls
2280 2974 Pls
2292 2981 Pls
2304 2988 Pls
2316 2995 Pls
2328 3002 Pls
2340 3009 Pls
2352 3015 Pls
2364 3022 Pls
2376 3029 Pls
2388 3036 Pls
2400 3043 Pls
2412 3050 Pls
2424 3057 Pls
2436 3064 Pls
2448 3071 Pls
2460 3078 Pls
2472 3085 Pls
2484 3092 Pls
2496 3099 Pls
2508 3106 Pls
2520 3113 Pls
2532 3119 Pls
1867 2720 Pls
1879 2727 Pls
1891 2734 Pls
1903 2741 Pls
1915 2748 Pls
1927 2755 Pls
1939 2762 Pls
1951 2769 Pls
1963 2776 Pls
1975 2783 Pls
1987 2790 Pls
1999 2797 Pls
2011 2804 Pls
2023 2810 Pls
2035 2817 Pls
2047 2824 Pls
2059 2831 Pls
2071 2838 Pls
2084 2845 Pls
2096 2852 Pls
2108 2859 Pls
2120 2866 Pls
2132 2873 Pls
2144 2880 Pls
2156 2887 Pls
2168 2894 Pls
2180 2901 Pls
2192 2907 Pls
2204 2914 Pls
2216 2921 Pls
2228 2928 Pls
2240 2935 Pls
2252 2942 Pls
2264 2949 Pls
2276 2956 Pls
2288 2963 Pls
2300 2970 Pls
2312 2977 Pls
2324 2984 Pls
2337 2991 Pls
2349 2998 Pls
2361 3005 Pls
2373 3011 Pls
2385 3018 Pls
2397 3025 Pls
2409 3032 Pls
2421 3039 Pls
2433 3046 Pls
2445 3053 Pls
2457 3060 Pls
2469 3067 Pls
2481 3074 Pls
2493 3081 Pls
2505 3088 Pls
2517 3095 Pls
2529 3102 Pls
2541 3109 Pls
2553 3115 Pls
1888 2716 Pls
1900 2723 Pls
1912 2730 Pls
1924 2737 Pls
1936 2744 Pls
1948 2751 Pls
1960 2758 Pls
1972 2765 Pls
1984 2772 Pls
1996 2779 Pls
2008 2786 Pls
2020 2793 Pls
2032 2800 Pls
2044 2806 Pls
2056 2813 Pls
2068 2820 Pls
2080 2827 Pls
2092 2834 Pls
2104 2841 Pls
2116 2848 Pls
2128 2855 Pls
2141 2862 Pls
2153 2869 Pls
2165 2876 Pls
2177 2883 Pls
2189 2890 Pls
2201 2897 Pls
2213 2903 Pls
2225 2910 Pls
2237 2917 Pls
2249 2924 Pls
2261 2931 Pls
2273 2938 Pls
2285 2945 Pls
2297 2952 Pls
2309 2959 Pls
2321 2966 Pls
2333 2973 Pls
2345 2980 Pls
2357 2987 Pls
2369 2994 Pls
2381 3001 Pls
2394 3007 Pls
2406 3014 Pls
2418 3021 Pls
2430 3028 Pls
2442 3035 Pls
2454 3042 Pls
2466 3049 Pls
2478 3056 Pls
2490 3063 Pls
2502 3070 Pls
2514 3077 Pls
2526 3084 Pls
2538 3091 Pls
2550 3098 Pls
2562 3105 Pls
2574 3111 Pls
1908 2712 Pls
1920 2719 Pls
1933 2726 Pls
1945 2733 Pls
1957 2740 Pls
1969 2747 Pls
1981 2754 Pls
1993 2761 Pls
2005 2768 Pls
2017 2775 Pls
2029 2782 Pls
2041 2789 Pls
2053 2796 Pls
2065 2802 Pls
2077 2809 Pls
2089 2816 Pls
2101 2823 Pls
2113 2830 Pls
2125 2837 Pls
2137 2844 Pls
2149 2851 Pls
2161 2858 Pls
2173 2865 Pls
2186 2872 Pls
2198 2879 Pls
2210 2886 Pls
2222 2893 Pls
2234 2899 Pls
2246 2906 Pls
2258 2913 Pls
2270 2920 Pls
2282 2927 Pls
2294 2934 Pls
2306 2941 Pls
2318 2948 Pls
2330 2955 Pls
2342 2962 Pls
2354 2969 Pls
2366 2976 Pls
2378 2983 Pls
2390 2990 Pls
2402 2997 Pls
2414 3003 Pls
2426 3010 Pls
2438 3017 Pls
2451 3024 Pls
2463 3031 Pls
2475 3038 Pls
2487 3045 Pls
2499 3052 Pls
2511 3059 Pls
2523 3066 Pls
2535 3073 Pls
2547 3080 Pls
2559 3087 Pls
2571 3094 Pls
2583 3101 Pls
2595 3107 Pls
1929 2708 Pls
1941 2715 Pls
1953 2722 Pls
1965 2729 Pls
1977 2736 Pls
1990 2743 Pls
2002 2750 Pls
2014 2757 Pls
2026 2764 Pls
2038 2771 Pls
2050 2778 Pls
2062 2785 Pls
2074 2792 Pls
2086 2798 Pls
2098 2805 Pls
2110 2812 Pls
2122 2819 Pls
2134 2826 Pls
2146 2833 Pls
2158 2840 Pls
2170 2847 Pls
2182 2854 Pls
2194 2861 Pls
2206 2868 Pls
2218 2875 Pls
2230 2882 Pls
2243 2889 Pls
2255 2895 Pls
2267 2902 Pls
2279 2909 Pls
2291 2916 Pls
2303 2923 Pls
2315 2930 Pls
2327 2937 Pls
2339 2944 Pls
2351 2951 Pls
2363 2958 Pls
2375 2965 Pls
2387 2972 Pls
2399 2979 Pls
2411 2986 Pls
2423 2993 Pls
2435 2999 Pls
2447 3006 Pls
2459 3013 Pls
2471 3020 Pls
2483 3027 Pls
2495 3034 Pls
2508 3041 Pls
2520 3048 Pls
2532 3055 Pls
2544 3062 Pls
2556 3069 Pls
2568 3076 Pls
2580 3083 Pls
2592 3090 Pls
2604 3097 Pls
2616 3103 Pls
1950 2704 Pls
1962 2711 Pls
1974 2718 Pls
1986 2725 Pls
1998 2732 Pls
2010 2739 Pls
2022 2746 Pls
2034 2753 Pls
2047 2760 Pls
2059 2767 Pls
2071 2774 Pls
2083 2781 Pls
2095 2788 Pls
2107 2794 Pls
2119 2801 Pls
2131 2808 Pls
2143 2815 Pls
2155 2822 Pls
2167 2829 Pls
2179 2836 Pls
2191 2843 Pls
2203 2850 Pls
2215 2857 Pls
2227 2864 Pls
2239 2871 Pls
2251 2878 Pls
2263 2885 Pls
2275 2891 Pls
2287 2898 Pls
2300 2905 Pls
2312 2912 Pls
2324 2919 Pls
2336 2926 Pls
2348 2933 Pls
2360 2940 Pls
2372 2947 Pls
2384 2954 Pls
2396 2961 Pls
2408 2968 Pls
2420 2975 Pls
2432 2982 Pls
2444 2989 Pls
2456 2995 Pls
2468 3002 Pls
2480 3009 Pls
2492 3016 Pls
2504 3023 Pls
2516 3030 Pls
2528 3037 Pls
2540 3044 Pls
2552 3051 Pls
2565 3058 Pls
2577 3065 Pls
2589 3072 Pls
2601 3079 Pls
2613 3086 Pls
2625 3093 Pls
2637 3099 Pls
1971 2700 Pls
1983 2707 Pls
1995 2714 Pls
2007 2721 Pls
2019 2728 Pls
2031 2735 Pls
2043 2742 Pls
2055 2749 Pls
2067 2756 Pls
2079 2763 Pls
2091 2770 Pls
2104 2777 Pls
2116 2784 Pls
2128 2790 Pls
2140 2797 Pls
2152 2804 Pls
2164 2811 Pls
2176 2818 Pls
2188 2825 Pls
2200 2832 Pls
2212 2839 Pls
2224 2846 Pls
2236 2853 Pls
2248 2860 Pls
2260 2867 Pls
2272 2874 Pls
2284 2881 Pls
2296 2887 Pls
2308 2894 Pls
2320 2901 Pls
2332 2908 Pls
2344 2915 Pls
2357 2922 Pls
2369 2929 Pls
2381 2936 Pls
2393 2943 Pls
2405 2950 Pls
2417 2957 Pls
2429 2964 Pls
2441 2971 Pls
2453 2978 Pls
2465 2985 Pls
2477 2991 Pls
2489 2998 Pls
2501 3005 Pls
2513 3012 Pls
2525 3019 Pls
2537 3026 Pls
2549 3033 Pls
2561 3040 Pls
2573 3047 Pls
2585 3054 Pls
2597 3061 Pls
2609 3068 Pls
2622 3075 Pls
2634 3082 Pls
2646 3089 Pls
2658 3095 Pls
1992 2696 Pls
2004 2703 Pls
2016 2710 Pls
2028 2717 Pls
2040 2724 Pls
2052 2731 Pls
2064 2738 Pls
2076 2745 Pls
2088 2752 Pls
2100 2759 Pls
2112 2766 Pls
2124 2773 Pls
2136 2780 Pls
2148 2786 Pls
2161 2793 Pls
2173 2800 Pls
2185 2807 Pls
2197 2814 Pls
2209 2821 Pls
2221 2828 Pls
2233 2835 Pls
2245 2842 Pls
2257 2849 Pls
2269 2856 Pls
2281 2863 Pls
2293 2870 Pls
2305 2877 Pls
2317 2883 Pls
2329 2890 Pls
2341 2897 Pls
2353 2904 Pls
2365 2911 Pls
2377 2918 Pls
2389 2925 Pls
2401 2932 Pls
2414 2939 Pls
2426 2946 Pls
2438 2953 Pls
2450 2960 Pls
2462 2967 Pls
2474 2974 Pls
2486 2981 Pls
2498 2987 Pls
2510 2994 Pls
2522 3001 Pls
2534 3008 Pls
2546 3015 Pls
2558 3022 Pls
2570 3029 Pls
2582 3036 Pls
2594 3043 Pls
2606 3050 Pls
2618 3057 Pls
2630 3064 Pls
2642 3071 Pls
2654 3078 Pls
2666 3084 Pls
2679 3091 Pls
2013 2692 Pls
2025 2699 Pls
2037 2706 Pls
2049 2713 Pls
2061 2720 Pls
2073 2727 Pls
2085 2734 Pls
2097 2741 Pls
2109 2748 Pls
2121 2755 Pls
2133 2762 Pls
2145 2769 Pls
2157 2776 Pls
2169 2782 Pls
2181 2789 Pls
2193 2796 Pls
2206 2803 Pls
2218 2810 Pls
2230 2817 Pls
2242 2824 Pls
2254 2831 Pls
2266 2838 Pls
2278 2845 Pls
2290 2852 Pls
2302 2859 Pls
2314 2866 Pls
2326 2873 Pls
2338 2879 Pls
2350 2886 Pls
2362 2893 Pls
2374 2900 Pls
2386 2907 Pls
2398 2914 Pls
2410 2921 Pls
2422 2928 Pls
2434 2935 Pls
2446 2942 Pls
2458 2949 Pls
2471 2956 Pls
2483 2963 Pls
2495 2970 Pls
2507 2977 Pls
2519 2983 Pls
2531 2990 Pls
2543 2997 Pls
2555 3004 Pls
2567 3011 Pls
2579 3018 Pls
2591 3025 Pls
2603 3032 Pls
2615 3039 Pls
2627 3046 Pls
2639 3053 Pls
2651 3060 Pls
2663 3067 Pls
2675 3074 Pls
2687 3080 Pls
2699 3087 Pls
2046 2695 Pls
2058 2702 Pls
2070 2709 Pls
2082 2716 Pls
2094 2723 Pls
2106 2730 Pls
2118 2737 Pls
2130 2744 Pls
2142 2751 Pls
2154 2758 Pls
2166 2765 Pls
2178 2772 Pls
2190 2778 Pls
2202 2785 Pls
2214 2792 Pls
2226 2799 Pls
2238 2806 Pls
2250 2813 Pls
2263 2820 Pls
2275 2827 Pls
2287 2834 Pls
2299 2841 Pls
2311 2848 Pls
2323 2855 Pls
2335 2862 Pls
2347 2869 Pls
2359 2875 Pls
2371 2882 Pls
2383 2889 Pls
2395 2896 Pls
2407 2903 Pls
2419 2910 Pls
2431 2917 Pls
2443 2924 Pls
2455 2931 Pls
2467 2938 Pls
2479 2945 Pls
2491 2952 Pls
2503 2959 Pls
2515 2966 Pls
2528 2973 Pls
2540 2979 Pls
2552 2986 Pls
2564 2993 Pls
2576 3000 Pls
2588 3007 Pls
2600 3014 Pls
2612 3021 Pls
2624 3028 Pls
2636 3035 Pls
2648 3042 Pls
2660 3049 Pls
2672 3056 Pls
2684 3063 Pls
2696 3070 Pls
2708 3076 Pls
2720 3083 Pls
2067 2691 Pls
2079 2698 Pls
2091 2705 Pls
2103 2712 Pls
2115 2719 Pls
2127 2726 Pls
2139 2733 Pls
2151 2740 Pls
2163 2747 Pls
2175 2754 Pls
2187 2761 Pls
2199 2768 Pls
2211 2774 Pls
2223 2781 Pls
2235 2788 Pls
2247 2795 Pls
2259 2802 Pls
2271 2809 Pls
2283 2816 Pls
2295 2823 Pls
2307 2830 Pls
2320 2837 Pls
2332 2844 Pls
2344 2851 Pls
2356 2858 Pls
2368 2865 Pls
2380 2871 Pls
2392 2878 Pls
2404 2885 Pls
2416 2892 Pls
2428 2899 Pls
2440 2906 Pls
2452 2913 Pls
2464 2920 Pls
2476 2927 Pls
2488 2934 Pls
2500 2941 Pls
2512 2948 Pls
2524 2955 Pls
2536 2962 Pls
2548 2969 Pls
2560 2975 Pls
2572 2982 Pls
2585 2989 Pls
2597 2996 Pls
2609 3003 Pls
2621 3010 Pls
2633 3017 Pls
2645 3024 Pls
2657 3031 Pls
2669 3038 Pls
2681 3045 Pls
2693 3052 Pls
2705 3059 Pls
2717 3066 Pls
2729 3072 Pls
2087 2687 Pls
2099 2694 Pls
2111 2701 Pls
2124 2708 Pls
2136 2715 Pls
2148 2722 Pls
2160 2729 Pls
2172 2736 Pls
2184 2743 Pls
2196 2750 Pls
2208 2757 Pls
2220 2764 Pls
2232 2770 Pls
2244 2777 Pls
2256 2784 Pls
2268 2791 Pls
2280 2798 Pls
2292 2805 Pls
2304 2812 Pls
2316 2819 Pls
2328 2826 Pls
2340 2833 Pls
2352 2840 Pls
2364 2847 Pls
2377 2854 Pls
2389 2861 Pls
2401 2867 Pls
2413 2874 Pls
2425 2881 Pls
2437 2888 Pls
2449 2895 Pls
2461 2902 Pls
2473 2909 Pls
2485 2916 Pls
2497 2923 Pls
2509 2930 Pls
2521 2937 Pls
2533 2944 Pls
2545 2951 Pls
2557 2958 Pls
2569 2965 Pls
2581 2971 Pls
2593 2978 Pls
2605 2985 Pls
2617 2992 Pls
2629 2999 Pls
2642 3006 Pls
2654 3013 Pls
2666 3020 Pls
2678 3027 Pls
2690 3034 Pls
2702 3041 Pls
2714 3048 Pls
2726 3055 Pls
2738 3062 Pls
2750 3068 Pls
2108 2683 Pls
2120 2690 Pls
2132 2697 Pls
2144 2704 Pls
2156 2711 Pls
2168 2718 Pls
2181 2725 Pls
2193 2732 Pls
2205 2739 Pls
2217 2746 Pls
2229 2753 Pls
2241 2760 Pls
2253 2766 Pls
2265 2773 Pls
2277 2780 Pls
2289 2787 Pls
2301 2794 Pls
2313 2801 Pls
2325 2808 Pls
2337 2815 Pls
2349 2822 Pls
2361 2829 Pls
2373 2836 Pls
2385 2843 Pls
2397 2850 Pls
2409 2857 Pls
2421 2863 Pls
2434 2870 Pls
2446 2877 Pls
2458 2884 Pls
2470 2891 Pls
2482 2898 Pls
2494 2905 Pls
2506 2912 Pls
2518 2919 Pls
2530 2926 Pls
2542 2933 Pls
2554 2940 Pls
2566 2947 Pls
2578 2954 Pls
2590 2961 Pls
2602 2967 Pls
2614 2974 Pls
2626 2981 Pls
2638 2988 Pls
2650 2995 Pls
2662 3002 Pls
2674 3009 Pls
2686 3016 Pls
2699 3023 Pls
2711 3030 Pls
2723 3037 Pls
2735 3044 Pls
2747 3051 Pls
2759 3058 Pls
2771 3064 Pls
2129 2679 Pls
2141 2686 Pls
2153 2693 Pls
2165 2700 Pls
2177 2707 Pls
2189 2714 Pls
2201 2721 Pls
2213 2728 Pls
2226 2735 Pls
2238 2742 Pls
2250 2749 Pls
2262 2756 Pls
2274 2762 Pls
2286 2769 Pls
2298 2776 Pls
2310 2783 Pls
2322 2790 Pls
2334 2797 Pls
2346 2804 Pls
2358 2811 Pls
2370 2818 Pls
2382 2825 Pls
2394 2832 Pls
2406 2839 Pls
2418 2846 Pls
2430 2853 Pls
2442 2859 Pls
2454 2866 Pls
2466 2873 Pls
2478 2880 Pls
2491 2887 Pls
2503 2894 Pls
2515 2901 Pls
2527 2908 Pls
2539 2915 Pls
2551 2922 Pls
2563 2929 Pls
2575 2936 Pls
2587 2943 Pls
2599 2950 Pls
2611 2957 Pls
2623 2963 Pls
2635 2970 Pls
2647 2977 Pls
2659 2984 Pls
2671 2991 Pls
2683 2998 Pls
2695 3005 Pls
2707 3012 Pls
2719 3019 Pls
2731 3026 Pls
2743 3033 Pls
2756 3040 Pls
2768 3047 Pls
2780 3054 Pls
2792 3060 Pls
2162 2682 Pls
2174 2689 Pls
2186 2696 Pls
2198 2703 Pls
2210 2710 Pls
2222 2717 Pls
2234 2724 Pls
2246 2731 Pls
2258 2738 Pls
2270 2745 Pls
2283 2752 Pls
2295 2758 Pls
2307 2765 Pls
2319 2772 Pls
2331 2779 Pls
2343 2786 Pls
2355 2793 Pls
2367 2800 Pls
2379 2807 Pls
2391 2814 Pls
2403 2821 Pls
2415 2828 Pls
2427 2835 Pls
2439 2842 Pls
2451 2849 Pls
2463 2855 Pls
2475 2862 Pls
2487 2869 Pls
2499 2876 Pls
2511 2883 Pls
2523 2890 Pls
2535 2897 Pls
2548 2904 Pls
2560 2911 Pls
2572 2918 Pls
2584 2925 Pls
2596 2932 Pls
2608 2939 Pls
2620 2946 Pls
2632 2953 Pls
2644 2959 Pls
2656 2966 Pls
2668 2973 Pls
2680 2980 Pls
2692 2987 Pls
2704 2994 Pls
2716 3001 Pls
2728 3008 Pls
2740 3015 Pls
2752 3022 Pls
2764 3029 Pls
2776 3036 Pls
2788 3043 Pls
2800 3050 Pls
2183 2678 Pls
2195 2685 Pls
2207 2692 Pls
2219 2699 Pls
2231 2706 Pls
2243 2713 Pls
2255 2720 Pls
2267 2727 Pls
2279 2734 Pls
2291 2741 Pls
2303 2748 Pls
2315 2754 Pls
2327 2761 Pls
2340 2768 Pls
2352 2775 Pls
2364 2782 Pls
2376 2789 Pls
2388 2796 Pls
2400 2803 Pls
2412 2810 Pls
2424 2817 Pls
2436 2824 Pls
2448 2831 Pls
2460 2838 Pls
2472 2845 Pls
2484 2851 Pls
2496 2858 Pls
2508 2865 Pls
2520 2872 Pls
2532 2879 Pls
2544 2886 Pls
2556 2893 Pls
2568 2900 Pls
2580 2907 Pls
2592 2914 Pls
2605 2921 Pls
2617 2928 Pls
2629 2935 Pls
2641 2942 Pls
2653 2949 Pls
2665 2955 Pls
2677 2962 Pls
2689 2969 Pls
2701 2976 Pls
2713 2983 Pls
2725 2990 Pls
2737 2997 Pls
2749 3004 Pls
2761 3011 Pls
2773 3018 Pls
2785 3025 Pls
2797 3032 Pls
2809 3039 Pls
2821 3046 Pls
2216 2681 Pls
2228 2688 Pls
2240 2695 Pls
2252 2702 Pls
2264 2709 Pls
2276 2716 Pls
2288 2723 Pls
2300 2730 Pls
2312 2737 Pls
2324 2743 Pls
2336 2750 Pls
2348 2757 Pls
2360 2764 Pls
2372 2771 Pls
2384 2778 Pls
2397 2785 Pls
2409 2792 Pls
2421 2799 Pls
2433 2806 Pls
2445 2813 Pls
2457 2820 Pls
2469 2827 Pls
2481 2834 Pls
2493 2841 Pls
2505 2847 Pls
2517 2854 Pls
2529 2861 Pls
2541 2868 Pls
2553 2875 Pls
2565 2882 Pls
2577 2889 Pls
2589 2896 Pls
2601 2903 Pls
2613 2910 Pls
2625 2917 Pls
2637 2924 Pls
2649 2931 Pls
2662 2938 Pls
2674 2945 Pls
2686 2951 Pls
2698 2958 Pls
2710 2965 Pls
2722 2972 Pls
2734 2979 Pls
2746 2986 Pls
2758 2993 Pls
2770 3000 Pls
2782 3007 Pls
2794 3014 Pls
2806 3021 Pls
2818 3028 Pls
2830 3035 Pls
2842 3042 Pls
2237 2677 Pls
2249 2684 Pls
2261 2691 Pls
2273 2698 Pls
2285 2705 Pls
2297 2712 Pls
2309 2719 Pls
2321 2726 Pls
2333 2733 Pls
2345 2739 Pls
2357 2746 Pls
2369 2753 Pls
2381 2760 Pls
2393 2767 Pls
2405 2774 Pls
2417 2781 Pls
2429 2788 Pls
2441 2795 Pls
2454 2802 Pls
2466 2809 Pls
2478 2816 Pls
2490 2823 Pls
2502 2830 Pls
2514 2837 Pls
2526 2843 Pls
2538 2850 Pls
2550 2857 Pls
2562 2864 Pls
2574 2871 Pls
2586 2878 Pls
2598 2885 Pls
2610 2892 Pls
2622 2899 Pls
2634 2906 Pls
2646 2913 Pls
2658 2920 Pls
2670 2927 Pls
2682 2934 Pls
2694 2941 Pls
2706 2947 Pls
2719 2954 Pls
2731 2961 Pls
2743 2968 Pls
2755 2975 Pls
2767 2982 Pls
2779 2989 Pls
2791 2996 Pls
2803 3003 Pls
2815 3010 Pls
2827 3017 Pls
2839 3024 Pls
2851 3031 Pls
2270 2680 Pls
2282 2687 Pls
2294 2694 Pls
2306 2701 Pls
2318 2708 Pls
2330 2715 Pls
2342 2722 Pls
2354 2729 Pls
2366 2735 Pls
2378 2742 Pls
2390 2749 Pls
2402 2756 Pls
2414 2763 Pls
2426 2770 Pls
2438 2777 Pls
2450 2784 Pls
2462 2791 Pls
2474 2798 Pls
2486 2805 Pls
2498 2812 Pls
2511 2819 Pls
2523 2826 Pls
2535 2833 Pls
2547 2839 Pls
2559 2846 Pls
2571 2853 Pls
2583 2860 Pls
2595 2867 Pls
2607 2874 Pls
2619 2881 Pls
2631 2888 Pls
2643 2895 Pls
2655 2902 Pls
2667 2909 Pls
2679 2916 Pls
2691 2923 Pls
2703 2930 Pls
2715 2937 Pls
2727 2943 Pls
2739 2950 Pls
2751 2957 Pls
2763 2964 Pls
2776 2971 Pls
2788 2978 Pls
2800 2985 Pls
2812 2992 Pls
2824 2999 Pls
2836 3006 Pls
2848 3013 Pls
2860 3020 Pls
2872 3027 Pls
2290 2676 Pls
2303 2683 Pls
2315 2690 Pls
2327 2697 Pls
2339 2704 Pls
2351 2711 Pls
2363 2718 Pls
2375 2725 Pls
2387 2731 Pls
2399 2738 Pls
2411 2745 Pls
2423 2752 Pls
2435 2759 Pls
2447 2766 Pls
2459 2773 Pls
2471 2780 Pls
2483 2787 Pls
2495 2794 Pls
2507 2801 Pls
2519 2808 Pls
2531 2815 Pls
2543 2822 Pls
2555 2829 Pls
2568 2835 Pls
2580 2842 Pls
2592 2849 Pls
2604 2856 Pls
2616 2863 Pls
2628 2870 Pls
2640 2877 Pls
2652 2884 Pls
2664 2891 Pls
2676 2898 Pls
2688 2905 Pls
2700 2912 Pls
2712 2919 Pls
2724 2926 Pls
2736 2933 Pls
2748 2939 Pls
2760 2946 Pls
2772 2953 Pls
2784 2960 Pls
2796 2967 Pls
2808 2974 Pls
2820 2981 Pls
2833 2988 Pls
2845 2995 Pls
2857 3002 Pls
2869 3009 Pls
2881 3016 Pls
2323 2679 Pls
2335 2686 Pls
2347 2693 Pls
2360 2700 Pls
2372 2707 Pls
2384 2714 Pls
2396 2721 Pls
2408 2727 Pls
2420 2734 Pls
2432 2741 Pls
2444 2748 Pls
2456 2755 Pls
2468 2762 Pls
2480 2769 Pls
2492 2776 Pls
2504 2783 Pls
2516 2790 Pls
2528 2797 Pls
2540 2804 Pls
2552 2811 Pls
2564 2818 Pls
2576 2825 Pls
2588 2831 Pls
2600 2838 Pls
2612 2845 Pls
2625 2852 Pls
2637 2859 Pls
2649 2866 Pls
2661 2873 Pls
2673 2880 Pls
2685 2887 Pls
2697 2894 Pls
2709 2901 Pls
2721 2908 Pls
2733 2915 Pls
2745 2922 Pls
2757 2929 Pls
2769 2935 Pls
2781 2942 Pls
2793 2949 Pls
2805 2956 Pls
2817 2963 Pls
2829 2970 Pls
2841 2977 Pls
2853 2984 Pls
2865 2991 Pls
2878 2998 Pls
2890 3005 Pls
2344 2675 Pls
2356 2682 Pls
2368 2689 Pls
2380 2696 Pls
2392 2703 Pls
2404 2710 Pls
2417 2717 Pls
2429 2723 Pls
2441 2730 Pls
2453 2737 Pls
2465 2744 Pls
2477 2751 Pls
2489 2758 Pls
2501 2765 Pls
2513 2772 Pls
2525 2779 Pls
2537 2786 Pls
2549 2793 Pls
2561 2800 Pls
2573 2807 Pls
2585 2814 Pls
2597 2821 Pls
2609 2827 Pls
2621 2834 Pls
2633 2841 Pls
2645 2848 Pls
2657 2855 Pls
2669 2862 Pls
2682 2869 Pls
2694 2876 Pls
2706 2883 Pls
2718 2890 Pls
2730 2897 Pls
2742 2904 Pls
2754 2911 Pls
2766 2918 Pls
2778 2925 Pls
2790 2931 Pls
2802 2938 Pls
2814 2945 Pls
2826 2952 Pls
2838 2959 Pls
2850 2966 Pls
2862 2973 Pls
2874 2980 Pls
2886 2987 Pls
2898 2994 Pls
2910 3001 Pls
2377 2678 Pls
2389 2685 Pls
2401 2692 Pls
2413 2699 Pls
2425 2706 Pls
2437 2713 Pls
2449 2719 Pls
2461 2726 Pls
2474 2733 Pls
2486 2740 Pls
2498 2747 Pls
2510 2754 Pls
2522 2761 Pls
2534 2768 Pls
2546 2775 Pls
2558 2782 Pls
2570 2789 Pls
2582 2796 Pls
2594 2803 Pls
2606 2810 Pls
2618 2817 Pls
2630 2823 Pls
2642 2830 Pls
2654 2837 Pls
2666 2844 Pls
2678 2851 Pls
2690 2858 Pls
2702 2865 Pls
2714 2872 Pls
2726 2879 Pls
2739 2886 Pls
2751 2893 Pls
2763 2900 Pls
2775 2907 Pls
2787 2914 Pls
2799 2920 Pls
2811 2927 Pls
2823 2934 Pls
2835 2941 Pls
2847 2948 Pls
2859 2955 Pls
2871 2962 Pls
2883 2969 Pls
2895 2976 Pls
2907 2983 Pls
2919 2990 Pls
2410 2681 Pls
2422 2688 Pls
2434 2695 Pls
2446 2702 Pls
2458 2709 Pls
2470 2715 Pls
2482 2722 Pls
2494 2729 Pls
2506 2736 Pls
2518 2743 Pls
2531 2750 Pls
2543 2757 Pls
2555 2764 Pls
2567 2771 Pls
2579 2778 Pls
2591 2785 Pls
2603 2792 Pls
2615 2799 Pls
2627 2806 Pls
2639 2813 Pls
2651 2819 Pls
2663 2826 Pls
2675 2833 Pls
2687 2840 Pls
2699 2847 Pls
2711 2854 Pls
2723 2861 Pls
2735 2868 Pls
2747 2875 Pls
2759 2882 Pls
2771 2889 Pls
2783 2896 Pls
2796 2903 Pls
2808 2910 Pls
2820 2916 Pls
2832 2923 Pls
2844 2930 Pls
2856 2937 Pls
2868 2944 Pls
2880 2951 Pls
2892 2958 Pls
2904 2965 Pls
2916 2972 Pls
2928 2979 Pls
2443 2684 Pls
2455 2691 Pls
2467 2698 Pls
2479 2705 Pls
2491 2711 Pls
2503 2718 Pls
2515 2725 Pls
2527 2732 Pls
2539 2739 Pls
2551 2746 Pls
2563 2753 Pls
2575 2760 Pls
2588 2767 Pls
2600 2774 Pls
2612 2781 Pls
2624 2788 Pls
2636 2795 Pls
2648 2802 Pls
2660 2809 Pls
2672 2815 Pls
2684 2822 Pls
2696 2829 Pls
2708 2836 Pls
2720 2843 Pls
2732 2850 Pls
2744 2857 Pls
2756 2864 Pls
2768 2871 Pls
2780 2878 Pls
2792 2885 Pls
2804 2892 Pls
2816 2899 Pls
2828 2906 Pls
2840 2912 Pls
2853 2919 Pls
2865 2926 Pls
2877 2933 Pls
2889 2940 Pls
2901 2947 Pls
2913 2954 Pls
2925 2961 Pls
2937 2968 Pls
2476 2687 Pls
2488 2694 Pls
2500 2701 Pls
2512 2707 Pls
2524 2714 Pls
2536 2721 Pls
2548 2728 Pls
2560 2735 Pls
2572 2742 Pls
2584 2749 Pls
2596 2756 Pls
2608 2763 Pls
2620 2770 Pls
2632 2777 Pls
2645 2784 Pls
2657 2791 Pls
2669 2798 Pls
2681 2805 Pls
2693 2811 Pls
2705 2818 Pls
2717 2825 Pls
2729 2832 Pls
2741 2839 Pls
2753 2846 Pls
2765 2853 Pls
2777 2860 Pls
2789 2867 Pls
2801 2874 Pls
2813 2881 Pls
2825 2888 Pls
2837 2895 Pls
2849 2902 Pls
2861 2908 Pls
2873 2915 Pls
2885 2922 Pls
2898 2929 Pls
2910 2936 Pls
2922 2943 Pls
2934 2950 Pls
2946 2957 Pls
2509 2690 Pls
2521 2697 Pls
2533 2703 Pls
2545 2710 Pls
2557 2717 Pls
2569 2724 Pls
2581 2731 Pls
2593 2738 Pls
2605 2745 Pls
2617 2752 Pls
2629 2759 Pls
2641 2766 Pls
2653 2773 Pls
2665 2780 Pls
2677 2787 Pls
2689 2794 Pls
2702 2801 Pls
2714 2807 Pls
2726 2814 Pls
2738 2821 Pls
2750 2828 Pls
2762 2835 Pls
2774 2842 Pls
2786 2849 Pls
2798 2856 Pls
2810 2863 Pls
2822 2870 Pls
2834 2877 Pls
2846 2884 Pls
2858 2891 Pls
2870 2898 Pls
2882 2904 Pls
2894 2911 Pls
2906 2918 Pls
2918 2925 Pls
2930 2932 Pls
2942 2939 Pls
2955 2946 Pls
2542 2693 Pls
2554 2699 Pls
2566 2706 Pls
2578 2713 Pls
2590 2720 Pls
2602 2727 Pls
2614 2734 Pls
2626 2741 Pls
2638 2748 Pls
2650 2755 Pls
2662 2762 Pls
2674 2769 Pls
2686 2776 Pls
2698 2783 Pls
2710 2790 Pls
2722 2797 Pls
2734 2803 Pls
2746 2810 Pls
2759 2817 Pls
2771 2824 Pls
2783 2831 Pls
2795 2838 Pls
2807 2845 Pls
2819 2852 Pls
2831 2859 Pls
2843 2866 Pls
2855 2873 Pls
2867 2880 Pls
2879 2887 Pls
2891 2894 Pls
2903 2900 Pls
2915 2907 Pls
2927 2914 Pls
2939 2921 Pls
2951 2928 Pls
2963 2935 Pls
2575 2695 Pls
2587 2702 Pls
2599 2709 Pls
2611 2716 Pls
2623 2723 Pls
2635 2730 Pls
2647 2737 Pls
2659 2744 Pls
2671 2751 Pls
2683 2758 Pls
2695 2765 Pls
2707 2772 Pls
2719 2779 Pls
2731 2786 Pls
2743 2793 Pls
2755 2799 Pls
2767 2806 Pls
2779 2813 Pls
2791 2820 Pls
2803 2827 Pls
2816 2834 Pls
2828 2841 Pls
2840 2848 Pls
2852 2855 Pls
2864 2862 Pls
2876 2869 Pls
2888 2876 Pls
2900 2883 Pls
2912 2890 Pls
2924 2896 Pls
2936 2903 Pls
2948 2910 Pls
2960 2917 Pls
2972 2924 Pls
2620 2705 Pls
2632 2712 Pls
2644 2719 Pls
2656 2726 Pls
2668 2733 Pls
2680 2740 Pls
2692 2747 Pls
2704 2754 Pls
2716 2761 Pls
2728 2768 Pls
2740 2775 Pls
2752 2782 Pls
2764 2789 Pls
2776 2795 Pls
2788 2802 Pls
2800 2809 Pls
2812 2816 Pls
2824 2823 Pls
2836 2830 Pls
2848 2837 Pls
2860 2844 Pls
2873 2851 Pls
2885 2858 Pls
2897 2865 Pls
2909 2872 Pls
2921 2879 Pls
2933 2886 Pls
2945 2892 Pls
2957 2899 Pls
2969 2906 Pls
2665 2715 Pls
2677 2722 Pls
2689 2729 Pls
2701 2736 Pls
2713 2743 Pls
2725 2750 Pls
2737 2757 Pls
2749 2764 Pls
2761 2771 Pls
2773 2778 Pls
2785 2785 Pls
2797 2791 Pls
2809 2798 Pls
2821 2805 Pls
2833 2812 Pls
2845 2819 Pls
2857 2826 Pls
2869 2833 Pls
2881 2840 Pls
2893 2847 Pls
2905 2854 Pls
2918 2861 Pls
2930 2868 Pls
2942 2875 Pls
2954 2882 Pls
2966 2888 Pls
2709 2725 Pls
2722 2732 Pls
2734 2739 Pls
2746 2746 Pls
2758 2753 Pls
2770 2760 Pls
2782 2767 Pls
2794 2774 Pls
2806 2781 Pls
2818 2787 Pls
2830 2794 Pls
2842 2801 Pls
2854 2808 Pls
2866 2815 Pls
2878 2822 Pls
2890 2829 Pls
2902 2836 Pls
2914 2843 Pls
2926 2850 Pls
2938 2857 Pls
2950 2864 Pls
2962 2871 Pls
2754 2735 Pls
2766 2742 Pls
2779 2749 Pls
2791 2756 Pls
2803 2763 Pls
2815 2770 Pls
2827 2777 Pls
2839 2783 Pls
2851 2790 Pls
2863 2797 Pls
2875 2804 Pls
2887 2811 Pls
2899 2818 Pls
2911 2825 Pls
2923 2832 Pls
2935 2839 Pls
2947 2846 Pls
2959 2853 Pls
2836 2766 Pls
2848 2773 Pls
2860 2779 Pls
2872 2786 Pls
2884 2793 Pls
2896 2800 Pls
2908 2807 Pls
2920 2814 Pls
4279 3228 Pls
4291 3235 Pls
4303 3242 Pls
4315 3249 Pls
4327 3256 Pls
4339 3263 Pls
4351 3270 Pls
4363 3277 Pls
4240 3189 Pls
4252 3196 Pls
4264 3203 Pls
4276 3210 Pls
4288 3217 Pls
4300 3224 Pls
4312 3231 Pls
4324 3238 Pls
4336 3245 Pls
4348 3252 Pls
4360 3259 Pls
4372 3266 Pls
4384 3273 Pls
4396 3279 Pls
4408 3286 Pls
4420 3293 Pls
4433 3300 Pls
4445 3307 Pls
4237 3172 Pls
4249 3178 Pls
4261 3185 Pls
4273 3192 Pls
4285 3199 Pls
4297 3206 Pls
4309 3213 Pls
4321 3220 Pls
4333 3227 Pls
4345 3234 Pls
4357 3241 Pls
4369 3248 Pls
4381 3255 Pls
4393 3262 Pls
4405 3269 Pls
4417 3275 Pls
4429 3282 Pls
4441 3289 Pls
4453 3296 Pls
4465 3303 Pls
4477 3310 Pls
4490 3317 Pls
4233 3154 Pls
4245 3161 Pls
4257 3168 Pls
4269 3174 Pls
4281 3181 Pls
4294 3188 Pls
4306 3195 Pls
4318 3202 Pls
4330 3209 Pls
4342 3216 Pls
4354 3223 Pls
4366 3230 Pls
4378 3237 Pls
4390 3244 Pls
4402 3251 Pls
4414 3258 Pls
4426 3265 Pls
4438 3271 Pls
4450 3278 Pls
4462 3285 Pls
4474 3292 Pls
4486 3299 Pls
4498 3306 Pls
4510 3313 Pls
4522 3320 Pls
4534 3327 Pls
4230 3136 Pls
4242 3143 Pls
4254 3150 Pls
4266 3157 Pls
4278 3164 Pls
4290 3170 Pls
4302 3177 Pls
4314 3184 Pls
4326 3191 Pls
4339 3198 Pls
4351 3205 Pls
4363 3212 Pls
4375 3219 Pls
4387 3226 Pls
4399 3233 Pls
4411 3240 Pls
4423 3247 Pls
4435 3254 Pls
4447 3261 Pls
4459 3267 Pls
4471 3274 Pls
4483 3281 Pls
4495 3288 Pls
4507 3295 Pls
4519 3302 Pls
4531 3309 Pls
4543 3316 Pls
4555 3323 Pls
4567 3330 Pls
4579 3337 Pls
4227 3118 Pls
4239 3125 Pls
4251 3132 Pls
4263 3139 Pls
4275 3146 Pls
4287 3153 Pls
4299 3160 Pls
4311 3166 Pls
4323 3173 Pls
4335 3180 Pls
4347 3187 Pls
4359 3194 Pls
4371 3201 Pls
4383 3208 Pls
4396 3215 Pls
4408 3222 Pls
4420 3229 Pls
4432 3236 Pls
4444 3243 Pls
4456 3250 Pls
4468 3257 Pls
4480 3263 Pls
4492 3270 Pls
4504 3277 Pls
4516 3284 Pls
4528 3291 Pls
4540 3298 Pls
4552 3305 Pls
4564 3312 Pls
4576 3319 Pls
4588 3326 Pls
4600 3333 Pls
4612 3340 Pls
4624 3347 Pls
4236 3107 Pls
4248 3114 Pls
4260 3121 Pls
4272 3128 Pls
4284 3135 Pls
4296 3142 Pls
4308 3149 Pls
4320 3156 Pls
4332 3162 Pls
4344 3169 Pls
4356 3176 Pls
4368 3183 Pls
4380 3190 Pls
4392 3197 Pls
4404 3204 Pls
4416 3211 Pls
4428 3218 Pls
4440 3225 Pls
4453 3232 Pls
4465 3239 Pls
4477 3246 Pls
4489 3253 Pls
4501 3259 Pls
4513 3266 Pls
4525 3273 Pls
4537 3280 Pls
4549 3287 Pls
4561 3294 Pls
4573 3301 Pls
4585 3308 Pls
4597 3315 Pls
4609 3322 Pls
4621 3329 Pls
4633 3336 Pls
4645 3343 Pls
4657 3350 Pls
4244 3096 Pls
4257 3103 Pls
4269 3110 Pls
4281 3117 Pls
4293 3124 Pls
4305 3131 Pls
4317 3138 Pls
4329 3145 Pls
4341 3152 Pls
4353 3158 Pls
4365 3165 Pls
4377 3172 Pls
4389 3179 Pls
4401 3186 Pls
4413 3193 Pls
4425 3200 Pls
4437 3207 Pls
4449 3214 Pls
4461 3221 Pls
4473 3228 Pls
4485 3235 Pls
4497 3242 Pls
4510 3249 Pls
4522 3255 Pls
4534 3262 Pls
4546 3269 Pls
4558 3276 Pls
4570 3283 Pls
4582 3290 Pls
4594 3297 Pls
4606 3304 Pls
4618 3311 Pls
4630 3318 Pls
4642 3325 Pls
4654 3332 Pls
4666 3339 Pls
4678 3346 Pls
4690 3353 Pls
4253 3085 Pls
4265 3092 Pls
4277 3099 Pls
4289 3106 Pls
4301 3113 Pls
4314 3120 Pls
4326 3127 Pls
4338 3134 Pls
4350 3141 Pls
4362 3148 Pls
4374 3154 Pls
4386 3161 Pls
4398 3168 Pls
4410 3175 Pls
4422 3182 Pls
4434 3189 Pls
4446 3196 Pls
4458 3203 Pls
4470 3210 Pls
4482 3217 Pls
4494 3224 Pls
4506 3231 Pls
4518 3238 Pls
4530 3245 Pls
4542 3251 Pls
4554 3258 Pls
4567 3265 Pls
4579 3272 Pls
4591 3279 Pls
4603 3286 Pls
4615 3293 Pls
4627 3300 Pls
4639 3307 Pls
4651 3314 Pls
4663 3321 Pls
4675 3328 Pls
4687 3335 Pls
4699 3342 Pls
4711 3349 Pls
4723 3355 Pls
4262 3074 Pls
4274 3081 Pls
4286 3088 Pls
4298 3095 Pls
4310 3102 Pls
4322 3109 Pls
4334 3116 Pls
4346 3123 Pls
4359 3130 Pls
4371 3137 Pls
4383 3144 Pls
4395 3150 Pls
4407 3157 Pls
4419 3164 Pls
4431 3171 Pls
4443 3178 Pls
4455 3185 Pls
4467 3192 Pls
4479 3199 Pls
4491 3206 Pls
4503 3213 Pls
4515 3220 Pls
4527 3227 Pls
4539 3234 Pls
4551 3241 Pls
4563 3247 Pls
4575 3254 Pls
4587 3261 Pls
4599 3268 Pls
4611 3275 Pls
4624 3282 Pls
4636 3289 Pls
4648 3296 Pls
4660 3303 Pls
4672 3310 Pls
4684 3317 Pls
4696 3324 Pls
4708 3331 Pls
4720 3338 Pls
4732 3345 Pls
4744 3351 Pls
4756 3358 Pls
4271 3063 Pls
4283 3070 Pls
4295 3077 Pls
4307 3084 Pls
4319 3091 Pls
4331 3098 Pls
4343 3105 Pls
4355 3112 Pls
4367 3119 Pls
4379 3126 Pls
4391 3133 Pls
4403 3140 Pls
4416 3146 Pls
4428 3153 Pls
4440 3160 Pls
4452 3167 Pls
4464 3174 Pls
4476 3181 Pls
4488 3188 Pls
4500 3195 Pls
4512 3202 Pls
4524 3209 Pls
4536 3216 Pls
4548 3223 Pls
4560 3230 Pls
4572 3237 Pls
4584 3243 Pls
4596 3250 Pls
4608 3257 Pls
4620 3264 Pls
4632 3271 Pls
4644 3278 Pls
4656 3285 Pls
4668 3292 Pls
4681 3299 Pls
4693 3306 Pls
4705 3313 Pls
4717 3320 Pls
4729 3327 Pls
4741 3334 Pls
4753 3341 Pls
4765 3347 Pls
4777 3354 Pls
4789 3361 Pls
4280 3052 Pls
4292 3059 Pls
4304 3066 Pls
4316 3073 Pls
4328 3080 Pls
4340 3087 Pls
4352 3094 Pls
4364 3101 Pls
4376 3108 Pls
4388 3115 Pls
4400 3122 Pls
4412 3129 Pls
4424 3136 Pls
4436 3142 Pls
4448 3149 Pls
4460 3156 Pls
4473 3163 Pls
4485 3170 Pls
4497 3177 Pls
4509 3184 Pls
4521 3191 Pls
4533 3198 Pls
4545 3205 Pls
4557 3212 Pls
4569 3219 Pls
4581 3226 Pls
4593 3233 Pls
4605 3239 Pls
4617 3246 Pls
4629 3253 Pls
4641 3260 Pls
4653 3267 Pls
4665 3274 Pls
4677 3281 Pls
4689 3288 Pls
4701 3295 Pls
4713 3302 Pls
4725 3309 Pls
4738 3316 Pls
4750 3323 Pls
4762 3330 Pls
4774 3337 Pls
4786 3343 Pls
4798 3350 Pls
4810 3357 Pls
4822 3364 Pls
4289 3041 Pls
4301 3048 Pls
4313 3055 Pls
4325 3062 Pls
4337 3069 Pls
4349 3076 Pls
4361 3083 Pls
4373 3090 Pls
4385 3097 Pls
4397 3104 Pls
4409 3111 Pls
4421 3118 Pls
4433 3125 Pls
4445 3132 Pls
4457 3138 Pls
4469 3145 Pls
4481 3152 Pls
4493 3159 Pls
4505 3166 Pls
4517 3173 Pls
4530 3180 Pls
4542 3187 Pls
4554 3194 Pls
4566 3201 Pls
4578 3208 Pls
4590 3215 Pls
4602 3222 Pls
4614 3229 Pls
4626 3235 Pls
4638 3242 Pls
4650 3249 Pls
4662 3256 Pls
4674 3263 Pls
4686 3270 Pls
4698 3277 Pls
4710 3284 Pls
4722 3291 Pls
4734 3298 Pls
4746 3305 Pls
4758 3312 Pls
4770 3319 Pls
4782 3326 Pls
4795 3333 Pls
4807 3339 Pls
4819 3346 Pls
4831 3353 Pls
4843 3360 Pls
4855 3367 Pls
4309 3037 Pls
4321 3044 Pls
4334 3051 Pls
4346 3058 Pls
4358 3065 Pls
4370 3072 Pls
4382 3079 Pls
4394 3086 Pls
4406 3093 Pls
4418 3100 Pls
4430 3107 Pls
4442 3114 Pls
4454 3121 Pls
4466 3128 Pls
4478 3134 Pls
4490 3141 Pls
4502 3148 Pls
4514 3155 Pls
4526 3162 Pls
4538 3169 Pls
4550 3176 Pls
4562 3183 Pls
4574 3190 Pls
4587 3197 Pls
4599 3204 Pls
4611 3211 Pls
4623 3218 Pls
4635 3225 Pls
4647 3231 Pls
4659 3238 Pls
4671 3245 Pls
4683 3252 Pls
4695 3259 Pls
4707 3266 Pls
4719 3273 Pls
4731 3280 Pls
4743 3287 Pls
4755 3294 Pls
4767 3301 Pls
4779 3308 Pls
4791 3315 Pls
4803 3322 Pls
4815 3329 Pls
4827 3335 Pls
4839 3342 Pls
4852 3349 Pls
4864 3356 Pls
4876 3363 Pls
4318 3026 Pls
4330 3033 Pls
4342 3040 Pls
4354 3047 Pls
4366 3054 Pls
4379 3061 Pls
4391 3068 Pls
4403 3075 Pls
4415 3082 Pls
4427 3089 Pls
4439 3096 Pls
4451 3103 Pls
4463 3110 Pls
4475 3117 Pls
4487 3124 Pls
4499 3130 Pls
4511 3137 Pls
4523 3144 Pls
4535 3151 Pls
4547 3158 Pls
4559 3165 Pls
4571 3172 Pls
4583 3179 Pls
4595 3186 Pls
4607 3193 Pls
4619 3200 Pls
4631 3207 Pls
4644 3214 Pls
4656 3221 Pls
4668 3227 Pls
4680 3234 Pls
4692 3241 Pls
4704 3248 Pls
4716 3255 Pls
4728 3262 Pls
4740 3269 Pls
4752 3276 Pls
4764 3283 Pls
4776 3290 Pls
4788 3297 Pls
4800 3304 Pls
4812 3311 Pls
4824 3318 Pls
4836 3325 Pls
4848 3331 Pls
4860 3338 Pls
4872 3345 Pls
4884 3352 Pls
4896 3359 Pls
4909 3366 Pls
4327 3016 Pls
4339 3022 Pls
4351 3029 Pls
4363 3036 Pls
4375 3043 Pls
4387 3050 Pls
4399 3057 Pls
4411 3064 Pls
4423 3071 Pls
4436 3078 Pls
4448 3085 Pls
4460 3092 Pls
4472 3099 Pls
4484 3106 Pls
4496 3113 Pls
4508 3120 Pls
4520 3126 Pls
4532 3133 Pls
4544 3140 Pls
4556 3147 Pls
4568 3154 Pls
4580 3161 Pls
4592 3168 Pls
4604 3175 Pls
4616 3182 Pls
4628 3189 Pls
4640 3196 Pls
4652 3203 Pls
4664 3210 Pls
4676 3217 Pls
4688 3223 Pls
4701 3230 Pls
4713 3237 Pls
4725 3244 Pls
4737 3251 Pls
4749 3258 Pls
4761 3265 Pls
4773 3272 Pls
4785 3279 Pls
4797 3286 Pls
4809 3293 Pls
4821 3300 Pls
4833 3307 Pls
4845 3314 Pls
4857 3321 Pls
4869 3327 Pls
4881 3334 Pls
4893 3341 Pls
4905 3348 Pls
4917 3355 Pls
4929 3362 Pls
4348 3012 Pls
4360 3018 Pls
4372 3025 Pls
4384 3032 Pls
4396 3039 Pls
4408 3046 Pls
4420 3053 Pls
4432 3060 Pls
4444 3067 Pls
4456 3074 Pls
4468 3081 Pls
4480 3088 Pls
4493 3095 Pls
4505 3102 Pls
4517 3109 Pls
4529 3115 Pls
4541 3122 Pls
4553 3129 Pls
4565 3136 Pls
4577 3143 Pls
4589 3150 Pls
4601 3157 Pls
4613 3164 Pls
4625 3171 Pls
4637 3178 Pls
4649 3185 Pls
4661 3192 Pls
4673 3199 Pls
4685 3206 Pls
4697 3213 Pls
4709 3219 Pls
4721 3226 Pls
4733 3233 Pls
4745 3240 Pls
4758 3247 Pls
4770 3254 Pls
4782 3261 Pls
4794 3268 Pls
4806 3275 Pls
4818 3282 Pls
4830 3289 Pls
4842 3296 Pls
4854 3303 Pls
4866 3310 Pls
4878 3317 Pls
4890 3323 Pls
4902 3330 Pls
4914 3337 Pls
4926 3344 Pls
4938 3351 Pls
4950 3358 Pls
4962 3365 Pls
4357 3001 Pls
4369 3008 Pls
4381 3014 Pls
4393 3021 Pls
4405 3028 Pls
4417 3035 Pls
4429 3042 Pls
4441 3049 Pls
4453 3056 Pls
4465 3063 Pls
4477 3070 Pls
4489 3077 Pls
4501 3084 Pls
4513 3091 Pls
4525 3098 Pls
4537 3105 Pls
4550 3111 Pls
4562 3118 Pls
4574 3125 Pls
4586 3132 Pls
4598 3139 Pls
4610 3146 Pls
4622 3153 Pls
4634 3160 Pls
4646 3167 Pls
4658 3174 Pls
4670 3181 Pls
4682 3188 Pls
4694 3195 Pls
4706 3202 Pls
4718 3209 Pls
4730 3215 Pls
4742 3222 Pls
4754 3229 Pls
4766 3236 Pls
4778 3243 Pls
4790 3250 Pls
4802 3257 Pls
4815 3264 Pls
4827 3271 Pls
4839 3278 Pls
4851 3285 Pls
4863 3292 Pls
4875 3299 Pls
4887 3306 Pls
4899 3313 Pls
4911 3319 Pls
4923 3326 Pls
4935 3333 Pls
4947 3340 Pls
4959 3347 Pls
4971 3354 Pls
4983 3361 Pls
4378 2997 Pls
4390 3004 Pls
4402 3010 Pls
4414 3017 Pls
4426 3024 Pls
4438 3031 Pls
4450 3038 Pls
4462 3045 Pls
4474 3052 Pls
4486 3059 Pls
4498 3066 Pls
4510 3073 Pls
4522 3080 Pls
4534 3087 Pls
4546 3094 Pls
4558 3101 Pls
4570 3107 Pls
4582 3114 Pls
4594 3121 Pls
4607 3128 Pls
4619 3135 Pls
4631 3142 Pls
4643 3149 Pls
4655 3156 Pls
4667 3163 Pls
4679 3170 Pls
4691 3177 Pls
4703 3184 Pls
4715 3191 Pls
4727 3198 Pls
4739 3205 Pls
4751 3211 Pls
4763 3218 Pls
4775 3225 Pls
4787 3232 Pls
4799 3239 Pls
4811 3246 Pls
4823 3253 Pls
4835 3260 Pls
4847 3267 Pls
4859 3274 Pls
4872 3281 Pls
4884 3288 Pls
4896 3295 Pls
4908 3302 Pls
4920 3309 Pls
4932 3315 Pls
4944 3322 Pls
4956 3329 Pls
4968 3336 Pls
4980 3343 Pls
4992 3350 Pls
5004 3357 Pls
5016 3364 Pls
4399 2993 Pls
4411 3000 Pls
4423 3006 Pls
4435 3013 Pls
4447 3020 Pls
4459 3027 Pls
4471 3034 Pls
4483 3041 Pls
4495 3048 Pls
4507 3055 Pls
4519 3062 Pls
4531 3069 Pls
4543 3076 Pls
4555 3083 Pls
4567 3090 Pls
4579 3097 Pls
4591 3103 Pls
4603 3110 Pls
4615 3117 Pls
4627 3124 Pls
4639 3131 Pls
4651 3138 Pls
4664 3145 Pls
4676 3152 Pls
4688 3159 Pls
4700 3166 Pls
4712 3173 Pls
4724 3180 Pls
4736 3187 Pls
4748 3194 Pls
4760 3201 Pls
4772 3207 Pls
4784 3214 Pls
4796 3221 Pls
4808 3228 Pls
4820 3235 Pls
4832 3242 Pls
4844 3249 Pls
4856 3256 Pls
4868 3263 Pls
4880 3270 Pls
4892 3277 Pls
4904 3284 Pls
4916 3291 Pls
4929 3298 Pls
4941 3305 Pls
4953 3311 Pls
4965 3318 Pls
4977 3325 Pls
4989 3332 Pls
5001 3339 Pls
5013 3346 Pls
5025 3353 Pls
5037 3360 Pls
4407 2982 Pls
4419 2989 Pls
4431 2996 Pls
4443 3002 Pls
4456 3009 Pls
4468 3016 Pls
4480 3023 Pls
4492 3030 Pls
4504 3037 Pls
4516 3044 Pls
4528 3051 Pls
4540 3058 Pls
4552 3065 Pls
4564 3072 Pls
4576 3079 Pls
4588 3086 Pls
4600 3093 Pls
4612 3099 Pls
4624 3106 Pls
4636 3113 Pls
4648 3120 Pls
4660 3127 Pls
4672 3134 Pls
4684 3141 Pls
4696 3148 Pls
4708 3155 Pls
4721 3162 Pls
4733 3169 Pls
4745 3176 Pls
4757 3183 Pls
4769 3190 Pls
4781 3197 Pls
4793 3203 Pls
4805 3210 Pls
4817 3217 Pls
4829 3224 Pls
4841 3231 Pls
4853 3238 Pls
4865 3245 Pls
4877 3252 Pls
4889 3259 Pls
4901 3266 Pls
4913 3273 Pls
4925 3280 Pls
4937 3287 Pls
4949 3294 Pls
4961 3301 Pls
4973 3307 Pls
4986 3314 Pls
4998 3321 Pls
5010 3328 Pls
5022 3335 Pls
5034 3342 Pls
5046 3349 Pls
5058 3356 Pls
5070 3363 Pls
4428 2978 Pls
4440 2985 Pls
4452 2992 Pls
4464 2998 Pls
4476 3005 Pls
4488 3012 Pls
4500 3019 Pls
4513 3026 Pls
4525 3033 Pls
4537 3040 Pls
4549 3047 Pls
4561 3054 Pls
4573 3061 Pls
4585 3068 Pls
4597 3075 Pls
4609 3082 Pls
4621 3089 Pls
4633 3095 Pls
4645 3102 Pls
4657 3109 Pls
4669 3116 Pls
4681 3123 Pls
4693 3130 Pls
4705 3137 Pls
4717 3144 Pls
4729 3151 Pls
4741 3158 Pls
4753 3165 Pls
4765 3172 Pls
4778 3179 Pls
4790 3186 Pls
4802 3193 Pls
4814 3199 Pls
4826 3206 Pls
4838 3213 Pls
4850 3220 Pls
4862 3227 Pls
4874 3234 Pls
4886 3241 Pls
4898 3248 Pls
4910 3255 Pls
4922 3262 Pls
4934 3269 Pls
4946 3276 Pls
4958 3283 Pls
4970 3290 Pls
4982 3297 Pls
4994 3303 Pls
5006 3310 Pls
5018 3317 Pls
5031 3324 Pls
5043 3331 Pls
5055 3338 Pls
5067 3345 Pls
5079 3352 Pls
5091 3359 Pls
4449 2974 Pls
4461 2981 Pls
4473 2988 Pls
4485 2994 Pls
4497 3001 Pls
4509 3008 Pls
4521 3015 Pls
4533 3022 Pls
4545 3029 Pls
4557 3036 Pls
4570 3043 Pls
4582 3050 Pls
4594 3057 Pls
4606 3064 Pls
4618 3071 Pls
4630 3078 Pls
4642 3085 Pls
4654 3091 Pls
4666 3098 Pls
4678 3105 Pls
4690 3112 Pls
4702 3119 Pls
4714 3126 Pls
4726 3133 Pls
4738 3140 Pls
4750 3147 Pls
4762 3154 Pls
4774 3161 Pls
4786 3168 Pls
4798 3175 Pls
4810 3182 Pls
4822 3189 Pls
4835 3195 Pls
4847 3202 Pls
4859 3209 Pls
4871 3216 Pls
4883 3223 Pls
4895 3230 Pls
4907 3237 Pls
4919 3244 Pls
4931 3251 Pls
4943 3258 Pls
4955 3265 Pls
4967 3272 Pls
4979 3279 Pls
4991 3286 Pls
5003 3292 Pls
5015 3299 Pls
5027 3306 Pls
5039 3313 Pls
5051 3320 Pls
5063 3327 Pls
5075 3334 Pls
5088 3341 Pls
5100 3348 Pls
5112 3355 Pls
4470 2970 Pls
4482 2977 Pls
4494 2984 Pls
4506 2990 Pls
4518 2997 Pls
4530 3004 Pls
4542 3011 Pls
4554 3018 Pls
4566 3025 Pls
4578 3032 Pls
4590 3039 Pls
4602 3046 Pls
4614 3053 Pls
4627 3060 Pls
4639 3067 Pls
4651 3074 Pls
4663 3081 Pls
4675 3087 Pls
4687 3094 Pls
4699 3101 Pls
4711 3108 Pls
4723 3115 Pls
4735 3122 Pls
4747 3129 Pls
4759 3136 Pls
4771 3143 Pls
4783 3150 Pls
4795 3157 Pls
4807 3164 Pls
4819 3171 Pls
4831 3178 Pls
4843 3185 Pls
4855 3191 Pls
4867 3198 Pls
4879 3205 Pls
4892 3212 Pls
4904 3219 Pls
4916 3226 Pls
4928 3233 Pls
4940 3240 Pls
4952 3247 Pls
4964 3254 Pls
4976 3261 Pls
4988 3268 Pls
5000 3275 Pls
5012 3282 Pls
5024 3288 Pls
5036 3295 Pls
5048 3302 Pls
5060 3309 Pls
5072 3316 Pls
5084 3323 Pls
5096 3330 Pls
5108 3337 Pls
5120 3344 Pls
5132 3351 Pls
4479 2959 Pls
4491 2966 Pls
4503 2973 Pls
4515 2980 Pls
4527 2986 Pls
4539 2993 Pls
4551 3000 Pls
4563 3007 Pls
4575 3014 Pls
4587 3021 Pls
4599 3028 Pls
4611 3035 Pls
4623 3042 Pls
4635 3049 Pls
4647 3056 Pls
4659 3063 Pls
4671 3070 Pls
4684 3077 Pls
4696 3083 Pls
4708 3090 Pls
4720 3097 Pls
4732 3104 Pls
4744 3111 Pls
4756 3118 Pls
4768 3125 Pls
4780 3132 Pls
4792 3139 Pls
4804 3146 Pls
4816 3153 Pls
4828 3160 Pls
4840 3167 Pls
4852 3174 Pls
4864 3181 Pls
4876 3187 Pls
4888 3194 Pls
4900 3201 Pls
4912 3208 Pls
4924 3215 Pls
4936 3222 Pls
4949 3229 Pls
4961 3236 Pls
4973 3243 Pls
4985 3250 Pls
4997 3257 Pls
5009 3264 Pls
5021 3271 Pls
5033 3278 Pls
5045 3284 Pls
5057 3291 Pls
5069 3298 Pls
5081 3305 Pls
5093 3312 Pls
5105 3319 Pls
5117 3326 Pls
5129 3333 Pls
5141 3340 Pls
5153 3347 Pls
4500 2955 Pls
4512 2962 Pls
4524 2969 Pls
4536 2976 Pls
4548 2982 Pls
4560 2989 Pls
4572 2996 Pls
4584 3003 Pls
4596 3010 Pls
4608 3017 Pls
4620 3024 Pls
4632 3031 Pls
4644 3038 Pls
4656 3045 Pls
4668 3052 Pls
4680 3059 Pls
4692 3066 Pls
4704 3073 Pls
4716 3079 Pls
4728 3086 Pls
4741 3093 Pls
4753 3100 Pls
4765 3107 Pls
4777 3114 Pls
4789 3121 Pls
4801 3128 Pls
4813 3135 Pls
4825 3142 Pls
4837 3149 Pls
4849 3156 Pls
4861 3163 Pls
4873 3170 Pls
4885 3177 Pls
4897 3183 Pls
4909 3190 Pls
4921 3197 Pls
4933 3204 Pls
4945 3211 Pls
4957 3218 Pls
4969 3225 Pls
4981 3232 Pls
4993 3239 Pls
5006 3246 Pls
5018 3253 Pls
5030 3260 Pls
5042 3267 Pls
5054 3274 Pls
5066 3280 Pls
5078 3287 Pls
5090 3294 Pls
5102 3301 Pls
5114 3308 Pls
5126 3315 Pls
5138 3322 Pls
5150 3329 Pls
5162 3336 Pls
5174 3343 Pls
5186 3350 Pls
4520 2951 Pls
4533 2958 Pls
4545 2965 Pls
4557 2972 Pls
4569 2978 Pls
4581 2985 Pls
4593 2992 Pls
4605 2999 Pls
4617 3006 Pls
4629 3013 Pls
4641 3020 Pls
4653 3027 Pls
4665 3034 Pls
4677 3041 Pls
4689 3048 Pls
4701 3055 Pls
4713 3062 Pls
4725 3069 Pls
4737 3075 Pls
4749 3082 Pls
4761 3089 Pls
4773 3096 Pls
4785 3103 Pls
4798 3110 Pls
4810 3117 Pls
4822 3124 Pls
4834 3131 Pls
4846 3138 Pls
4858 3145 Pls
4870 3152 Pls
4882 3159 Pls
4894 3166 Pls
4906 3173 Pls
4918 3179 Pls
4930 3186 Pls
4942 3193 Pls
4954 3200 Pls
4966 3207 Pls
4978 3214 Pls
4990 3221 Pls
5002 3228 Pls
5014 3235 Pls
5026 3242 Pls
5038 3249 Pls
5051 3256 Pls
5063 3263 Pls
5075 3270 Pls
5087 3276 Pls
5099 3283 Pls
5111 3290 Pls
5123 3297 Pls
5135 3304 Pls
5147 3311 Pls
5159 3318 Pls
5171 3325 Pls
5183 3332 Pls
5195 3339 Pls
5207 3346 Pls
4541 2947 Pls
4553 2954 Pls
4565 2961 Pls
4577 2968 Pls
4590 2974 Pls
4602 2981 Pls
4614 2988 Pls
4626 2995 Pls
4638 3002 Pls
4650 3009 Pls
4662 3016 Pls
4674 3023 Pls
4686 3030 Pls
4698 3037 Pls
4710 3044 Pls
4722 3051 Pls
4734 3058 Pls
4746 3065 Pls
4758 3071 Pls
4770 3078 Pls
4782 3085 Pls
4794 3092 Pls
4806 3099 Pls
4818 3106 Pls
4830 3113 Pls
4842 3120 Pls
4855 3127 Pls
4867 3134 Pls
4879 3141 Pls
4891 3148 Pls
4903 3155 Pls
4915 3162 Pls
4927 3169 Pls
4939 3175 Pls
4951 3182 Pls
4963 3189 Pls
4975 3196 Pls
4987 3203 Pls
4999 3210 Pls
5011 3217 Pls
5023 3224 Pls
5035 3231 Pls
5047 3238 Pls
5059 3245 Pls
5071 3252 Pls
5083 3259 Pls
5095 3266 Pls
5108 3272 Pls
5120 3279 Pls
5132 3286 Pls
5144 3293 Pls
5156 3300 Pls
5168 3307 Pls
5180 3314 Pls
5192 3321 Pls
5204 3328 Pls
5216 3335 Pls
5228 3342 Pls
4562 2943 Pls
4574 2950 Pls
4586 2957 Pls
4598 2964 Pls
4610 2970 Pls
4622 2977 Pls
4634 2984 Pls
4647 2991 Pls
4659 2998 Pls
4671 3005 Pls
4683 3012 Pls
4695 3019 Pls
4707 3026 Pls
4719 3033 Pls
4731 3040 Pls
4743 3047 Pls
4755 3054 Pls
4767 3061 Pls
4779 3067 Pls
4791 3074 Pls
4803 3081 Pls
4815 3088 Pls
4827 3095 Pls
4839 3102 Pls
4851 3109 Pls
4863 3116 Pls
4875 3123 Pls
4887 3130 Pls
4899 3137 Pls
4912 3144 Pls
4924 3151 Pls
4936 3158 Pls
4948 3165 Pls
4960 3171 Pls
4972 3178 Pls
4984 3185 Pls
4996 3192 Pls
5008 3199 Pls
5020 3206 Pls
5032 3213 Pls
5044 3220 Pls
5056 3227 Pls
5068 3234 Pls
5080 3241 Pls
5092 3248 Pls
5104 3255 Pls
5116 3262 Pls
5128 3268 Pls
5140 3275 Pls
5152 3282 Pls
5165 3289 Pls
5177 3296 Pls
5189 3303 Pls
5201 3310 Pls
5213 3317 Pls
5225 3324 Pls
5237 3331 Pls
5249 3338 Pls
4583 2939 Pls
4595 2946 Pls
4607 2953 Pls
4619 2960 Pls
4631 2966 Pls
4643 2973 Pls
4655 2980 Pls
4667 2987 Pls
4679 2994 Pls
4691 3001 Pls
4704 3008 Pls
4716 3015 Pls
4728 3022 Pls
4740 3029 Pls
4752 3036 Pls
4764 3043 Pls
4776 3050 Pls
4788 3057 Pls
4800 3063 Pls
4812 3070 Pls
4824 3077 Pls
4836 3084 Pls
4848 3091 Pls
4860 3098 Pls
4872 3105 Pls
4884 3112 Pls
4896 3119 Pls
4908 3126 Pls
4920 3133 Pls
4932 3140 Pls
4944 3147 Pls
4956 3154 Pls
4969 3161 Pls
4981 3167 Pls
4993 3174 Pls
5005 3181 Pls
5017 3188 Pls
5029 3195 Pls
5041 3202 Pls
5053 3209 Pls
5065 3216 Pls
5077 3223 Pls
5089 3230 Pls
5101 3237 Pls
5113 3244 Pls
5125 3251 Pls
5137 3258 Pls
5149 3264 Pls
5161 3271 Pls
5173 3278 Pls
5185 3285 Pls
5197 3292 Pls
5209 3299 Pls
5222 3306 Pls
5234 3313 Pls
5246 3320 Pls
5258 3327 Pls
5270 3334 Pls
4604 2935 Pls
4616 2942 Pls
4628 2949 Pls
4640 2956 Pls
4652 2962 Pls
4664 2969 Pls
4676 2976 Pls
4688 2983 Pls
4700 2990 Pls
4712 2997 Pls
4724 3004 Pls
4736 3011 Pls
4748 3018 Pls
4761 3025 Pls
4773 3032 Pls
4785 3039 Pls
4797 3046 Pls
4809 3053 Pls
4821 3059 Pls
4833 3066 Pls
4845 3073 Pls
4857 3080 Pls
4869 3087 Pls
4881 3094 Pls
4893 3101 Pls
4905 3108 Pls
4917 3115 Pls
4929 3122 Pls
4941 3129 Pls
4953 3136 Pls
4965 3143 Pls
4977 3150 Pls
4989 3157 Pls
5001 3163 Pls
5013 3170 Pls
5026 3177 Pls
5038 3184 Pls
5050 3191 Pls
5062 3198 Pls
5074 3205 Pls
5086 3212 Pls
5098 3219 Pls
5110 3226 Pls
5122 3233 Pls
5134 3240 Pls
5146 3247 Pls
5158 3254 Pls
5170 3260 Pls
5182 3267 Pls
5194 3274 Pls
5206 3281 Pls
5218 3288 Pls
5230 3295 Pls
5242 3302 Pls
5254 3309 Pls
5266 3316 Pls
5279 3323 Pls
5291 3330 Pls
4625 2931 Pls
4637 2938 Pls
4649 2945 Pls
4661 2951 Pls
4673 2958 Pls
4685 2965 Pls
4697 2972 Pls
4709 2979 Pls
4721 2986 Pls
4733 2993 Pls
4745 3000 Pls
4757 3007 Pls
4769 3014 Pls
4781 3021 Pls
4793 3028 Pls
4805 3035 Pls
4818 3042 Pls
4830 3049 Pls
4842 3055 Pls
4854 3062 Pls
4866 3069 Pls
4878 3076 Pls
4890 3083 Pls
4902 3090 Pls
4914 3097 Pls
4926 3104 Pls
4938 3111 Pls
4950 3118 Pls
4962 3125 Pls
4974 3132 Pls
4986 3139 Pls
4998 3146 Pls
5010 3153 Pls
5022 3159 Pls
5034 3166 Pls
5046 3173 Pls
5058 3180 Pls
5071 3187 Pls
5083 3194 Pls
5095 3201 Pls
5107 3208 Pls
5119 3215 Pls
5131 3222 Pls
5143 3229 Pls
5155 3236 Pls
5167 3243 Pls
5179 3250 Pls
5191 3256 Pls
5203 3263 Pls
5215 3270 Pls
5227 3277 Pls
5239 3284 Pls
5251 3291 Pls
5263 3298 Pls
5275 3305 Pls
5287 3312 Pls
5299 3319 Pls
5311 3326 Pls
4646 2927 Pls
4658 2934 Pls
4670 2941 Pls
4682 2947 Pls
4694 2954 Pls
4706 2961 Pls
4718 2968 Pls
4730 2975 Pls
4742 2982 Pls
4754 2989 Pls
4766 2996 Pls
4778 3003 Pls
4790 3010 Pls
4802 3017 Pls
4814 3024 Pls
4826 3031 Pls
4838 3038 Pls
4850 3045 Pls
4862 3051 Pls
4875 3058 Pls
4887 3065 Pls
4899 3072 Pls
4911 3079 Pls
4923 3086 Pls
4935 3093 Pls
4947 3100 Pls
4959 3107 Pls
4971 3114 Pls
4983 3121 Pls
4995 3128 Pls
5007 3135 Pls
5019 3142 Pls
5031 3149 Pls
5043 3155 Pls
5055 3162 Pls
5067 3169 Pls
5079 3176 Pls
5091 3183 Pls
5103 3190 Pls
5115 3197 Pls
5128 3204 Pls
5140 3211 Pls
5152 3218 Pls
5164 3225 Pls
5176 3232 Pls
5188 3239 Pls
5200 3246 Pls
5212 3252 Pls
5224 3259 Pls
5236 3266 Pls
5248 3273 Pls
5260 3280 Pls
5272 3287 Pls
5284 3294 Pls
5296 3301 Pls
5308 3308 Pls
5320 3315 Pls
5332 3322 Pls
4667 2923 Pls
4679 2930 Pls
4691 2937 Pls
4703 2943 Pls
4715 2950 Pls
4727 2957 Pls
4739 2964 Pls
4751 2971 Pls
4763 2978 Pls
4775 2985 Pls
4787 2992 Pls
4799 2999 Pls
4811 3006 Pls
4823 3013 Pls
4835 3020 Pls
4847 3027 Pls
4859 3034 Pls
4871 3041 Pls
4883 3047 Pls
4895 3054 Pls
4907 3061 Pls
4919 3068 Pls
4932 3075 Pls
4944 3082 Pls
4956 3089 Pls
4968 3096 Pls
4980 3103 Pls
4992 3110 Pls
5004 3117 Pls
5016 3124 Pls
5028 3131 Pls
5040 3138 Pls
5052 3145 Pls
5064 3151 Pls
5076 3158 Pls
5088 3165 Pls
5100 3172 Pls
5112 3179 Pls
5124 3186 Pls
5136 3193 Pls
5148 3200 Pls
5160 3207 Pls
5172 3214 Pls
5185 3221 Pls
5197 3228 Pls
5209 3235 Pls
5221 3242 Pls
5233 3248 Pls
5245 3255 Pls
5257 3262 Pls
5269 3269 Pls
5281 3276 Pls
5293 3283 Pls
5305 3290 Pls
5317 3297 Pls
5329 3304 Pls
5341 3311 Pls
4699 2926 Pls
4711 2933 Pls
4724 2939 Pls
4736 2946 Pls
4748 2953 Pls
4760 2960 Pls
4772 2967 Pls
4784 2974 Pls
4796 2981 Pls
4808 2988 Pls
4820 2995 Pls
4832 3002 Pls
4844 3009 Pls
4856 3016 Pls
4868 3023 Pls
4880 3030 Pls
4892 3037 Pls
4904 3043 Pls
4916 3050 Pls
4928 3057 Pls
4940 3064 Pls
4952 3071 Pls
4964 3078 Pls
4976 3085 Pls
4989 3092 Pls
5001 3099 Pls
5013 3106 Pls
5025 3113 Pls
5037 3120 Pls
5049 3127 Pls
5061 3134 Pls
5073 3141 Pls
5085 3147 Pls
5097 3154 Pls
5109 3161 Pls
5121 3168 Pls
5133 3175 Pls
5145 3182 Pls
5157 3189 Pls
5169 3196 Pls
5181 3203 Pls
5193 3210 Pls
5205 3217 Pls
5217 3224 Pls
5229 3231 Pls
5242 3238 Pls
5254 3244 Pls
5266 3251 Pls
5278 3258 Pls
5290 3265 Pls
5302 3272 Pls
5314 3279 Pls
5326 3286 Pls
5338 3293 Pls
5350 3300 Pls
5362 3307 Pls
4720 2922 Pls
4732 2929 Pls
4744 2935 Pls
4756 2942 Pls
4768 2949 Pls
4781 2956 Pls
4793 2963 Pls
4805 2970 Pls
4817 2977 Pls
4829 2984 Pls
4841 2991 Pls
4853 2998 Pls
4865 3005 Pls
4877 3012 Pls
4889 3019 Pls
4901 3026 Pls
4913 3033 Pls
4925 3039 Pls
4937 3046 Pls
4949 3053 Pls
4961 3060 Pls
4973 3067 Pls
4985 3074 Pls
4997 3081 Pls
5009 3088 Pls
5021 3095 Pls
5033 3102 Pls
5046 3109 Pls
5058 3116 Pls
5070 3123 Pls
5082 3130 Pls
5094 3137 Pls
5106 3143 Pls
5118 3150 Pls
5130 3157 Pls
5142 3164 Pls
5154 3171 Pls
5166 3178 Pls
5178 3185 Pls
5190 3192 Pls
5202 3199 Pls
5214 3206 Pls
5226 3213 Pls
5238 3220 Pls
5250 3227 Pls
5262 3234 Pls
5274 3240 Pls
5286 3247 Pls
5299 3254 Pls
5311 3261 Pls
5323 3268 Pls
5335 3275 Pls
5347 3282 Pls
5359 3289 Pls
5371 3296 Pls
5383 3303 Pls
4741 2918 Pls
4753 2925 Pls
4765 2931 Pls
4777 2938 Pls
4789 2945 Pls
4801 2952 Pls
4813 2959 Pls
4825 2966 Pls
4838 2973 Pls
4850 2980 Pls
4862 2987 Pls
4874 2994 Pls
4886 3001 Pls
4898 3008 Pls
4910 3015 Pls
4922 3022 Pls
4934 3029 Pls
4946 3035 Pls
4958 3042 Pls
4970 3049 Pls
4982 3056 Pls
4994 3063 Pls
5006 3070 Pls
5018 3077 Pls
5030 3084 Pls
5042 3091 Pls
5054 3098 Pls
5066 3105 Pls
5078 3112 Pls
5091 3119 Pls
5103 3126 Pls
5115 3133 Pls
5127 3139 Pls
5139 3146 Pls
5151 3153 Pls
5163 3160 Pls
5175 3167 Pls
5187 3174 Pls
5199 3181 Pls
5211 3188 Pls
5223 3195 Pls
5235 3202 Pls
5247 3209 Pls
5259 3216 Pls
5271 3223 Pls
5283 3230 Pls
5295 3236 Pls
5307 3243 Pls
5319 3250 Pls
5331 3257 Pls
5343 3264 Pls
5356 3271 Pls
5368 3278 Pls
5380 3285 Pls
5392 3292 Pls
5404 3299 Pls
4762 2914 Pls
4774 2921 Pls
4786 2927 Pls
4798 2934 Pls
4810 2941 Pls
4822 2948 Pls
4834 2955 Pls
4846 2962 Pls
4858 2969 Pls
4870 2976 Pls
4882 2983 Pls
4895 2990 Pls
4907 2997 Pls
4919 3004 Pls
4931 3011 Pls
4943 3018 Pls
4955 3025 Pls
4967 3031 Pls
4979 3038 Pls
4991 3045 Pls
5003 3052 Pls
5015 3059 Pls
5027 3066 Pls
5039 3073 Pls
5051 3080 Pls
5063 3087 Pls
5075 3094 Pls
5087 3101 Pls
5099 3108 Pls
5111 3115 Pls
5123 3122 Pls
5135 3128 Pls
5148 3135 Pls
5160 3142 Pls
5172 3149 Pls
5184 3156 Pls
5196 3163 Pls
5208 3170 Pls
5220 3177 Pls
5232 3184 Pls
5244 3191 Pls
5256 3198 Pls
5268 3205 Pls
5280 3212 Pls
5292 3219 Pls
5304 3226 Pls
5316 3232 Pls
5328 3239 Pls
5340 3246 Pls
5352 3253 Pls
5364 3260 Pls
5376 3267 Pls
5388 3274 Pls
5400 3281 Pls
5413 3288 Pls
5425 3295 Pls
4795 2917 Pls
4807 2923 Pls
4819 2930 Pls
4831 2937 Pls
4843 2944 Pls
4855 2951 Pls
4867 2958 Pls
4879 2965 Pls
4891 2972 Pls
4903 2979 Pls
4915 2986 Pls
4927 2993 Pls
4939 3000 Pls
4952 3007 Pls
4964 3014 Pls
4976 3021 Pls
4988 3027 Pls
5000 3034 Pls
5012 3041 Pls
5024 3048 Pls
5036 3055 Pls
5048 3062 Pls
5060 3069 Pls
5072 3076 Pls
5084 3083 Pls
5096 3090 Pls
5108 3097 Pls
5120 3104 Pls
5132 3111 Pls
5144 3118 Pls
5156 3124 Pls
5168 3131 Pls
5180 3138 Pls
5192 3145 Pls
5205 3152 Pls
5217 3159 Pls
5229 3166 Pls
5241 3173 Pls
5253 3180 Pls
5265 3187 Pls
5277 3194 Pls
5289 3201 Pls
5301 3208 Pls
5313 3215 Pls
5325 3222 Pls
5337 3228 Pls
5349 3235 Pls
5361 3242 Pls
5373 3249 Pls
5385 3256 Pls
5397 3263 Pls
5409 3270 Pls
5421 3277 Pls
5433 3284 Pls
4816 2913 Pls
4828 2919 Pls
4840 2926 Pls
4852 2933 Pls
4864 2940 Pls
4876 2947 Pls
4888 2954 Pls
4900 2961 Pls
4912 2968 Pls
4924 2975 Pls
4936 2982 Pls
4948 2989 Pls
4960 2996 Pls
4972 3003 Pls
4984 3010 Pls
4996 3017 Pls
5009 3023 Pls
5021 3030 Pls
5033 3037 Pls
5045 3044 Pls
5057 3051 Pls
5069 3058 Pls
5081 3065 Pls
5093 3072 Pls
5105 3079 Pls
5117 3086 Pls
5129 3093 Pls
5141 3100 Pls
5153 3107 Pls
5165 3114 Pls
5177 3120 Pls
5189 3127 Pls
5201 3134 Pls
5213 3141 Pls
5225 3148 Pls
5237 3155 Pls
5249 3162 Pls
5262 3169 Pls
5274 3176 Pls
5286 3183 Pls
5298 3190 Pls
5310 3197 Pls
5322 3204 Pls
5334 3211 Pls
5346 3218 Pls
5358 3224 Pls
5370 3231 Pls
5382 3238 Pls
5394 3245 Pls
5406 3252 Pls
5418 3259 Pls
5430 3266 Pls
5442 3273 Pls
5454 3280 Pls
4837 2909 Pls
4849 2915 Pls
4861 2922 Pls
4873 2929 Pls
4885 2936 Pls
4897 2943 Pls
4909 2950 Pls
4921 2957 Pls
4933 2964 Pls
4945 2971 Pls
4957 2978 Pls
4969 2985 Pls
4981 2992 Pls
4993 2999 Pls
5005 3006 Pls
5017 3013 Pls
5029 3019 Pls
5041 3026 Pls
5053 3033 Pls
5066 3040 Pls
5078 3047 Pls
5090 3054 Pls
5102 3061 Pls
5114 3068 Pls
5126 3075 Pls
5138 3082 Pls
5150 3089 Pls
5162 3096 Pls
5174 3103 Pls
5186 3110 Pls
5198 3116 Pls
5210 3123 Pls
5222 3130 Pls
5234 3137 Pls
5246 3144 Pls
5258 3151 Pls
5270 3158 Pls
5282 3165 Pls
5294 3172 Pls
5306 3179 Pls
5319 3186 Pls
5331 3193 Pls
5343 3200 Pls
5355 3207 Pls
5367 3214 Pls
5379 3220 Pls
5391 3227 Pls
5403 3234 Pls
5415 3241 Pls
5427 3248 Pls
5439 3255 Pls
5451 3262 Pls
5463 3269 Pls
4870 2911 Pls
4882 2918 Pls
4894 2925 Pls
4906 2932 Pls
4918 2939 Pls
4930 2946 Pls
4942 2953 Pls
4954 2960 Pls
4966 2967 Pls
4978 2974 Pls
4990 2981 Pls
5002 2988 Pls
5014 2995 Pls
5026 3002 Pls
5038 3009 Pls
5050 3015 Pls
5062 3022 Pls
5074 3029 Pls
5086 3036 Pls
5098 3043 Pls
5111 3050 Pls
5123 3057 Pls
5135 3064 Pls
5147 3071 Pls
5159 3078 Pls
5171 3085 Pls
5183 3092 Pls
5195 3099 Pls
5207 3106 Pls
5219 3112 Pls
5231 3119 Pls
5243 3126 Pls
5255 3133 Pls
5267 3140 Pls
5279 3147 Pls
5291 3154 Pls
5303 3161 Pls
5315 3168 Pls
5327 3175 Pls
5339 3182 Pls
5351 3189 Pls
5363 3196 Pls
5376 3203 Pls
5388 3210 Pls
5400 3216 Pls
5412 3223 Pls
5424 3230 Pls
5436 3237 Pls
5448 3244 Pls
5460 3251 Pls
5472 3258 Pls
5484 3265 Pls
4890 2907 Pls
4902 2914 Pls
4915 2921 Pls
4927 2928 Pls
4939 2935 Pls
4951 2942 Pls
4963 2949 Pls
4975 2956 Pls
4987 2963 Pls
4999 2970 Pls
5011 2977 Pls
5023 2984 Pls
5035 2991 Pls
5047 2998 Pls
5059 3005 Pls
5071 3011 Pls
5083 3018 Pls
5095 3025 Pls
5107 3032 Pls
5119 3039 Pls
5131 3046 Pls
5143 3053 Pls
5155 3060 Pls
5168 3067 Pls
5180 3074 Pls
5192 3081 Pls
5204 3088 Pls
5216 3095 Pls
5228 3102 Pls
5240 3108 Pls
5252 3115 Pls
5264 3122 Pls
5276 3129 Pls
5288 3136 Pls
5300 3143 Pls
5312 3150 Pls
5324 3157 Pls
5336 3164 Pls
5348 3171 Pls
5360 3178 Pls
5372 3185 Pls
5384 3192 Pls
5396 3199 Pls
5408 3206 Pls
5420 3212 Pls
5433 3219 Pls
5445 3226 Pls
5457 3233 Pls
5469 3240 Pls
5481 3247 Pls
5493 3254 Pls
4923 2910 Pls
4935 2917 Pls
4947 2924 Pls
4959 2931 Pls
4972 2938 Pls
4984 2945 Pls
4996 2952 Pls
5008 2959 Pls
5020 2966 Pls
5032 2973 Pls
5044 2980 Pls
5056 2987 Pls
5068 2994 Pls
5080 3001 Pls
5092 3007 Pls
5104 3014 Pls
5116 3021 Pls
5128 3028 Pls
5140 3035 Pls
5152 3042 Pls
5164 3049 Pls
5176 3056 Pls
5188 3063 Pls
5200 3070 Pls
5212 3077 Pls
5225 3084 Pls
5237 3091 Pls
5249 3098 Pls
5261 3104 Pls
5273 3111 Pls
5285 3118 Pls
5297 3125 Pls
5309 3132 Pls
5321 3139 Pls
5333 3146 Pls
5345 3153 Pls
5357 3160 Pls
5369 3167 Pls
5381 3174 Pls
5393 3181 Pls
5405 3188 Pls
5417 3195 Pls
5429 3202 Pls
5441 3208 Pls
5453 3215 Pls
5465 3222 Pls
5477 3229 Pls
5490 3236 Pls
5502 3243 Pls
5514 3250 Pls
4956 2913 Pls
4968 2920 Pls
4980 2927 Pls
4992 2934 Pls
5004 2941 Pls
5016 2948 Pls
5029 2955 Pls
5041 2962 Pls
5053 2969 Pls
5065 2976 Pls
5077 2983 Pls
5089 2990 Pls
5101 2997 Pls
5113 3003 Pls
5125 3010 Pls
5137 3017 Pls
5149 3024 Pls
5161 3031 Pls
5173 3038 Pls
5185 3045 Pls
5197 3052 Pls
5209 3059 Pls
5221 3066 Pls
5233 3073 Pls
5245 3080 Pls
5257 3087 Pls
5269 3094 Pls
5282 3100 Pls
5294 3107 Pls
5306 3114 Pls
5318 3121 Pls
5330 3128 Pls
5342 3135 Pls
5354 3142 Pls
5366 3149 Pls
5378 3156 Pls
5390 3163 Pls
5402 3170 Pls
5414 3177 Pls
5426 3184 Pls
5438 3191 Pls
5450 3198 Pls
5462 3204 Pls
5474 3211 Pls
5486 3218 Pls
5498 3225 Pls
5510 3232 Pls
5522 3239 Pls
4977 2909 Pls
4989 2916 Pls
5001 2923 Pls
5013 2930 Pls
5025 2937 Pls
5037 2944 Pls
5049 2951 Pls
5061 2958 Pls
5073 2965 Pls
5086 2972 Pls
5098 2979 Pls
5110 2986 Pls
5122 2993 Pls
5134 2999 Pls
5146 3006 Pls
5158 3013 Pls
5170 3020 Pls
5182 3027 Pls
5194 3034 Pls
5206 3041 Pls
5218 3048 Pls
5230 3055 Pls
5242 3062 Pls
5254 3069 Pls
5266 3076 Pls
5278 3083 Pls
5290 3090 Pls
5302 3096 Pls
5314 3103 Pls
5326 3110 Pls
5339 3117 Pls
5351 3124 Pls
5363 3131 Pls
5375 3138 Pls
5387 3145 Pls
5399 3152 Pls
5411 3159 Pls
5423 3166 Pls
5435 3173 Pls
5447 3180 Pls
5459 3187 Pls
5471 3194 Pls
5483 3200 Pls
5495 3207 Pls
5507 3214 Pls
5519 3221 Pls
5531 3228 Pls
5543 3235 Pls
5010 2912 Pls
5022 2919 Pls
5034 2926 Pls
5046 2933 Pls
5058 2940 Pls
5070 2947 Pls
5082 2954 Pls
5094 2961 Pls
5106 2968 Pls
5118 2975 Pls
5131 2982 Pls
5143 2989 Pls
5155 2995 Pls
5167 3002 Pls
5179 3009 Pls
5191 3016 Pls
5203 3023 Pls
5215 3030 Pls
5227 3037 Pls
5239 3044 Pls
5251 3051 Pls
5263 3058 Pls
5275 3065 Pls
5287 3072 Pls
5299 3079 Pls
5311 3086 Pls
5323 3092 Pls
5335 3099 Pls
5347 3106 Pls
5359 3113 Pls
5371 3120 Pls
5383 3127 Pls
5396 3134 Pls
5408 3141 Pls
5420 3148 Pls
5432 3155 Pls
5444 3162 Pls
5456 3169 Pls
5468 3176 Pls
5480 3183 Pls
5492 3190 Pls
5504 3196 Pls
5516 3203 Pls
5528 3210 Pls
5540 3217 Pls
5552 3224 Pls
5043 2915 Pls
5055 2922 Pls
5067 2929 Pls
5079 2936 Pls
5091 2943 Pls
5103 2950 Pls
5115 2957 Pls
5127 2964 Pls
5139 2971 Pls
5151 2978 Pls
5163 2985 Pls
5175 2991 Pls
5188 2998 Pls
5200 3005 Pls
5212 3012 Pls
5224 3019 Pls
5236 3026 Pls
5248 3033 Pls
5260 3040 Pls
5272 3047 Pls
5284 3054 Pls
5296 3061 Pls
5308 3068 Pls
5320 3075 Pls
5332 3082 Pls
5344 3088 Pls
5356 3095 Pls
5368 3102 Pls
5380 3109 Pls
5392 3116 Pls
5404 3123 Pls
5416 3130 Pls
5428 3137 Pls
5440 3144 Pls
5453 3151 Pls
5465 3158 Pls
5477 3165 Pls
5489 3172 Pls
5501 3179 Pls
5513 3186 Pls
5525 3192 Pls
5537 3199 Pls
5549 3206 Pls
5561 3213 Pls
5076 2918 Pls
5088 2925 Pls
5100 2932 Pls
5112 2939 Pls
5124 2946 Pls
5136 2953 Pls
5148 2960 Pls
5160 2967 Pls
5172 2974 Pls
5184 2981 Pls
5196 2987 Pls
5208 2994 Pls
5220 3001 Pls
5232 3008 Pls
5245 3015 Pls
5257 3022 Pls
5269 3029 Pls
5281 3036 Pls
5293 3043 Pls
5305 3050 Pls
5317 3057 Pls
5329 3064 Pls
5341 3071 Pls
5353 3078 Pls
5365 3084 Pls
5377 3091 Pls
5389 3098 Pls
5401 3105 Pls
5413 3112 Pls
5425 3119 Pls
5437 3126 Pls
5449 3133 Pls
5461 3140 Pls
5473 3147 Pls
5485 3154 Pls
5497 3161 Pls
5510 3168 Pls
5522 3175 Pls
5534 3182 Pls
5546 3188 Pls
5558 3195 Pls
5570 3202 Pls
5109 2921 Pls
5121 2928 Pls
5133 2935 Pls
5145 2942 Pls
5157 2949 Pls
5169 2956 Pls
5181 2963 Pls
5193 2970 Pls
5205 2977 Pls
5217 2983 Pls
5229 2990 Pls
5241 2997 Pls
5253 3004 Pls
5265 3011 Pls
5277 3018 Pls
5289 3025 Pls
5302 3032 Pls
5314 3039 Pls
5326 3046 Pls
5338 3053 Pls
5350 3060 Pls
5362 3067 Pls
5374 3074 Pls
5386 3080 Pls
5398 3087 Pls
5410 3094 Pls
5422 3101 Pls
5434 3108 Pls
5446 3115 Pls
5458 3122 Pls
5470 3129 Pls
5482 3136 Pls
5494 3143 Pls
5506 3150 Pls
5518 3157 Pls
5530 3164 Pls
5542 3171 Pls
5554 3178 Pls
5567 3184 Pls
5579 3191 Pls
5142 2924 Pls
5154 2931 Pls
5166 2938 Pls
5178 2945 Pls
5190 2952 Pls
5202 2959 Pls
5214 2966 Pls
5226 2973 Pls
5238 2979 Pls
5250 2986 Pls
5262 2993 Pls
5274 3000 Pls
5286 3007 Pls
5298 3014 Pls
5310 3021 Pls
5322 3028 Pls
5334 3035 Pls
5346 3042 Pls
5359 3049 Pls
5371 3056 Pls
5383 3063 Pls
5395 3070 Pls
5407 3076 Pls
5419 3083 Pls
5431 3090 Pls
5443 3097 Pls
5455 3104 Pls
5467 3111 Pls
5479 3118 Pls
5491 3125 Pls
5503 3132 Pls
5515 3139 Pls
5527 3146 Pls
5539 3153 Pls
5551 3160 Pls
5563 3167 Pls
5575 3174 Pls
5587 3180 Pls
5175 2927 Pls
5187 2934 Pls
5199 2941 Pls
5211 2948 Pls
5223 2955 Pls
5235 2962 Pls
5247 2969 Pls
5259 2975 Pls
5271 2982 Pls
5283 2989 Pls
5295 2996 Pls
5307 3003 Pls
5319 3010 Pls
5331 3017 Pls
5343 3024 Pls
5355 3031 Pls
5367 3038 Pls
5379 3045 Pls
5391 3052 Pls
5403 3059 Pls
5416 3066 Pls
5428 3072 Pls
5440 3079 Pls
5452 3086 Pls
5464 3093 Pls
5476 3100 Pls
5488 3107 Pls
5500 3114 Pls
5512 3121 Pls
5524 3128 Pls
5536 3135 Pls
5548 3142 Pls
5560 3149 Pls
5572 3156 Pls
5584 3163 Pls
5596 3170 Pls
5208 2930 Pls
5220 2937 Pls
5232 2944 Pls
5244 2951 Pls
5256 2958 Pls
5268 2964 Pls
5280 2971 Pls
5292 2978 Pls
5304 2985 Pls
5316 2992 Pls
5328 2999 Pls
5340 3006 Pls
5352 3013 Pls
5364 3020 Pls
5376 3027 Pls
5388 3034 Pls
5400 3041 Pls
5412 3048 Pls
5424 3055 Pls
5436 3062 Pls
5448 3068 Pls
5460 3075 Pls
5473 3082 Pls
5485 3089 Pls
5497 3096 Pls
5509 3103 Pls
5521 3110 Pls
5533 3117 Pls
5545 3124 Pls
5557 3131 Pls
5569 3138 Pls
5581 3145 Pls
5593 3152 Pls
5605 3159 Pls
5252 2940 Pls
5265 2947 Pls
5277 2954 Pls
5289 2960 Pls
5301 2967 Pls
5313 2974 Pls
5325 2981 Pls
5337 2988 Pls
5349 2995 Pls
5361 3002 Pls
5373 3009 Pls
5385 3016 Pls
5397 3023 Pls
5409 3030 Pls
5421 3037 Pls
5433 3044 Pls
5445 3051 Pls
5457 3058 Pls
5469 3064 Pls
5481 3071 Pls
5493 3078 Pls
5505 3085 Pls
5517 3092 Pls
5530 3099 Pls
5542 3106 Pls
5554 3113 Pls
5566 3120 Pls
5578 3127 Pls
5590 3134 Pls
5602 3141 Pls
5297 2950 Pls
5309 2956 Pls
5322 2963 Pls
5334 2970 Pls
5346 2977 Pls
5358 2984 Pls
5370 2991 Pls
5382 2998 Pls
5394 3005 Pls
5406 3012 Pls
5418 3019 Pls
5430 3026 Pls
5442 3033 Pls
5454 3040 Pls
5466 3047 Pls
5478 3054 Pls
5490 3060 Pls
5502 3067 Pls
5514 3074 Pls
5526 3081 Pls
5538 3088 Pls
5550 3095 Pls
5562 3102 Pls
5574 3109 Pls
5587 3116 Pls
5599 3123 Pls
5342 2959 Pls
5354 2966 Pls
5366 2973 Pls
5379 2980 Pls
5391 2987 Pls
5403 2994 Pls
5415 3001 Pls
5427 3008 Pls
5439 3015 Pls
5451 3022 Pls
5463 3029 Pls
5475 3036 Pls
5487 3043 Pls
5499 3050 Pls
5511 3056 Pls
5523 3063 Pls
5535 3070 Pls
5547 3077 Pls
5559 3084 Pls
5571 3091 Pls
5583 3098 Pls
5595 3105 Pls
5399 2976 Pls
5411 2983 Pls
5423 2990 Pls
5436 2997 Pls
5448 3004 Pls
5460 3011 Pls
5472 3018 Pls
5484 3025 Pls
5496 3032 Pls
5508 3039 Pls
5520 3046 Pls
5532 3052 Pls
5544 3059 Pls
5556 3066 Pls
5568 3073 Pls
5580 3080 Pls
5468 3000 Pls
5480 3007 Pls
5493 3014 Pls
5505 3021 Pls
5517 3028 Pls
5529 3035 Pls
5541 3042 Pls
1.000 UL
LTb
6229 1717 M
4304 609 L
971 1249 M
4304 609 L
1.000 UP
stroke
grestore
end
showpage
%%Trailer
%%DocumentFonts: Helvetica
%%Pages: 1
