%!PS-Adobe-2.0
%%Title: single-amortized_disk.eps
%%Creator: gnuplot 4.2 patchlevel 0
%%CreationDate: Tue Mar  4 20:40:34 2008
%%DocumentFonts: (atend)
%%BoundingBox: 50 50 554 770
%%Orientation: Landscape
%%Pages: (atend)
%%EndComments
%%BeginProlog
/gnudict 256 dict def
gnudict begin
%
% The following 6 true/false flags may be edited by hand if required
% The unit line width may also be changed
%
/Color false def
/Blacktext false def
/Solid false def
/Dashlength 1 def
/Landscape true def
/Level1 false def
/Rounded false def
/TransparentPatterns false def
/gnulinewidth 5.000 def
/userlinewidth gnulinewidth def
%
/vshift -46 def
/dl1 {
  10.0 Dashlength mul mul
  Rounded { currentlinewidth 0.75 mul sub dup 0 le { pop 0.01 } if } if
} def
/dl2 {
  10.0 Dashlength mul mul
  Rounded { currentlinewidth 0.75 mul add } if
} def
/hpt_ 31.5 def
/vpt_ 31.5 def
/hpt hpt_ def
/vpt vpt_ def
Level1 {} {
/SDict 10 dict def
systemdict /pdfmark known not {
  userdict /pdfmark systemdict /cleartomark get put
} if
SDict begin [
  /Title (single-amortized_disk.eps)
  /Subject (gnuplot plot)
  /Creator (gnuplot 4.2 patchlevel 0)
  /Author (,,,)
%  /Producer (gnuplot)
%  /Keywords ()
  /CreationDate (Tue Mar  4 20:40:34 2008)
  /DOCINFO pdfmark
end
} ifelse
%
% Gnuplot Prolog Version 4.2 (August 2006)
%
/M {moveto} bind def
/L {lineto} bind def
/R {rmoveto} bind def
/V {rlineto} bind def
/N {newpath moveto} bind def
/Z {closepath} bind def
/C {setrgbcolor} bind def
/f {rlineto fill} bind def
/vpt2 vpt 2 mul def
/hpt2 hpt 2 mul def
/Lshow {currentpoint stroke M 0 vshift R 
	Blacktext {gsave 0 setgray show grestore} {show} ifelse} def
/Rshow {currentpoint stroke M dup stringwidth pop neg vshift R
	Blacktext {gsave 0 setgray show grestore} {show} ifelse} def
/Cshow {currentpoint stroke M dup stringwidth pop -2 div vshift R 
	Blacktext {gsave 0 setgray show grestore} {show} ifelse} def
/UP {dup vpt_ mul /vpt exch def hpt_ mul /hpt exch def
  /hpt2 hpt 2 mul def /vpt2 vpt 2 mul def} def
/DL {Color {setrgbcolor Solid {pop []} if 0 setdash}
 {pop pop pop 0 setgray Solid {pop []} if 0 setdash} ifelse} def
/BL {stroke userlinewidth 2 mul setlinewidth
	Rounded {1 setlinejoin 1 setlinecap} if} def
/AL {stroke userlinewidth 2 div setlinewidth
	Rounded {1 setlinejoin 1 setlinecap} if} def
/UL {dup gnulinewidth mul /userlinewidth exch def
	dup 1 lt {pop 1} if 10 mul /udl exch def} def
/PL {stroke userlinewidth setlinewidth
	Rounded {1 setlinejoin 1 setlinecap} if} def
% Default Line colors
/LCw {1 1 1} def
/LCb {0 0 0} def
/LCa {0 0 0} def
/LC0 {1 0 0} def
/LC1 {0 1 0} def
/LC2 {0 0 1} def
/LC3 {1 0 1} def
/LC4 {0 1 1} def
/LC5 {1 1 0} def
/LC6 {0 0 0} def
/LC7 {1 0.3 0} def
/LC8 {0.5 0.5 0.5} def
% Default Line Types
/LTw {PL [] 1 setgray} def
/LTb {BL [] LCb DL} def
/LTa {AL [1 udl mul 2 udl mul] 0 setdash LCa setrgbcolor} def
/LT0 {PL [] LC0 DL} def
/LT1 {PL [4 dl1 2 dl2] LC1 DL} def
/LT2 {PL [2 dl1 3 dl2] LC2 DL} def
/LT3 {PL [1 dl1 1.5 dl2] LC3 DL} def
/LT4 {PL [6 dl1 2 dl2 1 dl1 2 dl2] LC4 DL} def
/LT5 {PL [3 dl1 3 dl2 1 dl1 3 dl2] LC5 DL} def
/LT6 {PL [2 dl1 2 dl2 2 dl1 6 dl2] LC6 DL} def
/LT7 {PL [1 dl1 2 dl2 6 dl1 2 dl2 1 dl1 2 dl2] LC7 DL} def
/LT8 {PL [2 dl1 2 dl2 2 dl1 2 dl2 2 dl1 2 dl2 2 dl1 4 dl2] LC8 DL} def
/Pnt {stroke [] 0 setdash gsave 1 setlinecap M 0 0 V stroke grestore} def
/Dia {stroke [] 0 setdash 2 copy vpt add M
  hpt neg vpt neg V hpt vpt neg V
  hpt vpt V hpt neg vpt V closepath stroke
  Pnt} def
/Pls {stroke [] 0 setdash vpt sub M 0 vpt2 V
  currentpoint stroke M
  hpt neg vpt neg R hpt2 0 V stroke
 } def
/Box {stroke [] 0 setdash 2 copy exch hpt sub exch vpt add M
  0 vpt2 neg V hpt2 0 V 0 vpt2 V
  hpt2 neg 0 V closepath stroke
  Pnt} def
/Crs {stroke [] 0 setdash exch hpt sub exch vpt add M
  hpt2 vpt2 neg V currentpoint stroke M
  hpt2 neg 0 R hpt2 vpt2 V stroke} def
/TriU {stroke [] 0 setdash 2 copy vpt 1.12 mul add M
  hpt neg vpt -1.62 mul V
  hpt 2 mul 0 V
  hpt neg vpt 1.62 mul V closepath stroke
  Pnt} def
/Star {2 copy Pls Crs} def
/BoxF {stroke [] 0 setdash exch hpt sub exch vpt add M
  0 vpt2 neg V hpt2 0 V 0 vpt2 V
  hpt2 neg 0 V closepath fill} def
/TriUF {stroke [] 0 setdash vpt 1.12 mul add M
  hpt neg vpt -1.62 mul V
  hpt 2 mul 0 V
  hpt neg vpt 1.62 mul V closepath fill} def
/TriD {stroke [] 0 setdash 2 copy vpt 1.12 mul sub M
  hpt neg vpt 1.62 mul V
  hpt 2 mul 0 V
  hpt neg vpt -1.62 mul V closepath stroke
  Pnt} def
/TriDF {stroke [] 0 setdash vpt 1.12 mul sub M
  hpt neg vpt 1.62 mul V
  hpt 2 mul 0 V
  hpt neg vpt -1.62 mul V closepath fill} def
/DiaF {stroke [] 0 setdash vpt add M
  hpt neg vpt neg V hpt vpt neg V
  hpt vpt V hpt neg vpt V closepath fill} def
/Pent {stroke [] 0 setdash 2 copy gsave
  translate 0 hpt M 4 {72 rotate 0 hpt L} repeat
  closepath stroke grestore Pnt} def
/PentF {stroke [] 0 setdash gsave
  translate 0 hpt M 4 {72 rotate 0 hpt L} repeat
  closepath fill grestore} def
/Circle {stroke [] 0 setdash 2 copy
  hpt 0 360 arc stroke Pnt} def
/CircleF {stroke [] 0 setdash hpt 0 360 arc fill} def
/C0 {BL [] 0 setdash 2 copy moveto vpt 90 450 arc} bind def
/C1 {BL [] 0 setdash 2 copy moveto
	2 copy vpt 0 90 arc closepath fill
	vpt 0 360 arc closepath} bind def
/C2 {BL [] 0 setdash 2 copy moveto
	2 copy vpt 90 180 arc closepath fill
	vpt 0 360 arc closepath} bind def
/C3 {BL [] 0 setdash 2 copy moveto
	2 copy vpt 0 180 arc closepath fill
	vpt 0 360 arc closepath} bind def
/C4 {BL [] 0 setdash 2 copy moveto
	2 copy vpt 180 270 arc closepath fill
	vpt 0 360 arc closepath} bind def
/C5 {BL [] 0 setdash 2 copy moveto
	2 copy vpt 0 90 arc
	2 copy moveto
	2 copy vpt 180 270 arc closepath fill
	vpt 0 360 arc} bind def
/C6 {BL [] 0 setdash 2 copy moveto
	2 copy vpt 90 270 arc closepath fill
	vpt 0 360 arc closepath} bind def
/C7 {BL [] 0 setdash 2 copy moveto
	2 copy vpt 0 270 arc closepath fill
	vpt 0 360 arc closepath} bind def
/C8 {BL [] 0 setdash 2 copy moveto
	2 copy vpt 270 360 arc closepath fill
	vpt 0 360 arc closepath} bind def
/C9 {BL [] 0 setdash 2 copy moveto
	2 copy vpt 270 450 arc closepath fill
	vpt 0 360 arc closepath} bind def
/C10 {BL [] 0 setdash 2 copy 2 copy moveto vpt 270 360 arc closepath fill
	2 copy moveto
	2 copy vpt 90 180 arc closepath fill
	vpt 0 360 arc closepath} bind def
/C11 {BL [] 0 setdash 2 copy moveto
	2 copy vpt 0 180 arc closepath fill
	2 copy moveto
	2 copy vpt 270 360 arc closepath fill
	vpt 0 360 arc closepath} bind def
/C12 {BL [] 0 setdash 2 copy moveto
	2 copy vpt 180 360 arc closepath fill
	vpt 0 360 arc closepath} bind def
/C13 {BL [] 0 setdash 2 copy moveto
	2 copy vpt 0 90 arc closepath fill
	2 copy moveto
	2 copy vpt 180 360 arc closepath fill
	vpt 0 360 arc closepath} bind def
/C14 {BL [] 0 setdash 2 copy moveto
	2 copy vpt 90 360 arc closepath fill
	vpt 0 360 arc} bind def
/C15 {BL [] 0 setdash 2 copy vpt 0 360 arc closepath fill
	vpt 0 360 arc closepath} bind def
/Rec {newpath 4 2 roll moveto 1 index 0 rlineto 0 exch rlineto
	neg 0 rlineto closepath} bind def
/Square {dup Rec} bind def
/Bsquare {vpt sub exch vpt sub exch vpt2 Square} bind def
/S0 {BL [] 0 setdash 2 copy moveto 0 vpt rlineto BL Bsquare} bind def
/S1 {BL [] 0 setdash 2 copy vpt Square fill Bsquare} bind def
/S2 {BL [] 0 setdash 2 copy exch vpt sub exch vpt Square fill Bsquare} bind def
/S3 {BL [] 0 setdash 2 copy exch vpt sub exch vpt2 vpt Rec fill Bsquare} bind def
/S4 {BL [] 0 setdash 2 copy exch vpt sub exch vpt sub vpt Square fill Bsquare} bind def
/S5 {BL [] 0 setdash 2 copy 2 copy vpt Square fill
	exch vpt sub exch vpt sub vpt Square fill Bsquare} bind def
/S6 {BL [] 0 setdash 2 copy exch vpt sub exch vpt sub vpt vpt2 Rec fill Bsquare} bind def
/S7 {BL [] 0 setdash 2 copy exch vpt sub exch vpt sub vpt vpt2 Rec fill
	2 copy vpt Square fill Bsquare} bind def
/S8 {BL [] 0 setdash 2 copy vpt sub vpt Square fill Bsquare} bind def
/S9 {BL [] 0 setdash 2 copy vpt sub vpt vpt2 Rec fill Bsquare} bind def
/S10 {BL [] 0 setdash 2 copy vpt sub vpt Square fill 2 copy exch vpt sub exch vpt Square fill
	Bsquare} bind def
/S11 {BL [] 0 setdash 2 copy vpt sub vpt Square fill 2 copy exch vpt sub exch vpt2 vpt Rec fill
	Bsquare} bind def
/S12 {BL [] 0 setdash 2 copy exch vpt sub exch vpt sub vpt2 vpt Rec fill Bsquare} bind def
/S13 {BL [] 0 setdash 2 copy exch vpt sub exch vpt sub vpt2 vpt Rec fill
	2 copy vpt Square fill Bsquare} bind def
/S14 {BL [] 0 setdash 2 copy exch vpt sub exch vpt sub vpt2 vpt Rec fill
	2 copy exch vpt sub exch vpt Square fill Bsquare} bind def
/S15 {BL [] 0 setdash 2 copy Bsquare fill Bsquare} bind def
/D0 {gsave translate 45 rotate 0 0 S0 stroke grestore} bind def
/D1 {gsave translate 45 rotate 0 0 S1 stroke grestore} bind def
/D2 {gsave translate 45 rotate 0 0 S2 stroke grestore} bind def
/D3 {gsave translate 45 rotate 0 0 S3 stroke grestore} bind def
/D4 {gsave translate 45 rotate 0 0 S4 stroke grestore} bind def
/D5 {gsave translate 45 rotate 0 0 S5 stroke grestore} bind def
/D6 {gsave translate 45 rotate 0 0 S6 stroke grestore} bind def
/D7 {gsave translate 45 rotate 0 0 S7 stroke grestore} bind def
/D8 {gsave translate 45 rotate 0 0 S8 stroke grestore} bind def
/D9 {gsave translate 45 rotate 0 0 S9 stroke grestore} bind def
/D10 {gsave translate 45 rotate 0 0 S10 stroke grestore} bind def
/D11 {gsave translate 45 rotate 0 0 S11 stroke grestore} bind def
/D12 {gsave translate 45 rotate 0 0 S12 stroke grestore} bind def
/D13 {gsave translate 45 rotate 0 0 S13 stroke grestore} bind def
/D14 {gsave translate 45 rotate 0 0 S14 stroke grestore} bind def
/D15 {gsave translate 45 rotate 0 0 S15 stroke grestore} bind def
/DiaE {stroke [] 0 setdash vpt add M
  hpt neg vpt neg V hpt vpt neg V
  hpt vpt V hpt neg vpt V closepath stroke} def
/BoxE {stroke [] 0 setdash exch hpt sub exch vpt add M
  0 vpt2 neg V hpt2 0 V 0 vpt2 V
  hpt2 neg 0 V closepath stroke} def
/TriUE {stroke [] 0 setdash vpt 1.12 mul add M
  hpt neg vpt -1.62 mul V
  hpt 2 mul 0 V
  hpt neg vpt 1.62 mul V closepath stroke} def
/TriDE {stroke [] 0 setdash vpt 1.12 mul sub M
  hpt neg vpt 1.62 mul V
  hpt 2 mul 0 V
  hpt neg vpt -1.62 mul V closepath stroke} def
/PentE {stroke [] 0 setdash gsave
  translate 0 hpt M 4 {72 rotate 0 hpt L} repeat
  closepath stroke grestore} def
/CircE {stroke [] 0 setdash 
  hpt 0 360 arc stroke} def
/Opaque {gsave closepath 1 setgray fill grestore 0 setgray closepath} def
/DiaW {stroke [] 0 setdash vpt add M
  hpt neg vpt neg V hpt vpt neg V
  hpt vpt V hpt neg vpt V Opaque stroke} def
/BoxW {stroke [] 0 setdash exch hpt sub exch vpt add M
  0 vpt2 neg V hpt2 0 V 0 vpt2 V
  hpt2 neg 0 V Opaque stroke} def
/TriUW {stroke [] 0 setdash vpt 1.12 mul add M
  hpt neg vpt -1.62 mul V
  hpt 2 mul 0 V
  hpt neg vpt 1.62 mul V Opaque stroke} def
/TriDW {stroke [] 0 setdash vpt 1.12 mul sub M
  hpt neg vpt 1.62 mul V
  hpt 2 mul 0 V
  hpt neg vpt -1.62 mul V Opaque stroke} def
/PentW {stroke [] 0 setdash gsave
  translate 0 hpt M 4 {72 rotate 0 hpt L} repeat
  Opaque stroke grestore} def
/CircW {stroke [] 0 setdash 
  hpt 0 360 arc Opaque stroke} def
/BoxFill {gsave Rec 1 setgray fill grestore} def
/Density {
  /Fillden exch def
  currentrgbcolor
  /ColB exch def /ColG exch def /ColR exch def
  /ColR ColR Fillden mul Fillden sub 1 add def
  /ColG ColG Fillden mul Fillden sub 1 add def
  /ColB ColB Fillden mul Fillden sub 1 add def
  ColR ColG ColB setrgbcolor} def
/BoxColFill {gsave Rec PolyFill} def
/PolyFill {gsave Density fill grestore grestore} def
/h {rlineto rlineto rlineto gsave fill grestore} bind def
%
% PostScript Level 1 Pattern Fill routine for rectangles
% Usage: x y w h s a XX PatternFill
%	x,y = lower left corner of box to be filled
%	w,h = width and height of box
%	  a = angle in degrees between lines and x-axis
%	 XX = 0/1 for no/yes cross-hatch
%
/PatternFill {gsave /PFa [ 9 2 roll ] def
  PFa 0 get PFa 2 get 2 div add PFa 1 get PFa 3 get 2 div add translate
  PFa 2 get -2 div PFa 3 get -2 div PFa 2 get PFa 3 get Rec
  gsave 1 setgray fill grestore clip
  currentlinewidth 0.5 mul setlinewidth
  /PFs PFa 2 get dup mul PFa 3 get dup mul add sqrt def
  0 0 M PFa 5 get rotate PFs -2 div dup translate
  0 1 PFs PFa 4 get div 1 add floor cvi
	{PFa 4 get mul 0 M 0 PFs V} for
  0 PFa 6 get ne {
	0 1 PFs PFa 4 get div 1 add floor cvi
	{PFa 4 get mul 0 2 1 roll M PFs 0 V} for
 } if
  stroke grestore} def
%
/languagelevel where
 {pop languagelevel} {1} ifelse
 2 lt
	{/InterpretLevel1 true def}
	{/InterpretLevel1 Level1 def}
 ifelse
%
% PostScript level 2 pattern fill definitions
%
/Level2PatternFill {
/Tile8x8 {/PaintType 2 /PatternType 1 /TilingType 1 /BBox [0 0 8 8] /XStep 8 /YStep 8}
	bind def
/KeepColor {currentrgbcolor [/Pattern /DeviceRGB] setcolorspace} bind def
<< Tile8x8
 /PaintProc {0.5 setlinewidth pop 0 0 M 8 8 L 0 8 M 8 0 L stroke} 
>> matrix makepattern
/Pat1 exch def
<< Tile8x8
 /PaintProc {0.5 setlinewidth pop 0 0 M 8 8 L 0 8 M 8 0 L stroke
	0 4 M 4 8 L 8 4 L 4 0 L 0 4 L stroke}
>> matrix makepattern
/Pat2 exch def
<< Tile8x8
 /PaintProc {0.5 setlinewidth pop 0 0 M 0 8 L
	8 8 L 8 0 L 0 0 L fill}
>> matrix makepattern
/Pat3 exch def
<< Tile8x8
 /PaintProc {0.5 setlinewidth pop -4 8 M 8 -4 L
	0 12 M 12 0 L stroke}
>> matrix makepattern
/Pat4 exch def
<< Tile8x8
 /PaintProc {0.5 setlinewidth pop -4 0 M 8 12 L
	0 -4 M 12 8 L stroke}
>> matrix makepattern
/Pat5 exch def
<< Tile8x8
 /PaintProc {0.5 setlinewidth pop -2 8 M 4 -4 L
	0 12 M 8 -4 L 4 12 M 10 0 L stroke}
>> matrix makepattern
/Pat6 exch def
<< Tile8x8
 /PaintProc {0.5 setlinewidth pop -2 0 M 4 12 L
	0 -4 M 8 12 L 4 -4 M 10 8 L stroke}
>> matrix makepattern
/Pat7 exch def
<< Tile8x8
 /PaintProc {0.5 setlinewidth pop 8 -2 M -4 4 L
	12 0 M -4 8 L 12 4 M 0 10 L stroke}
>> matrix makepattern
/Pat8 exch def
<< Tile8x8
 /PaintProc {0.5 setlinewidth pop 0 -2 M 12 4 L
	-4 0 M 12 8 L -4 4 M 8 10 L stroke}
>> matrix makepattern
/Pat9 exch def
/Pattern1 {PatternBgnd KeepColor Pat1 setpattern} bind def
/Pattern2 {PatternBgnd KeepColor Pat2 setpattern} bind def
/Pattern3 {PatternBgnd KeepColor Pat3 setpattern} bind def
/Pattern4 {PatternBgnd KeepColor Landscape {Pat5} {Pat4} ifelse setpattern} bind def
/Pattern5 {PatternBgnd KeepColor Landscape {Pat4} {Pat5} ifelse setpattern} bind def
/Pattern6 {PatternBgnd KeepColor Landscape {Pat9} {Pat6} ifelse setpattern} bind def
/Pattern7 {PatternBgnd KeepColor Landscape {Pat8} {Pat7} ifelse setpattern} bind def
} def
%
%
%End of PostScript Level 2 code
%
/PatternBgnd {
  TransparentPatterns {} {gsave 1 setgray fill grestore} ifelse
} def
%
% Substitute for Level 2 pattern fill codes with
% grayscale if Level 2 support is not selected.
%
/Level1PatternFill {
/Pattern1 {0.250 Density} bind def
/Pattern2 {0.500 Density} bind def
/Pattern3 {0.750 Density} bind def
/Pattern4 {0.125 Density} bind def
/Pattern5 {0.375 Density} bind def
/Pattern6 {0.625 Density} bind def
/Pattern7 {0.875 Density} bind def
} def
%
% Now test for support of Level 2 code
%
Level1 {Level1PatternFill} {Level2PatternFill} ifelse
%
/Symbol-Oblique /Symbol findfont [1 0 .167 1 0 0] makefont
dup length dict begin {1 index /FID eq {pop pop} {def} ifelse} forall
currentdict end definefont pop
end
%%EndProlog
%%Page: 1 1
gnudict begin
gsave
50 50 translate
0.100 0.100 scale
90 rotate
0 -5040 translate
0 setgray
newpath
(Helvetica) findfont 140 scalefont setfont
1.000 UL
LTb
1.000 UL
LTb
971 1249 M
2896 2356 L
6229 1717 M
2896 2356 L
971 1249 M
0 2214 V
0 -2214 R
47 27 V
908 1188 M
( 4.6) Cshow
1.000 UL
LTb
1.000 UL
LTb
2896 2356 M
-48 -27 V
1388 1169 M
47 27 V
-111 -88 R
( 4.7) Cshow
1.000 UL
LTb
1.000 UL
LTb
3313 2276 M
-48 -27 V
1804 1089 M
48 27 V
-111 -88 R
( 4.8) Cshow
1.000 UL
LTb
1.000 UL
LTb
3728 2197 M
-47 -28 V
2221 1009 M
48 27 V
2158 948 M
( 4.9) Cshow
1.000 UL
LTb
1.000 UL
LTb
4145 2117 M
-47 -28 V
2638 929 M
47 27 V
2575 868 M
( 5) Cshow
1.000 UL
LTb
1.000 UL
LTb
4562 2037 M
-47 -28 V
3055 849 M
47 27 V
2992 788 M
( 5.1) Cshow
1.000 UL
LTb
1.000 UL
LTb
4979 1957 M
-48 -28 V
3472 769 M
47 27 V
3408 709 M
( 5.2) Cshow
1.000 UL
LTb
1.000 UL
LTb
5396 1877 M
-48 -27 V
3887 689 M
48 27 V
3824 629 M
( 5.3) Cshow
1.000 UL
LTb
1.000 UL
LTb
5812 1797 M
-47 -27 V
4304 609 M
48 28 V
4241 549 M
( 5.4) Cshow
1.000 UL
LTb
1.000 UL
LTb
6229 1717 M
-47 -27 V
4304 609 M
-54 11 V
127 -34 R
( 4.6) Cshow
1.000 UL
LTb
1.000 UL
LTb
971 1249 M
54 -11 V
4545 748 M
-55 10 V
127 -34 R
( 4.7) Cshow
1.000 UL
LTb
1.000 UL
LTb
1212 1387 M
54 -10 V
4785 886 M
-54 11 V
127 -34 R
( 4.8) Cshow
1.000 UL
LTb
1.000 UL
LTb
1452 1526 M
55 -11 V
5026 1025 M
-55 10 V
128 -34 R
( 4.9) Cshow
1.000 UL
LTb
1.000 UL
LTb
1693 1664 M
54 -10 V
5267 1163 M
-55 11 V
127 -34 R
( 5) Cshow
1.000 UL
LTb
1.000 UL
LTb
1933 1803 M
55 -11 V
5507 1302 M
-54 10 V
127 -34 R
( 5.1) Cshow
1.000 UL
LTb
1.000 UL
LTb
2174 1941 M
55 -10 V
5748 1440 M
-55 10 V
128 -33 R
( 5.2) Cshow
1.000 UL
LTb
1.000 UL
LTb
2415 2080 M
54 -11 V
5988 1578 M
-54 11 V
127 -34 R
( 5.3) Cshow
1.000 UL
LTb
1.000 UL
LTb
2655 2218 M
55 -10 V
6229 1717 M
-54 10 V
127 -33 R
( 5.4) Cshow
1.000 UL
LTb
1.000 UL
LTb
2896 2356 M
54 -10 V
971 1987 M
63 0 V
-189 0 R
( 0) Rshow
1.000 UL
LTb
1.000 UL
LTb
971 2233 M
63 0 V
-189 0 R
( 0.01) Rshow
1.000 UL
LTb
1.000 UL
LTb
971 2479 M
63 0 V
-189 0 R
( 0.02) Rshow
1.000 UL
LTb
1.000 UL
LTb
971 2725 M
63 0 V
-189 0 R
( 0.03) Rshow
1.000 UL
LTb
1.000 UL
LTb
971 2971 M
63 0 V
-189 0 R
( 0.04) Rshow
1.000 UL
LTb
1.000 UL
LTb
971 3217 M
63 0 V
-189 0 R
( 0.05) Rshow
1.000 UL
LTb
1.000 UL
LTb
971 3463 M
63 0 V
-189 0 R
( 0.06) Rshow
1.000 UL
LTb
1.000 UP
1.000 UP
1.000 UL
LT0
LTb
/Helvetica findfont 140 scalefont setfont
6402 4556 M
("single-amortized_disk.out") Rshow
1.000 UP
1.000 UL
LT0
6685 4556 Pls
2038 2470 Pls
2068 2491 Pls
2098 2510 Pls
2128 2527 Pls
2158 2542 Pls
2188 2556 Pls
1939 2379 Pls
1969 2408 Pls
1999 2437 Pls
2030 2463 Pls
2060 2488 Pls
2090 2511 Pls
2120 2531 Pls
2150 2551 Pls
2180 2568 Pls
2210 2583 Pls
2240 2597 Pls
2270 2609 Pls
2301 2619 Pls
2331 2627 Pls
2361 2634 Pls
2391 2639 Pls
1901 2317 Pls
1931 2352 Pls
1961 2386 Pls
1991 2418 Pls
2021 2448 Pls
2052 2477 Pls
2082 2503 Pls
2112 2528 Pls
2142 2551 Pls
2172 2573 Pls
2202 2592 Pls
2232 2609 Pls
2262 2625 Pls
2292 2638 Pls
2323 2650 Pls
2353 2659 Pls
2383 2667 Pls
2413 2673 Pls
2443 2678 Pls
2473 2680 Pls
2503 2681 Pls
2533 2681 Pls
1893 2278 Pls
1923 2317 Pls
1953 2354 Pls
1983 2390 Pls
2013 2424 Pls
2044 2457 Pls
2074 2488 Pls
2104 2517 Pls
2134 2544 Pls
2164 2569 Pls
2194 2592 Pls
2224 2614 Pls
2254 2633 Pls
2284 2650 Pls
2315 2666 Pls
2345 2679 Pls
2375 2690 Pls
2405 2700 Pls
2435 2707 Pls
2465 2713 Pls
2495 2717 Pls
2525 2719 Pls
2555 2720 Pls
2586 2718 Pls
2616 2716 Pls
2646 2711 Pls
1885 2230 Pls
1915 2273 Pls
1945 2314 Pls
1975 2353 Pls
2005 2392 Pls
2035 2428 Pls
2066 2463 Pls
2096 2496 Pls
2126 2527 Pls
2156 2557 Pls
2186 2584 Pls
2216 2610 Pls
2246 2633 Pls
2276 2655 Pls
2306 2674 Pls
2337 2691 Pls
2367 2706 Pls
2397 2720 Pls
2427 2731 Pls
2457 2740 Pls
2487 2747 Pls
2517 2752 Pls
2547 2756 Pls
2578 2757 Pls
2608 2757 Pls
2638 2755 Pls
2668 2752 Pls
2698 2747 Pls
2728 2741 Pls
2758 2733 Pls
1877 2173 Pls
1907 2219 Pls
1937 2264 Pls
1967 2307 Pls
1997 2349 Pls
2027 2390 Pls
2057 2428 Pls
2088 2466 Pls
2118 2501 Pls
2148 2535 Pls
2178 2567 Pls
2208 2596 Pls
2238 2624 Pls
2268 2650 Pls
2298 2674 Pls
2329 2695 Pls
2359 2715 Pls
2389 2732 Pls
2419 2747 Pls
2449 2760 Pls
2479 2771 Pls
2509 2780 Pls
2539 2787 Pls
2569 2792 Pls
2600 2795 Pls
2630 2796 Pls
2660 2795 Pls
2690 2792 Pls
2720 2788 Pls
2750 2782 Pls
2780 2775 Pls
2810 2766 Pls
2840 2756 Pls
2871 2745 Pls
1899 2157 Pls
1929 2205 Pls
1959 2252 Pls
1989 2297 Pls
2019 2341 Pls
2049 2384 Pls
2080 2425 Pls
2110 2465 Pls
2140 2503 Pls
2170 2539 Pls
2200 2573 Pls
2230 2606 Pls
2260 2636 Pls
2290 2664 Pls
2320 2691 Pls
2351 2715 Pls
2381 2736 Pls
2411 2756 Pls
2441 2773 Pls
2471 2788 Pls
2501 2801 Pls
2531 2812 Pls
2561 2820 Pls
2591 2827 Pls
2622 2831 Pls
2652 2833 Pls
2682 2834 Pls
2712 2832 Pls
2742 2829 Pls
2772 2824 Pls
2802 2817 Pls
2832 2809 Pls
2863 2800 Pls
2893 2789 Pls
2923 2777 Pls
2953 2763 Pls
1921 2137 Pls
1951 2187 Pls
1981 2236 Pls
2011 2283 Pls
2041 2330 Pls
2071 2375 Pls
2102 2418 Pls
2132 2461 Pls
2162 2501 Pls
2192 2540 Pls
2222 2577 Pls
2252 2612 Pls
2282 2645 Pls
2312 2676 Pls
2342 2704 Pls
2373 2731 Pls
2403 2755 Pls
2433 2777 Pls
2463 2797 Pls
2493 2814 Pls
2523 2829 Pls
2553 2842 Pls
2583 2852 Pls
2614 2860 Pls
2644 2866 Pls
2674 2870 Pls
2704 2872 Pls
2734 2871 Pls
2764 2869 Pls
2794 2865 Pls
2824 2859 Pls
2854 2852 Pls
2885 2843 Pls
2915 2832 Pls
2945 2821 Pls
2975 2808 Pls
3005 2794 Pls
3035 2778 Pls
1943 2114 Pls
1973 2165 Pls
2003 2216 Pls
2033 2266 Pls
2063 2315 Pls
2093 2362 Pls
2124 2408 Pls
2154 2452 Pls
2184 2495 Pls
2214 2537 Pls
2244 2576 Pls
2274 2614 Pls
2304 2650 Pls
2334 2683 Pls
2365 2715 Pls
2395 2744 Pls
2425 2771 Pls
2455 2796 Pls
2485 2818 Pls
2515 2838 Pls
2545 2856 Pls
2575 2870 Pls
2605 2883 Pls
2636 2893 Pls
2666 2900 Pls
2696 2906 Pls
2726 2909 Pls
2756 2910 Pls
2786 2909 Pls
2816 2906 Pls
2846 2901 Pls
2877 2894 Pls
2907 2886 Pls
2937 2876 Pls
2967 2864 Pls
2997 2852 Pls
3027 2838 Pls
3057 2823 Pls
3087 2807 Pls
3117 2789 Pls
1965 2087 Pls
1995 2140 Pls
2025 2193 Pls
2055 2245 Pls
2085 2296 Pls
2116 2345 Pls
2146 2393 Pls
2176 2440 Pls
2206 2486 Pls
2236 2530 Pls
2266 2572 Pls
2296 2612 Pls
2326 2651 Pls
2356 2688 Pls
2387 2722 Pls
2417 2754 Pls
2447 2784 Pls
2477 2812 Pls
2507 2837 Pls
2537 2859 Pls
2567 2879 Pls
2597 2897 Pls
2628 2911 Pls
2658 2923 Pls
2688 2933 Pls
2718 2940 Pls
2748 2945 Pls
2778 2947 Pls
2808 2948 Pls
2838 2946 Pls
2868 2942 Pls
2899 2936 Pls
2929 2928 Pls
2959 2919 Pls
2989 2908 Pls
3019 2896 Pls
3049 2882 Pls
3079 2867 Pls
3109 2851 Pls
3139 2834 Pls
3170 2816 Pls
3200 2797 Pls
1987 2056 Pls
2017 2111 Pls
2047 2166 Pls
2077 2220 Pls
2107 2272 Pls
2138 2324 Pls
2168 2375 Pls
2198 2424 Pls
2228 2472 Pls
2258 2518 Pls
2288 2563 Pls
2318 2607 Pls
2348 2648 Pls
2379 2688 Pls
2409 2725 Pls
2439 2760 Pls
2469 2793 Pls
2499 2824 Pls
2529 2852 Pls
2559 2877 Pls
2589 2900 Pls
2619 2920 Pls
2650 2938 Pls
2680 2952 Pls
2710 2964 Pls
2740 2973 Pls
2770 2980 Pls
2800 2984 Pls
2830 2986 Pls
2860 2985 Pls
2890 2982 Pls
2921 2977 Pls
2951 2971 Pls
2981 2962 Pls
3011 2952 Pls
3041 2940 Pls
3071 2927 Pls
3101 2912 Pls
3131 2896 Pls
3162 2879 Pls
3192 2861 Pls
3222 2842 Pls
3252 2822 Pls
3282 2801 Pls
2009 2022 Pls
2039 2079 Pls
2069 2135 Pls
2099 2191 Pls
2130 2245 Pls
2160 2299 Pls
2190 2352 Pls
2220 2403 Pls
2250 2454 Pls
2280 2503 Pls
2310 2550 Pls
2340 2597 Pls
2370 2641 Pls
2401 2683 Pls
2431 2724 Pls
2461 2762 Pls
2491 2798 Pls
2521 2832 Pls
2551 2864 Pls
2581 2892 Pls
2611 2918 Pls
2641 2941 Pls
2672 2961 Pls
2702 2979 Pls
2732 2993 Pls
2762 3005 Pls
2792 3013 Pls
2822 3020 Pls
2852 3023 Pls
2882 3024 Pls
2913 3022 Pls
2943 3019 Pls
2973 3013 Pls
3003 3005 Pls
3033 2995 Pls
3063 2984 Pls
3093 2971 Pls
3123 2956 Pls
3153 2941 Pls
3184 2924 Pls
3214 2906 Pls
3244 2887 Pls
3274 2866 Pls
3304 2846 Pls
3334 2824 Pls
3364 2801 Pls
2031 1984 Pls
2061 2042 Pls
2091 2100 Pls
2121 2158 Pls
2152 2214 Pls
2182 2270 Pls
2212 2325 Pls
2242 2379 Pls
2272 2431 Pls
2302 2483 Pls
2332 2533 Pls
2362 2582 Pls
2392 2629 Pls
2423 2674 Pls
2453 2718 Pls
2483 2760 Pls
2513 2799 Pls
2543 2836 Pls
2573 2871 Pls
2603 2903 Pls
2633 2932 Pls
2664 2959 Pls
2694 2982 Pls
2724 3002 Pls
2754 3020 Pls
2784 3034 Pls
2814 3045 Pls
2844 3054 Pls
2874 3059 Pls
2904 3062 Pls
2935 3062 Pls
2965 3059 Pls
2995 3054 Pls
3025 3047 Pls
3055 3038 Pls
3085 3027 Pls
3115 3015 Pls
3145 3001 Pls
3176 2985 Pls
3206 2968 Pls
3236 2950 Pls
3266 2931 Pls
3296 2911 Pls
3326 2890 Pls
3356 2868 Pls
3386 2846 Pls
3416 2822 Pls
3447 2798 Pls
2083 2003 Pls
2113 2062 Pls
2144 2121 Pls
2174 2179 Pls
2204 2237 Pls
2234 2293 Pls
2264 2349 Pls
2294 2404 Pls
2324 2458 Pls
2354 2511 Pls
2384 2562 Pls
2415 2612 Pls
2445 2660 Pls
2475 2707 Pls
2505 2752 Pls
2535 2795 Pls
2565 2835 Pls
2595 2874 Pls
2625 2909 Pls
2655 2942 Pls
2686 2972 Pls
2716 2999 Pls
2746 3023 Pls
2776 3043 Pls
2806 3061 Pls
2836 3075 Pls
2866 3086 Pls
2896 3093 Pls
2927 3098 Pls
2957 3100 Pls
2987 3099 Pls
3017 3095 Pls
3047 3089 Pls
3077 3081 Pls
3107 3071 Pls
3137 3059 Pls
3167 3045 Pls
3198 3030 Pls
3228 3013 Pls
3258 2995 Pls
3288 2976 Pls
3318 2956 Pls
3348 2935 Pls
3378 2913 Pls
3408 2890 Pls
3438 2866 Pls
3469 2842 Pls
3499 2817 Pls
2105 1959 Pls
2135 2020 Pls
2166 2081 Pls
2196 2140 Pls
2226 2200 Pls
2256 2258 Pls
2286 2316 Pls
2316 2373 Pls
2346 2429 Pls
2376 2484 Pls
2406 2537 Pls
2437 2590 Pls
2467 2641 Pls
2497 2691 Pls
2527 2739 Pls
2557 2785 Pls
2587 2829 Pls
2617 2871 Pls
2647 2910 Pls
2678 2947 Pls
2708 2981 Pls
2738 3012 Pls
2768 3039 Pls
2798 3064 Pls
2828 3085 Pls
2858 3102 Pls
2888 3116 Pls
2918 3126 Pls
2949 3133 Pls
2979 3137 Pls
3009 3138 Pls
3039 3136 Pls
3069 3131 Pls
3099 3124 Pls
3129 3114 Pls
3159 3103 Pls
3189 3090 Pls
3220 3075 Pls
3250 3058 Pls
3280 3040 Pls
3310 3021 Pls
3340 3000 Pls
3370 2979 Pls
3400 2957 Pls
3430 2934 Pls
3461 2910 Pls
3491 2885 Pls
3521 2860 Pls
3551 2835 Pls
3581 2808 Pls
2157 1975 Pls
2188 2036 Pls
2218 2098 Pls
2248 2158 Pls
2278 2218 Pls
2308 2278 Pls
2338 2337 Pls
2368 2395 Pls
2398 2452 Pls
2429 2508 Pls
2459 2563 Pls
2489 2617 Pls
2519 2669 Pls
2549 2721 Pls
2579 2770 Pls
2609 2817 Pls
2639 2863 Pls
2669 2906 Pls
2700 2947 Pls
2730 2985 Pls
2760 3020 Pls
2790 3051 Pls
2820 3080 Pls
2850 3105 Pls
2880 3126 Pls
2910 3143 Pls
2940 3157 Pls
2971 3166 Pls
3001 3173 Pls
3031 3176 Pls
3061 3175 Pls
3091 3172 Pls
3121 3166 Pls
3151 3158 Pls
3181 3147 Pls
3212 3134 Pls
3242 3119 Pls
3272 3103 Pls
3302 3085 Pls
3332 3066 Pls
3362 3045 Pls
3392 3024 Pls
3422 3001 Pls
3452 2978 Pls
3483 2954 Pls
3513 2929 Pls
3543 2903 Pls
3573 2877 Pls
3603 2851 Pls
3633 2824 Pls
2180 1926 Pls
2210 1989 Pls
2240 2051 Pls
2270 2113 Pls
2300 2175 Pls
2330 2236 Pls
2360 2296 Pls
2390 2356 Pls
2420 2415 Pls
2451 2473 Pls
2481 2531 Pls
2511 2587 Pls
2541 2642 Pls
2571 2696 Pls
2601 2749 Pls
2631 2800 Pls
2661 2849 Pls
2691 2896 Pls
2722 2940 Pls
2752 2983 Pls
2782 3022 Pls
2812 3058 Pls
2842 3091 Pls
2872 3120 Pls
2902 3145 Pls
2932 3167 Pls
2963 3184 Pls
2993 3197 Pls
3023 3207 Pls
3053 3212 Pls
3083 3214 Pls
3113 3212 Pls
3143 3208 Pls
3173 3200 Pls
3203 3190 Pls
3234 3178 Pls
3264 3164 Pls
3294 3147 Pls
3324 3130 Pls
3354 3110 Pls
3384 3090 Pls
3414 3068 Pls
3444 3045 Pls
3474 3022 Pls
3505 2997 Pls
3535 2972 Pls
3565 2946 Pls
3595 2920 Pls
3625 2893 Pls
3655 2866 Pls
3685 2838 Pls
3715 2810 Pls
2232 1938 Pls
2262 2001 Pls
2292 2065 Pls
2322 2127 Pls
2352 2190 Pls
2382 2252 Pls
2412 2313 Pls
2442 2374 Pls
2473 2434 Pls
2503 2494 Pls
2533 2552 Pls
2563 2610 Pls
2593 2666 Pls
2623 2722 Pls
2653 2776 Pls
2683 2828 Pls
2714 2879 Pls
2744 2927 Pls
2774 2974 Pls
2804 3017 Pls
2834 3058 Pls
2864 3096 Pls
2894 3130 Pls
2924 3160 Pls
2954 3186 Pls
2985 3208 Pls
3015 3225 Pls
3045 3238 Pls
3075 3247 Pls
3105 3251 Pls
3135 3252 Pls
3165 3249 Pls
3195 3243 Pls
3226 3234 Pls
3256 3222 Pls
3286 3208 Pls
3316 3192 Pls
3346 3174 Pls
3376 3155 Pls
3406 3134 Pls
3436 3112 Pls
3466 3089 Pls
3497 3065 Pls
3527 3041 Pls
3557 3015 Pls
3587 2989 Pls
3617 2962 Pls
3647 2935 Pls
3677 2907 Pls
3707 2879 Pls
3737 2850 Pls
3768 2822 Pls
2254 1884 Pls
2284 1948 Pls
2314 2012 Pls
2344 2076 Pls
2374 2140 Pls
2404 2203 Pls
2434 2266 Pls
2465 2328 Pls
2495 2390 Pls
2525 2451 Pls
2555 2512 Pls
2585 2572 Pls
2615 2631 Pls
2645 2689 Pls
2675 2746 Pls
2705 2801 Pls
2736 2855 Pls
2766 2908 Pls
2796 2958 Pls
2826 3006 Pls
2856 3052 Pls
2886 3094 Pls
2916 3133 Pls
2946 3169 Pls
2977 3200 Pls
3007 3227 Pls
3037 3249 Pls
3067 3266 Pls
3097 3279 Pls
3127 3286 Pls
3157 3290 Pls
3187 3289 Pls
3217 3285 Pls
3248 3277 Pls
3278 3266 Pls
3308 3253 Pls
3338 3237 Pls
3368 3219 Pls
3398 3200 Pls
3428 3179 Pls
3458 3157 Pls
3488 3133 Pls
3519 3109 Pls
3549 3084 Pls
3579 3058 Pls
3609 3031 Pls
3639 3004 Pls
3669 2976 Pls
3699 2948 Pls
3729 2920 Pls
3760 2891 Pls
3790 2861 Pls
3820 2832 Pls
3850 2802 Pls
2306 1892 Pls
2336 1957 Pls
2366 2022 Pls
2396 2086 Pls
2426 2151 Pls
2456 2215 Pls
2487 2278 Pls
2517 2342 Pls
2547 2404 Pls
2577 2467 Pls
2607 2529 Pls
2637 2590 Pls
2667 2650 Pls
2697 2709 Pls
2728 2768 Pls
2758 2825 Pls
2788 2881 Pls
2818 2935 Pls
2848 2987 Pls
2878 3037 Pls
2908 3084 Pls
2938 3129 Pls
2968 3170 Pls
2999 3207 Pls
3029 3239 Pls
3059 3267 Pls
3089 3290 Pls
3119 3307 Pls
3149 3319 Pls
3179 3326 Pls
3209 3328 Pls
3239 3326 Pls
3270 3319 Pls
3300 3310 Pls
3330 3297 Pls
3360 3282 Pls
3390 3264 Pls
3420 3244 Pls
3450 3223 Pls
3480 3201 Pls
3511 3177 Pls
3541 3152 Pls
3571 3127 Pls
3601 3100 Pls
3631 3073 Pls
3661 3046 Pls
3691 3017 Pls
3721 2989 Pls
3751 2960 Pls
3782 2930 Pls
3812 2901 Pls
3842 2871 Pls
3872 2841 Pls
3902 2810 Pls
2328 1832 Pls
2358 1898 Pls
2388 1964 Pls
2418 2029 Pls
2448 2095 Pls
2479 2160 Pls
2509 2225 Pls
2539 2289 Pls
2569 2353 Pls
2599 2417 Pls
2629 2480 Pls
2659 2543 Pls
2689 2605 Pls
2719 2667 Pls
2750 2728 Pls
2780 2787 Pls
2810 2846 Pls
2840 2904 Pls
2870 2960 Pls
2900 3014 Pls
2930 3066 Pls
2960 3116 Pls
2990 3162 Pls
3021 3205 Pls
3051 3244 Pls
3081 3279 Pls
3111 3307 Pls
3141 3331 Pls
3171 3348 Pls
3201 3359 Pls
3231 3365 Pls
3262 3366 Pls
3292 3361 Pls
3322 3353 Pls
3352 3341 Pls
3382 3326 Pls
3412 3309 Pls
3442 3289 Pls
3472 3268 Pls
3502 3245 Pls
3533 3221 Pls
3563 3196 Pls
3593 3169 Pls
3623 3142 Pls
3653 3115 Pls
3683 3087 Pls
3713 3058 Pls
3743 3029 Pls
3773 2999 Pls
3804 2970 Pls
3834 2940 Pls
3864 2909 Pls
3894 2879 Pls
3924 2848 Pls
3954 2817 Pls
3984 2785 Pls
2380 1837 Pls
2410 1903 Pls
2440 1969 Pls
2470 2035 Pls
2501 2101 Pls
2531 2167 Pls
2561 2232 Pls
2591 2298 Pls
2621 2363 Pls
2651 2427 Pls
2681 2492 Pls
2711 2555 Pls
2741 2619 Pls
2772 2682 Pls
2802 2744 Pls
2832 2805 Pls
2862 2866 Pls
2892 2925 Pls
2922 2983 Pls
2952 3039 Pls
2982 3094 Pls
3013 3146 Pls
3043 3195 Pls
3073 3240 Pls
3103 3281 Pls
3133 3317 Pls
3163 3348 Pls
3193 3372 Pls
3223 3389 Pls
3253 3400 Pls
3284 3404 Pls
3314 3402 Pls
3344 3396 Pls
3374 3385 Pls
3404 3371 Pls
3434 3353 Pls
3464 3334 Pls
3494 3312 Pls
3525 3289 Pls
3555 3264 Pls
3585 3238 Pls
3615 3212 Pls
3645 3184 Pls
3675 3156 Pls
3705 3127 Pls
3735 3098 Pls
3765 3068 Pls
3796 3038 Pls
3826 3008 Pls
3856 2978 Pls
3886 2947 Pls
3916 2916 Pls
3946 2884 Pls
3976 2853 Pls
4006 2821 Pls
4036 2790 Pls
2432 1839 Pls
2462 1906 Pls
2492 1973 Pls
2523 2039 Pls
2553 2106 Pls
2583 2172 Pls
2613 2238 Pls
2643 2304 Pls
2673 2370 Pls
2703 2435 Pls
2733 2501 Pls
2764 2565 Pls
2794 2630 Pls
2824 2694 Pls
2854 2757 Pls
2884 2820 Pls
2914 2882 Pls
2944 2943 Pls
2974 3003 Pls
3004 3062 Pls
3035 3118 Pls
3065 3173 Pls
3095 3225 Pls
3125 3273 Pls
3155 3317 Pls
3185 3355 Pls
3215 3388 Pls
3245 3413 Pls
3276 3430 Pls
3306 3440 Pls
3336 3442 Pls
3366 3438 Pls
3396 3429 Pls
3426 3415 Pls
3456 3398 Pls
3486 3378 Pls
3516 3356 Pls
3547 3332 Pls
3577 3307 Pls
3607 3281 Pls
3637 3253 Pls
3667 3225 Pls
3697 3196 Pls
3727 3167 Pls
3757 3137 Pls
3787 3107 Pls
3818 3077 Pls
3848 3046 Pls
3878 3015 Pls
3908 2983 Pls
3938 2952 Pls
3968 2920 Pls
3998 2889 Pls
4028 2857 Pls
4059 2825 Pls
4089 2792 Pls
2484 1840 Pls
2515 1907 Pls
2545 1975 Pls
2575 2042 Pls
2605 2109 Pls
2635 2175 Pls
2665 2242 Pls
2695 2309 Pls
2725 2375 Pls
2755 2441 Pls
2786 2507 Pls
2816 2573 Pls
2846 2638 Pls
2876 2703 Pls
2906 2768 Pls
2936 2832 Pls
2966 2896 Pls
2996 2959 Pls
3027 3021 Pls
3057 3081 Pls
3087 3140 Pls
3117 3198 Pls
3147 3252 Pls
3177 3304 Pls
3207 3351 Pls
3237 3393 Pls
3267 3427 Pls
3298 3454 Pls
3328 3471 Pls
3358 3479 Pls
3388 3479 Pls
3418 3472 Pls
3448 3460 Pls
3478 3443 Pls
3508 3423 Pls
3538 3400 Pls
3569 3376 Pls
3599 3350 Pls
3629 3323 Pls
3659 3294 Pls
3689 3265 Pls
3719 3236 Pls
3749 3206 Pls
3779 3176 Pls
3810 3145 Pls
3840 3114 Pls
3870 3082 Pls
3900 3051 Pls
3930 3019 Pls
3960 2987 Pls
3990 2955 Pls
4020 2923 Pls
4050 2891 Pls
4081 2858 Pls
4111 2826 Pls
4141 2793 Pls
2537 1839 Pls
2567 1907 Pls
2597 1974 Pls
2627 2042 Pls
2657 2109 Pls
2687 2176 Pls
2717 2244 Pls
2747 2311 Pls
2778 2378 Pls
2808 2445 Pls
2838 2511 Pls
2868 2578 Pls
2898 2644 Pls
2928 2710 Pls
2958 2776 Pls
2988 2841 Pls
3018 2906 Pls
3049 2971 Pls
3079 3034 Pls
3109 3097 Pls
3139 3159 Pls
3169 3219 Pls
3199 3277 Pls
3229 3332 Pls
3259 3383 Pls
3289 3428 Pls
3320 3466 Pls
3350 3494 Pls
3380 3512 Pls
3410 3518 Pls
3440 3515 Pls
3470 3504 Pls
3500 3488 Pls
3530 3467 Pls
3561 3444 Pls
3591 3419 Pls
3621 3392 Pls
3651 3364 Pls
3681 3335 Pls
3711 3305 Pls
3741 3275 Pls
3771 3244 Pls
3801 3213 Pls
3832 3181 Pls
3862 3150 Pls
3892 3118 Pls
3922 3086 Pls
3952 3054 Pls
3982 3021 Pls
4012 2989 Pls
4042 2956 Pls
4072 2924 Pls
4103 2891 Pls
4133 2858 Pls
4163 2825 Pls
4193 2793 Pls
2559 1769 Pls
2589 1837 Pls
2619 1905 Pls
2649 1972 Pls
2679 2040 Pls
2709 2108 Pls
2739 2175 Pls
2769 2243 Pls
2800 2311 Pls
2830 2378 Pls
2860 2445 Pls
2890 2513 Pls
2920 2580 Pls
2950 2647 Pls
2980 2714 Pls
3010 2780 Pls
3040 2847 Pls
3071 2913 Pls
3101 2979 Pls
3131 3044 Pls
3161 3109 Pls
3191 3173 Pls
3221 3236 Pls
3251 3297 Pls
3281 3356 Pls
3312 3411 Pls
3342 3462 Pls
3372 3504 Pls
3402 3535 Pls
3432 3552 Pls
3462 3556 Pls
3492 3548 Pls
3522 3533 Pls
3552 3512 Pls
3583 3488 Pls
3613 3461 Pls
3643 3433 Pls
3673 3404 Pls
3703 3373 Pls
3733 3343 Pls
3763 3312 Pls
3793 3280 Pls
3823 3248 Pls
3854 3216 Pls
3884 3184 Pls
3914 3152 Pls
3944 3119 Pls
3974 3087 Pls
4004 3054 Pls
4034 3021 Pls
4064 2988 Pls
4095 2955 Pls
4125 2922 Pls
4155 2889 Pls
4185 2856 Pls
4215 2823 Pls
4245 2790 Pls
4275 2757 Pls
2611 1764 Pls
2641 1832 Pls
2671 1900 Pls
2701 1968 Pls
2731 2036 Pls
2761 2104 Pls
2791 2172 Pls
2822 2240 Pls
2852 2308 Pls
2882 2376 Pls
2912 2444 Pls
2942 2511 Pls
2972 2579 Pls
3002 2647 Pls
3032 2714 Pls
3063 2782 Pls
3093 2849 Pls
3123 2916 Pls
3153 2983 Pls
3183 3050 Pls
3213 3116 Pls
3243 3182 Pls
3273 3247 Pls
3303 3311 Pls
3334 3374 Pls
3364 3435 Pls
3394 3491 Pls
3424 3540 Pls
3454 3575 Pls
3484 3593 Pls
3514 3592 Pls
3544 3577 Pls
3575 3556 Pls
3605 3530 Pls
3635 3502 Pls
3665 3472 Pls
3695 3442 Pls
3725 3411 Pls
3755 3379 Pls
3785 3347 Pls
3815 3315 Pls
3846 3282 Pls
3876 3249 Pls
3906 3217 Pls
3936 3184 Pls
3966 3151 Pls
3996 3118 Pls
4026 3085 Pls
4056 3052 Pls
4086 3018 Pls
4117 2985 Pls
4147 2952 Pls
4177 2919 Pls
4207 2885 Pls
4237 2852 Pls
4267 2819 Pls
4297 2785 Pls
4327 2752 Pls
2663 1758 Pls
2693 1826 Pls
2723 1894 Pls
2753 1962 Pls
2783 2031 Pls
2814 2099 Pls
2844 2167 Pls
2874 2235 Pls
2904 2303 Pls
2934 2371 Pls
2964 2439 Pls
2994 2507 Pls
3024 2575 Pls
3054 2643 Pls
3085 2711 Pls
3115 2779 Pls
3145 2847 Pls
3175 2915 Pls
3205 2983 Pls
3235 3050 Pls
3265 3118 Pls
3295 3185 Pls
3326 3252 Pls
3356 3319 Pls
3386 3385 Pls
3416 3450 Pls
3446 3513 Pls
3476 3570 Pls
3506 3615 Pls
3536 3632 Pls
3566 3622 Pls
3597 3599 Pls
3627 3571 Pls
3657 3541 Pls
3687 3509 Pls
3717 3477 Pls
3747 3445 Pls
3777 3412 Pls
3807 3379 Pls
3837 3346 Pls
3868 3313 Pls
3898 3280 Pls
3928 3247 Pls
3958 3214 Pls
3988 3180 Pls
4018 3147 Pls
4048 3114 Pls
4078 3080 Pls
4109 3047 Pls
4139 3013 Pls
4169 2980 Pls
4199 2947 Pls
4229 2913 Pls
4259 2880 Pls
4289 2846 Pls
4319 2813 Pls
4349 2779 Pls
4380 2746 Pls
2715 1750 Pls
2745 1818 Pls
2775 1886 Pls
2805 1954 Pls
2836 2023 Pls
2866 2091 Pls
2896 2159 Pls
2926 2227 Pls
2956 2295 Pls
2986 2364 Pls
3016 2432 Pls
3046 2500 Pls
3077 2568 Pls
3107 2636 Pls
3137 2705 Pls
3167 2773 Pls
3197 2841 Pls
3227 2909 Pls
3257 2977 Pls
3287 3046 Pls
3317 3114 Pls
3348 3182 Pls
3378 3250 Pls
3408 3318 Pls
3438 3386 Pls
3468 3454 Pls
3498 3521 Pls
3528 3588 Pls
3558 3650 Pls
3588 3667 Pls
3619 3640 Pls
3649 3608 Pls
3679 3575 Pls
3709 3542 Pls
3739 3509 Pls
3769 3475 Pls
3799 3442 Pls
3829 3408 Pls
3860 3375 Pls
3890 3341 Pls
3920 3308 Pls
3950 3274 Pls
3980 3241 Pls
4010 3207 Pls
4040 3174 Pls
4070 3140 Pls
4100 3107 Pls
4131 3073 Pls
4161 3040 Pls
4191 3006 Pls
4221 2972 Pls
4251 2939 Pls
4281 2905 Pls
4311 2872 Pls
4341 2838 Pls
4371 2805 Pls
4402 2771 Pls
4432 2738 Pls
2767 1740 Pls
2797 1808 Pls
2828 1876 Pls
2858 1944 Pls
2888 2013 Pls
2918 2081 Pls
2948 2149 Pls
2978 2217 Pls
3008 2286 Pls
3038 2354 Pls
3068 2422 Pls
3099 2490 Pls
3129 2558 Pls
3159 2626 Pls
3189 2695 Pls
3219 2763 Pls
3249 2831 Pls
3279 2899 Pls
3309 2967 Pls
3339 3036 Pls
3370 3104 Pls
3400 3172 Pls
3430 3240 Pls
3460 3308 Pls
3490 3376 Pls
3520 3444 Pls
3550 3511 Pls
3580 3578 Pls
3611 3640 Pls
3641 3657 Pls
3671 3630 Pls
3701 3598 Pls
3731 3565 Pls
3761 3532 Pls
3791 3499 Pls
3821 3465 Pls
3851 3432 Pls
3882 3398 Pls
3912 3365 Pls
3942 3331 Pls
3972 3298 Pls
4002 3264 Pls
4032 3231 Pls
4062 3197 Pls
4092 3164 Pls
4122 3130 Pls
4153 3097 Pls
4183 3063 Pls
4213 3030 Pls
4243 2996 Pls
4273 2962 Pls
4303 2929 Pls
4333 2895 Pls
4363 2862 Pls
4394 2828 Pls
4424 2795 Pls
4454 2761 Pls
4484 2728 Pls
2819 1728 Pls
2850 1796 Pls
2880 1864 Pls
2910 1932 Pls
2940 2001 Pls
2970 2069 Pls
3000 2137 Pls
3030 2205 Pls
3060 2273 Pls
3090 2341 Pls
3121 2409 Pls
3151 2477 Pls
3181 2545 Pls
3211 2613 Pls
3241 2681 Pls
3271 2749 Pls
3301 2817 Pls
3331 2885 Pls
3362 2953 Pls
3392 3020 Pls
3422 3088 Pls
3452 3155 Pls
3482 3222 Pls
3512 3289 Pls
3542 3355 Pls
3572 3420 Pls
3602 3482 Pls
3633 3540 Pls
3663 3585 Pls
3693 3602 Pls
3723 3592 Pls
3753 3569 Pls
3783 3541 Pls
3813 3511 Pls
3843 3479 Pls
3873 3447 Pls
3904 3415 Pls
3934 3382 Pls
3964 3349 Pls
3994 3316 Pls
4024 3283 Pls
4054 3250 Pls
4084 3217 Pls
4114 3184 Pls
4145 3150 Pls
4175 3117 Pls
4205 3084 Pls
4235 3050 Pls
4265 3017 Pls
4295 2983 Pls
4325 2950 Pls
4355 2917 Pls
4385 2883 Pls
4416 2850 Pls
4446 2816 Pls
4476 2783 Pls
4506 2749 Pls
4536 2716 Pls
2872 1714 Pls
2902 1782 Pls
2932 1850 Pls
2962 1918 Pls
2992 1986 Pls
3022 2054 Pls
3052 2122 Pls
3082 2190 Pls
3113 2258 Pls
3143 2326 Pls
3173 2394 Pls
3203 2461 Pls
3233 2529 Pls
3263 2597 Pls
3293 2664 Pls
3323 2732 Pls
3353 2799 Pls
3384 2866 Pls
3414 2933 Pls
3444 3000 Pls
3474 3066 Pls
3504 3132 Pls
3534 3197 Pls
3564 3261 Pls
3594 3324 Pls
3624 3385 Pls
3655 3441 Pls
3685 3490 Pls
3715 3525 Pls
3745 3543 Pls
3775 3542 Pls
3805 3527 Pls
3835 3506 Pls
3865 3480 Pls
3896 3452 Pls
3926 3422 Pls
3956 3392 Pls
3986 3361 Pls
4016 3329 Pls
4046 3297 Pls
4076 3265 Pls
4106 3232 Pls
4136 3199 Pls
4167 3167 Pls
4197 3134 Pls
4227 3101 Pls
4257 3068 Pls
4287 3035 Pls
4317 3002 Pls
4347 2969 Pls
4377 2935 Pls
4408 2902 Pls
4438 2869 Pls
4468 2836 Pls
4498 2802 Pls
4528 2769 Pls
4558 2736 Pls
4588 2702 Pls
2924 1699 Pls
2954 1767 Pls
2984 1835 Pls
3014 1902 Pls
3044 1970 Pls
3074 2038 Pls
3104 2106 Pls
3135 2173 Pls
3165 2241 Pls
3195 2308 Pls
3225 2375 Pls
3255 2443 Pls
3285 2510 Pls
3315 2577 Pls
3345 2644 Pls
3376 2710 Pls
3406 2777 Pls
3436 2843 Pls
3466 2909 Pls
3496 2974 Pls
3526 3039 Pls
3556 3103 Pls
3586 3166 Pls
3616 3227 Pls
3647 3286 Pls
3677 3341 Pls
3707 3392 Pls
3737 3434 Pls
3767 3465 Pls
3797 3482 Pls
3827 3486 Pls
3857 3478 Pls
3887 3463 Pls
3918 3442 Pls
3948 3417 Pls
3978 3391 Pls
4008 3363 Pls
4038 3334 Pls
4068 3303 Pls
4098 3273 Pls
4128 3242 Pls
4159 3210 Pls
4189 3178 Pls
4219 3146 Pls
4249 3114 Pls
4279 3082 Pls
4309 3049 Pls
4339 3017 Pls
4369 2984 Pls
4399 2951 Pls
4430 2918 Pls
4460 2885 Pls
4490 2852 Pls
4520 2819 Pls
4550 2786 Pls
4580 2753 Pls
4610 2720 Pls
4640 2687 Pls
3006 1750 Pls
3036 1817 Pls
3066 1885 Pls
3096 1952 Pls
3127 2019 Pls
3157 2087 Pls
3187 2154 Pls
3217 2221 Pls
3247 2288 Pls
3277 2355 Pls
3307 2421 Pls
3337 2488 Pls
3367 2554 Pls
3398 2620 Pls
3428 2686 Pls
3458 2751 Pls
3488 2816 Pls
3518 2881 Pls
3548 2944 Pls
3578 3007 Pls
3608 3069 Pls
3638 3129 Pls
3669 3187 Pls
3699 3242 Pls
3729 3293 Pls
3759 3338 Pls
3789 3376 Pls
3819 3404 Pls
3849 3422 Pls
3879 3428 Pls
3910 3425 Pls
3940 3414 Pls
3970 3398 Pls
4000 3377 Pls
4030 3354 Pls
4060 3329 Pls
4090 3302 Pls
4120 3274 Pls
4150 3245 Pls
4181 3215 Pls
4211 3185 Pls
4241 3154 Pls
4271 3123 Pls
4301 3091 Pls
4331 3060 Pls
4361 3028 Pls
4391 2996 Pls
4421 2964 Pls
4452 2931 Pls
4482 2899 Pls
4512 2866 Pls
4542 2834 Pls
4572 2801 Pls
4602 2768 Pls
4632 2735 Pls
4662 2703 Pls
3058 1730 Pls
3088 1798 Pls
3118 1865 Pls
3149 1932 Pls
3179 1999 Pls
3209 2065 Pls
3239 2132 Pls
3269 2199 Pls
3299 2265 Pls
3329 2331 Pls
3359 2397 Pls
3389 2463 Pls
3420 2528 Pls
3450 2593 Pls
3480 2658 Pls
3510 2722 Pls
3540 2786 Pls
3570 2849 Pls
3600 2911 Pls
3630 2971 Pls
3661 3030 Pls
3691 3088 Pls
3721 3142 Pls
3751 3194 Pls
3781 3241 Pls
3811 3283 Pls
3841 3317 Pls
3871 3344 Pls
3901 3361 Pls
3932 3369 Pls
3962 3369 Pls
3992 3362 Pls
4022 3350 Pls
4052 3333 Pls
4082 3313 Pls
4112 3290 Pls
4142 3266 Pls
4172 3240 Pls
4203 3213 Pls
4233 3184 Pls
4263 3155 Pls
4293 3126 Pls
4323 3096 Pls
4353 3066 Pls
4383 3035 Pls
4413 3004 Pls
4444 2972 Pls
4474 2941 Pls
4504 2909 Pls
4534 2877 Pls
4564 2845 Pls
4594 2813 Pls
4624 2781 Pls
4654 2748 Pls
4684 2716 Pls
4715 2683 Pls
3110 1709 Pls
3140 1776 Pls
3171 1843 Pls
3201 1910 Pls
3231 1976 Pls
3261 2042 Pls
3291 2108 Pls
3321 2174 Pls
3351 2240 Pls
3381 2305 Pls
3412 2371 Pls
3442 2435 Pls
3472 2500 Pls
3502 2564 Pls
3532 2627 Pls
3562 2690 Pls
3592 2752 Pls
3622 2813 Pls
3652 2873 Pls
3683 2932 Pls
3713 2988 Pls
3743 3043 Pls
3773 3095 Pls
3803 3143 Pls
3833 3187 Pls
3863 3225 Pls
3893 3258 Pls
3923 3283 Pls
3954 3300 Pls
3984 3310 Pls
4014 3312 Pls
4044 3308 Pls
4074 3299 Pls
4104 3285 Pls
4134 3268 Pls
4164 3248 Pls
4195 3226 Pls
4225 3202 Pls
4255 3177 Pls
4285 3151 Pls
4315 3123 Pls
4345 3095 Pls
4375 3066 Pls
4405 3037 Pls
4435 3007 Pls
4466 2977 Pls
4496 2947 Pls
4526 2916 Pls
4556 2885 Pls
4586 2853 Pls
4616 2822 Pls
4646 2790 Pls
4676 2759 Pls
4707 2727 Pls
4737 2695 Pls
4767 2663 Pls
3163 1687 Pls
3193 1753 Pls
3223 1819 Pls
3253 1885 Pls
3283 1951 Pls
3313 2017 Pls
3343 2082 Pls
3373 2148 Pls
3403 2213 Pls
3434 2277 Pls
3464 2342 Pls
3494 2405 Pls
3524 2469 Pls
3554 2532 Pls
3584 2594 Pls
3614 2655 Pls
3644 2716 Pls
3674 2775 Pls
3705 2833 Pls
3735 2889 Pls
3765 2944 Pls
3795 2995 Pls
3825 3045 Pls
3855 3090 Pls
3885 3131 Pls
3915 3167 Pls
3946 3198 Pls
3976 3222 Pls
4006 3239 Pls
4036 3250 Pls
4066 3254 Pls
4096 3252 Pls
4126 3246 Pls
4156 3235 Pls
4186 3221 Pls
4217 3203 Pls
4247 3184 Pls
4277 3162 Pls
4307 3139 Pls
4337 3114 Pls
4367 3088 Pls
4397 3062 Pls
4427 3034 Pls
4458 3006 Pls
4488 2977 Pls
4518 2948 Pls
4548 2918 Pls
4578 2888 Pls
4608 2858 Pls
4638 2828 Pls
4668 2797 Pls
4698 2766 Pls
4729 2735 Pls
4759 2703 Pls
4789 2672 Pls
4819 2640 Pls
3215 1662 Pls
3245 1728 Pls
3275 1794 Pls
3305 1860 Pls
3335 1925 Pls
3365 1990 Pls
3395 2055 Pls
3426 2119 Pls
3456 2183 Pls
3486 2247 Pls
3516 2310 Pls
3546 2373 Pls
3576 2435 Pls
3606 2497 Pls
3636 2558 Pls
3666 2618 Pls
3697 2676 Pls
3727 2734 Pls
3757 2790 Pls
3787 2844 Pls
3817 2896 Pls
3847 2946 Pls
3877 2992 Pls
3907 3035 Pls
3937 3074 Pls
3968 3108 Pls
3998 3137 Pls
4028 3161 Pls
4058 3178 Pls
4088 3189 Pls
4118 3195 Pls
4148 3196 Pls
4178 3191 Pls
4209 3183 Pls
4239 3171 Pls
4269 3156 Pls
4299 3139 Pls
4329 3119 Pls
4359 3098 Pls
4389 3075 Pls
4419 3051 Pls
4449 3025 Pls
4480 2999 Pls
4510 2972 Pls
4540 2945 Pls
4570 2917 Pls
4600 2888 Pls
4630 2859 Pls
4660 2830 Pls
4690 2800 Pls
4720 2770 Pls
4751 2739 Pls
4781 2709 Pls
4811 2678 Pls
4841 2647 Pls
4871 2616 Pls
3297 1702 Pls
3327 1767 Pls
3357 1832 Pls
3387 1896 Pls
3417 1961 Pls
3448 2025 Pls
3478 2088 Pls
3508 2152 Pls
3538 2215 Pls
3568 2277 Pls
3598 2339 Pls
3628 2400 Pls
3658 2460 Pls
3688 2519 Pls
3719 2578 Pls
3749 2635 Pls
3779 2691 Pls
3809 2745 Pls
3839 2797 Pls
3869 2847 Pls
3899 2894 Pls
3929 2939 Pls
3960 2980 Pls
3990 3017 Pls
4020 3049 Pls
4050 3077 Pls
4080 3100 Pls
4110 3117 Pls
4140 3129 Pls
4170 3136 Pls
4200 3138 Pls
4231 3136 Pls
4261 3129 Pls
4291 3120 Pls
4321 3107 Pls
4351 3091 Pls
4381 3074 Pls
4411 3054 Pls
4441 3033 Pls
4471 3011 Pls
4502 2987 Pls
4532 2962 Pls
4562 2937 Pls
4592 2910 Pls
4622 2883 Pls
4652 2856 Pls
4682 2828 Pls
4712 2799 Pls
4743 2770 Pls
4773 2741 Pls
4803 2711 Pls
4833 2681 Pls
4863 2651 Pls
4893 2620 Pls
3349 1674 Pls
3379 1738 Pls
3409 1802 Pls
3439 1866 Pls
3470 1930 Pls
3500 1993 Pls
3530 2056 Pls
3560 2118 Pls
3590 2180 Pls
3620 2241 Pls
3650 2302 Pls
3680 2362 Pls
3711 2421 Pls
3741 2479 Pls
3771 2536 Pls
3801 2591 Pls
3831 2645 Pls
3861 2698 Pls
3891 2748 Pls
3921 2796 Pls
3951 2841 Pls
3982 2884 Pls
4012 2923 Pls
4042 2958 Pls
4072 2990 Pls
4102 3016 Pls
4132 3039 Pls
4162 3056 Pls
4192 3068 Pls
4222 3076 Pls
4253 3080 Pls
4283 3079 Pls
4313 3075 Pls
4343 3067 Pls
4373 3056 Pls
4403 3043 Pls
4433 3027 Pls
4463 3009 Pls
4494 2990 Pls
4524 2969 Pls
4554 2947 Pls
4584 2923 Pls
4614 2899 Pls
4644 2874 Pls
4674 2848 Pls
4704 2821 Pls
4734 2794 Pls
4765 2767 Pls
4795 2738 Pls
4825 2710 Pls
4855 2681 Pls
4885 2652 Pls
4915 2622 Pls
4945 2592 Pls
3431 1708 Pls
3462 1772 Pls
3492 1835 Pls
3522 1898 Pls
3552 1960 Pls
3582 2022 Pls
3612 2083 Pls
3642 2144 Pls
3672 2204 Pls
3702 2264 Pls
3733 2322 Pls
3763 2380 Pls
3793 2436 Pls
3823 2492 Pls
3853 2546 Pls
3883 2598 Pls
3913 2649 Pls
3943 2697 Pls
3973 2744 Pls
4004 2787 Pls
4034 2828 Pls
4064 2866 Pls
4094 2900 Pls
4124 2930 Pls
4154 2956 Pls
4184 2978 Pls
4214 2995 Pls
4245 3008 Pls
4275 3017 Pls
4305 3021 Pls
4335 3022 Pls
4365 3019 Pls
4395 3013 Pls
4425 3004 Pls
4455 2992 Pls
4485 2978 Pls
4516 2962 Pls
4546 2944 Pls
4576 2925 Pls
4606 2904 Pls
4636 2882 Pls
4666 2859 Pls
4696 2835 Pls
4726 2811 Pls
4757 2785 Pls
4787 2759 Pls
4817 2732 Pls
4847 2705 Pls
4877 2677 Pls
4907 2649 Pls
4937 2621 Pls
4967 2592 Pls
3484 1676 Pls
3514 1739 Pls
3544 1801 Pls
3574 1863 Pls
3604 1925 Pls
3634 1986 Pls
3664 2046 Pls
3694 2106 Pls
3725 2165 Pls
3755 2223 Pls
3785 2281 Pls
3815 2337 Pls
3845 2392 Pls
3875 2446 Pls
3905 2499 Pls
3935 2550 Pls
3965 2599 Pls
3996 2646 Pls
4026 2690 Pls
4056 2732 Pls
4086 2772 Pls
4116 2808 Pls
4146 2841 Pls
4176 2870 Pls
4206 2895 Pls
4236 2917 Pls
4267 2934 Pls
4297 2947 Pls
4327 2956 Pls
4357 2962 Pls
4387 2964 Pls
4417 2962 Pls
4447 2958 Pls
4477 2950 Pls
4508 2940 Pls
4538 2928 Pls
4568 2914 Pls
4598 2897 Pls
4628 2880 Pls
4658 2860 Pls
4688 2840 Pls
4718 2818 Pls
4748 2795 Pls
4779 2772 Pls
4809 2747 Pls
4839 2722 Pls
4869 2696 Pls
4899 2670 Pls
4929 2643 Pls
4959 2616 Pls
4989 2588 Pls
5019 2560 Pls
3566 1705 Pls
3596 1767 Pls
3626 1828 Pls
3656 1888 Pls
3686 1949 Pls
3716 2008 Pls
3747 2067 Pls
3777 2125 Pls
3807 2182 Pls
3837 2238 Pls
3867 2293 Pls
3897 2347 Pls
3927 2399 Pls
3957 2451 Pls
3987 2500 Pls
4018 2547 Pls
4048 2593 Pls
4078 2636 Pls
4108 2677 Pls
4138 2715 Pls
4168 2750 Pls
4198 2781 Pls
4228 2810 Pls
4259 2834 Pls
4289 2855 Pls
4319 2873 Pls
4349 2886 Pls
4379 2896 Pls
4409 2903 Pls
4439 2906 Pls
4469 2905 Pls
4499 2902 Pls
4530 2896 Pls
4560 2887 Pls
4590 2877 Pls
4620 2864 Pls
4650 2849 Pls
4680 2833 Pls
4710 2815 Pls
4740 2796 Pls
4770 2775 Pls
4801 2754 Pls
4831 2731 Pls
4861 2708 Pls
4891 2684 Pls
4921 2659 Pls
4951 2634 Pls
4981 2608 Pls
5011 2581 Pls
5042 2554 Pls
3618 1670 Pls
3648 1730 Pls
3678 1791 Pls
3708 1850 Pls
3738 1910 Pls
3769 1968 Pls
3799 2026 Pls
3829 2083 Pls
3859 2139 Pls
3889 2194 Pls
3919 2247 Pls
3949 2300 Pls
3979 2351 Pls
4010 2401 Pls
4040 2449 Pls
4070 2495 Pls
4100 2539 Pls
4130 2581 Pls
4160 2620 Pls
4190 2657 Pls
4220 2691 Pls
4250 2722 Pls
4281 2749 Pls
4311 2774 Pls
4341 2794 Pls
4371 2812 Pls
4401 2826 Pls
4431 2836 Pls
4461 2843 Pls
4491 2847 Pls
4521 2848 Pls
4552 2846 Pls
4582 2841 Pls
4612 2834 Pls
4642 2824 Pls
4672 2813 Pls
4702 2800 Pls
4732 2785 Pls
4762 2768 Pls
4793 2750 Pls
4823 2731 Pls
4853 2711 Pls
4883 2689 Pls
4913 2667 Pls
4943 2644 Pls
4973 2620 Pls
5003 2596 Pls
5033 2571 Pls
5064 2545 Pls
5094 2519 Pls
3700 1693 Pls
3730 1752 Pls
3761 1811 Pls
3791 1869 Pls
3821 1927 Pls
3851 1984 Pls
3881 2039 Pls
3911 2094 Pls
3941 2148 Pls
3971 2201 Pls
4001 2252 Pls
4032 2302 Pls
4062 2350 Pls
4092 2397 Pls
4122 2442 Pls
4152 2485 Pls
4182 2525 Pls
4212 2563 Pls
4242 2599 Pls
4272 2632 Pls
4303 2662 Pls
4333 2689 Pls
4363 2713 Pls
4393 2733 Pls
4423 2751 Pls
4453 2765 Pls
4483 2776 Pls
4513 2783 Pls
4544 2788 Pls
4574 2790 Pls
4604 2789 Pls
4634 2785 Pls
4664 2779 Pls
4694 2771 Pls
4724 2761 Pls
4754 2749 Pls
4784 2735 Pls
4815 2720 Pls
4845 2703 Pls
4875 2685 Pls
4905 2666 Pls
4935 2646 Pls
4965 2625 Pls
4995 2603 Pls
5025 2580 Pls
5055 2556 Pls
5086 2532 Pls
5116 2507 Pls
3752 1654 Pls
3783 1713 Pls
3813 1771 Pls
3843 1828 Pls
3873 1884 Pls
3903 1940 Pls
3933 1995 Pls
3963 2049 Pls
3993 2101 Pls
4023 2153 Pls
4054 2203 Pls
4084 2252 Pls
4114 2299 Pls
4144 2344 Pls
4174 2388 Pls
4204 2430 Pls
4234 2469 Pls
4264 2506 Pls
4295 2541 Pls
4325 2573 Pls
4355 2602 Pls
4385 2628 Pls
4415 2652 Pls
4445 2672 Pls
4475 2690 Pls
4505 2704 Pls
4535 2715 Pls
4566 2723 Pls
4596 2729 Pls
4626 2731 Pls
4656 2731 Pls
4686 2729 Pls
4716 2724 Pls
4746 2717 Pls
4776 2708 Pls
4807 2697 Pls
4837 2685 Pls
4867 2671 Pls
4897 2655 Pls
4927 2638 Pls
4957 2620 Pls
4987 2601 Pls
5017 2581 Pls
5047 2560 Pls
5078 2538 Pls
5108 2516 Pls
5138 2492 Pls
5168 2468 Pls
3835 1672 Pls
3865 1729 Pls
3895 1785 Pls
3925 1841 Pls
3955 1895 Pls
3985 1949 Pls
4015 2002 Pls
4046 2053 Pls
4076 2104 Pls
4106 2153 Pls
4136 2200 Pls
4166 2246 Pls
4196 2291 Pls
4226 2333 Pls
4256 2374 Pls
4286 2412 Pls
4317 2448 Pls
4347 2482 Pls
4377 2513 Pls
4407 2542 Pls
4437 2568 Pls
4467 2591 Pls
4497 2611 Pls
4527 2629 Pls
4558 2643 Pls
4588 2655 Pls
4618 2663 Pls
4648 2669 Pls
4678 2673 Pls
4708 2674 Pls
4738 2672 Pls
4768 2668 Pls
4798 2663 Pls
4829 2655 Pls
4859 2645 Pls
4889 2634 Pls
4919 2621 Pls
4949 2606 Pls
4979 2591 Pls
5009 2574 Pls
5039 2556 Pls
5069 2537 Pls
5100 2517 Pls
5130 2496 Pls
5160 2474 Pls
5190 2452 Pls
3917 1686 Pls
3947 1741 Pls
3977 1796 Pls
4007 1850 Pls
4037 1902 Pls
4068 1954 Pls
4098 2005 Pls
4128 2054 Pls
4158 2102 Pls
4188 2148 Pls
4218 2193 Pls
4248 2237 Pls
4278 2278 Pls
4309 2318 Pls
4339 2355 Pls
4369 2390 Pls
4399 2423 Pls
4429 2454 Pls
4459 2482 Pls
4489 2507 Pls
4519 2530 Pls
4549 2550 Pls
4580 2567 Pls
4610 2582 Pls
4640 2594 Pls
4670 2603 Pls
4700 2610 Pls
4730 2614 Pls
4760 2616 Pls
4790 2615 Pls
4820 2612 Pls
4851 2607 Pls
4881 2601 Pls
4911 2592 Pls
4941 2582 Pls
4971 2570 Pls
5001 2557 Pls
5031 2542 Pls
5061 2526 Pls
5092 2509 Pls
5122 2491 Pls
5152 2472 Pls
5182 2452 Pls
5212 2431 Pls
3999 1697 Pls
4029 1750 Pls
4060 1803 Pls
4090 1855 Pls
4120 1906 Pls
4150 1955 Pls
4180 2003 Pls
4210 2050 Pls
4240 2096 Pls
4270 2140 Pls
4300 2182 Pls
4331 2222 Pls
4361 2261 Pls
4391 2298 Pls
4421 2332 Pls
4451 2364 Pls
4481 2394 Pls
4511 2422 Pls
4541 2447 Pls
4571 2469 Pls
4602 2489 Pls
4632 2506 Pls
4662 2521 Pls
4692 2533 Pls
4722 2543 Pls
4752 2550 Pls
4782 2555 Pls
4812 2557 Pls
4843 2557 Pls
4873 2556 Pls
4903 2552 Pls
4933 2546 Pls
4963 2538 Pls
4993 2529 Pls
5023 2518 Pls
5053 2506 Pls
5083 2492 Pls
5114 2477 Pls
5144 2461 Pls
5174 2444 Pls
5204 2426 Pls
5234 2407 Pls
4082 1704 Pls
4112 1756 Pls
4142 1806 Pls
4172 1856 Pls
4202 1905 Pls
4232 1952 Pls
4262 1998 Pls
4292 2042 Pls
4322 2085 Pls
4353 2127 Pls
4383 2166 Pls
4413 2204 Pls
4443 2240 Pls
4473 2273 Pls
4503 2305 Pls
4533 2334 Pls
4563 2361 Pls
4594 2386 Pls
4624 2408 Pls
4654 2428 Pls
4684 2445 Pls
4714 2460 Pls
4744 2473 Pls
4774 2483 Pls
4804 2490 Pls
4834 2496 Pls
4865 2499 Pls
4895 2500 Pls
4925 2498 Pls
4955 2495 Pls
4985 2490 Pls
5015 2484 Pls
5045 2476 Pls
5075 2466 Pls
5106 2454 Pls
5136 2442 Pls
5166 2428 Pls
5196 2413 Pls
5226 2397 Pls
5256 2379 Pls
4164 1707 Pls
4194 1757 Pls
4224 1806 Pls
4254 1853 Pls
4284 1900 Pls
4314 1945 Pls
4345 1988 Pls
4375 2030 Pls
4405 2071 Pls
4435 2110 Pls
4465 2146 Pls
4495 2181 Pls
4525 2215 Pls
4555 2245 Pls
4585 2274 Pls
4616 2301 Pls
4646 2325 Pls
4676 2347 Pls
4706 2367 Pls
4736 2384 Pls
4766 2399 Pls
4796 2412 Pls
4826 2422 Pls
4857 2430 Pls
4887 2436 Pls
4917 2440 Pls
4947 2441 Pls
4977 2441 Pls
5007 2439 Pls
5037 2435 Pls
5067 2429 Pls
5097 2422 Pls
5128 2413 Pls
5158 2402 Pls
5188 2391 Pls
5218 2378 Pls
5248 2364 Pls
5278 2348 Pls
4246 1707 Pls
4276 1755 Pls
4306 1802 Pls
4336 1847 Pls
4367 1891 Pls
4397 1934 Pls
4427 1975 Pls
4457 2015 Pls
4487 2053 Pls
4517 2089 Pls
4547 2123 Pls
4577 2156 Pls
4608 2186 Pls
4638 2214 Pls
4668 2240 Pls
4698 2264 Pls
4728 2286 Pls
4758 2306 Pls
4788 2323 Pls
4818 2338 Pls
4848 2351 Pls
4879 2362 Pls
4909 2370 Pls
4939 2377 Pls
4969 2381 Pls
4999 2383 Pls
5029 2383 Pls
5059 2382 Pls
5089 2379 Pls
5119 2374 Pls
5150 2367 Pls
5180 2359 Pls
5210 2350 Pls
5240 2339 Pls
5270 2327 Pls
5300 2313 Pls
4328 1703 Pls
4359 1749 Pls
4389 1794 Pls
4419 1837 Pls
4449 1879 Pls
4479 1919 Pls
4509 1958 Pls
4539 1995 Pls
4569 2031 Pls
4599 2065 Pls
4630 2096 Pls
4660 2126 Pls
4690 2154 Pls
4720 2180 Pls
4750 2204 Pls
4780 2225 Pls
4810 2245 Pls
4840 2262 Pls
4870 2277 Pls
4901 2290 Pls
4931 2301 Pls
4961 2310 Pls
4991 2317 Pls
5021 2322 Pls
5051 2324 Pls
5081 2325 Pls
5111 2325 Pls
5142 2322 Pls
5172 2318 Pls
5202 2312 Pls
5232 2305 Pls
5262 2296 Pls
5292 2286 Pls
5322 2275 Pls
4441 1740 Pls
4471 1783 Pls
4501 1824 Pls
4531 1863 Pls
4561 1901 Pls
4591 1938 Pls
4621 1973 Pls
4652 2006 Pls
4682 2037 Pls
4712 2066 Pls
4742 2094 Pls
4772 2119 Pls
4802 2143 Pls
4832 2164 Pls
4862 2184 Pls
4893 2201 Pls
4923 2216 Pls
4953 2229 Pls
4983 2241 Pls
5013 2250 Pls
5043 2257 Pls
5073 2262 Pls
5103 2266 Pls
5133 2267 Pls
5164 2267 Pls
5194 2265 Pls
5224 2262 Pls
5254 2257 Pls
5284 2250 Pls
5314 2243 Pls
4553 1768 Pls
4583 1807 Pls
4613 1844 Pls
4644 1880 Pls
4674 1914 Pls
4704 1947 Pls
4734 1978 Pls
4764 2006 Pls
4794 2034 Pls
4824 2059 Pls
4854 2082 Pls
4884 2103 Pls
4915 2123 Pls
4945 2140 Pls
4975 2155 Pls
5005 2169 Pls
5035 2180 Pls
5065 2190 Pls
5095 2197 Pls
5125 2203 Pls
5155 2207 Pls
5186 2209 Pls
5216 2209 Pls
5246 2208 Pls
5276 2205 Pls
5306 2201 Pls
4666 1787 Pls
4696 1822 Pls
4726 1856 Pls
4756 1888 Pls
4786 1918 Pls
4816 1946 Pls
4846 1973 Pls
4876 1998 Pls
4907 2021 Pls
4937 2042 Pls
4967 2061 Pls
4997 2079 Pls
5027 2094 Pls
5057 2108 Pls
5087 2119 Pls
5117 2129 Pls
5147 2137 Pls
5178 2143 Pls
5208 2148 Pls
5238 2150 Pls
5268 2151 Pls
5298 2151 Pls
4808 1828 Pls
4838 1858 Pls
4868 1886 Pls
4898 1913 Pls
4929 1937 Pls
4959 1960 Pls
4989 1981 Pls
5019 2000 Pls
5049 2018 Pls
5079 2033 Pls
5109 2047 Pls
5139 2059 Pls
5169 2069 Pls
5200 2077 Pls
5230 2084 Pls
5260 2088 Pls
5011 1899 Pls
5041 1920 Pls
5071 1939 Pls
5101 1957 Pls
5131 1972 Pls
5161 1986 Pls
1.000 UL
LTb
6229 1717 M
4304 609 L
971 1249 M
4304 609 L
1.000 UP
stroke
grestore
end
showpage
%%Trailer
%%DocumentFonts: Helvetica
%%Pages: 1
