%!PS-Adobe-2.0
%%Title: single-disk.eps
%%Creator: gnuplot 4.2 patchlevel 0
%%CreationDate: Tue Mar  4 20:40:30 2008
%%DocumentFonts: (atend)
%%BoundingBox: 50 50 554 770
%%Orientation: Landscape
%%Pages: (atend)
%%EndComments
%%BeginProlog
/gnudict 256 dict def
gnudict begin
%
% The following 6 true/false flags may be edited by hand if required
% The unit line width may also be changed
%
/Color false def
/Blacktext false def
/Solid false def
/Dashlength 1 def
/Landscape true def
/Level1 false def
/Rounded false def
/TransparentPatterns false def
/gnulinewidth 5.000 def
/userlinewidth gnulinewidth def
%
/vshift -46 def
/dl1 {
  10.0 Dashlength mul mul
  Rounded { currentlinewidth 0.75 mul sub dup 0 le { pop 0.01 } if } if
} def
/dl2 {
  10.0 Dashlength mul mul
  Rounded { currentlinewidth 0.75 mul add } if
} def
/hpt_ 31.5 def
/vpt_ 31.5 def
/hpt hpt_ def
/vpt vpt_ def
Level1 {} {
/SDict 10 dict def
systemdict /pdfmark known not {
  userdict /pdfmark systemdict /cleartomark get put
} if
SDict begin [
  /Title (single-disk.eps)
  /Subject (gnuplot plot)
  /Creator (gnuplot 4.2 patchlevel 0)
  /Author (,,,)
%  /Producer (gnuplot)
%  /Keywords ()
  /CreationDate (Tue Mar  4 20:40:30 2008)
  /DOCINFO pdfmark
end
} ifelse
%
% Gnuplot Prolog Version 4.2 (August 2006)
%
/M {moveto} bind def
/L {lineto} bind def
/R {rmoveto} bind def
/V {rlineto} bind def
/N {newpath moveto} bind def
/Z {closepath} bind def
/C {setrgbcolor} bind def
/f {rlineto fill} bind def
/vpt2 vpt 2 mul def
/hpt2 hpt 2 mul def
/Lshow {currentpoint stroke M 0 vshift R 
	Blacktext {gsave 0 setgray show grestore} {show} ifelse} def
/Rshow {currentpoint stroke M dup stringwidth pop neg vshift R
	Blacktext {gsave 0 setgray show grestore} {show} ifelse} def
/Cshow {currentpoint stroke M dup stringwidth pop -2 div vshift R 
	Blacktext {gsave 0 setgray show grestore} {show} ifelse} def
/UP {dup vpt_ mul /vpt exch def hpt_ mul /hpt exch def
  /hpt2 hpt 2 mul def /vpt2 vpt 2 mul def} def
/DL {Color {setrgbcolor Solid {pop []} if 0 setdash}
 {pop pop pop 0 setgray Solid {pop []} if 0 setdash} ifelse} def
/BL {stroke userlinewidth 2 mul setlinewidth
	Rounded {1 setlinejoin 1 setlinecap} if} def
/AL {stroke userlinewidth 2 div setlinewidth
	Rounded {1 setlinejoin 1 setlinecap} if} def
/UL {dup gnulinewidth mul /userlinewidth exch def
	dup 1 lt {pop 1} if 10 mul /udl exch def} def
/PL {stroke userlinewidth setlinewidth
	Rounded {1 setlinejoin 1 setlinecap} if} def
% Default Line colors
/LCw {1 1 1} def
/LCb {0 0 0} def
/LCa {0 0 0} def
/LC0 {1 0 0} def
/LC1 {0 1 0} def
/LC2 {0 0 1} def
/LC3 {1 0 1} def
/LC4 {0 1 1} def
/LC5 {1 1 0} def
/LC6 {0 0 0} def
/LC7 {1 0.3 0} def
/LC8 {0.5 0.5 0.5} def
% Default Line Types
/LTw {PL [] 1 setgray} def
/LTb {BL [] LCb DL} def
/LTa {AL [1 udl mul 2 udl mul] 0 setdash LCa setrgbcolor} def
/LT0 {PL [] LC0 DL} def
/LT1 {PL [4 dl1 2 dl2] LC1 DL} def
/LT2 {PL [2 dl1 3 dl2] LC2 DL} def
/LT3 {PL [1 dl1 1.5 dl2] LC3 DL} def
/LT4 {PL [6 dl1 2 dl2 1 dl1 2 dl2] LC4 DL} def
/LT5 {PL [3 dl1 3 dl2 1 dl1 3 dl2] LC5 DL} def
/LT6 {PL [2 dl1 2 dl2 2 dl1 6 dl2] LC6 DL} def
/LT7 {PL [1 dl1 2 dl2 6 dl1 2 dl2 1 dl1 2 dl2] LC7 DL} def
/LT8 {PL [2 dl1 2 dl2 2 dl1 2 dl2 2 dl1 2 dl2 2 dl1 4 dl2] LC8 DL} def
/Pnt {stroke [] 0 setdash gsave 1 setlinecap M 0 0 V stroke grestore} def
/Dia {stroke [] 0 setdash 2 copy vpt add M
  hpt neg vpt neg V hpt vpt neg V
  hpt vpt V hpt neg vpt V closepath stroke
  Pnt} def
/Pls {stroke [] 0 setdash vpt sub M 0 vpt2 V
  currentpoint stroke M
  hpt neg vpt neg R hpt2 0 V stroke
 } def
/Box {stroke [] 0 setdash 2 copy exch hpt sub exch vpt add M
  0 vpt2 neg V hpt2 0 V 0 vpt2 V
  hpt2 neg 0 V closepath stroke
  Pnt} def
/Crs {stroke [] 0 setdash exch hpt sub exch vpt add M
  hpt2 vpt2 neg V currentpoint stroke M
  hpt2 neg 0 R hpt2 vpt2 V stroke} def
/TriU {stroke [] 0 setdash 2 copy vpt 1.12 mul add M
  hpt neg vpt -1.62 mul V
  hpt 2 mul 0 V
  hpt neg vpt 1.62 mul V closepath stroke
  Pnt} def
/Star {2 copy Pls Crs} def
/BoxF {stroke [] 0 setdash exch hpt sub exch vpt add M
  0 vpt2 neg V hpt2 0 V 0 vpt2 V
  hpt2 neg 0 V closepath fill} def
/TriUF {stroke [] 0 setdash vpt 1.12 mul add M
  hpt neg vpt -1.62 mul V
  hpt 2 mul 0 V
  hpt neg vpt 1.62 mul V closepath fill} def
/TriD {stroke [] 0 setdash 2 copy vpt 1.12 mul sub M
  hpt neg vpt 1.62 mul V
  hpt 2 mul 0 V
  hpt neg vpt -1.62 mul V closepath stroke
  Pnt} def
/TriDF {stroke [] 0 setdash vpt 1.12 mul sub M
  hpt neg vpt 1.62 mul V
  hpt 2 mul 0 V
  hpt neg vpt -1.62 mul V closepath fill} def
/DiaF {stroke [] 0 setdash vpt add M
  hpt neg vpt neg V hpt vpt neg V
  hpt vpt V hpt neg vpt V closepath fill} def
/Pent {stroke [] 0 setdash 2 copy gsave
  translate 0 hpt M 4 {72 rotate 0 hpt L} repeat
  closepath stroke grestore Pnt} def
/PentF {stroke [] 0 setdash gsave
  translate 0 hpt M 4 {72 rotate 0 hpt L} repeat
  closepath fill grestore} def
/Circle {stroke [] 0 setdash 2 copy
  hpt 0 360 arc stroke Pnt} def
/CircleF {stroke [] 0 setdash hpt 0 360 arc fill} def
/C0 {BL [] 0 setdash 2 copy moveto vpt 90 450 arc} bind def
/C1 {BL [] 0 setdash 2 copy moveto
	2 copy vpt 0 90 arc closepath fill
	vpt 0 360 arc closepath} bind def
/C2 {BL [] 0 setdash 2 copy moveto
	2 copy vpt 90 180 arc closepath fill
	vpt 0 360 arc closepath} bind def
/C3 {BL [] 0 setdash 2 copy moveto
	2 copy vpt 0 180 arc closepath fill
	vpt 0 360 arc closepath} bind def
/C4 {BL [] 0 setdash 2 copy moveto
	2 copy vpt 180 270 arc closepath fill
	vpt 0 360 arc closepath} bind def
/C5 {BL [] 0 setdash 2 copy moveto
	2 copy vpt 0 90 arc
	2 copy moveto
	2 copy vpt 180 270 arc closepath fill
	vpt 0 360 arc} bind def
/C6 {BL [] 0 setdash 2 copy moveto
	2 copy vpt 90 270 arc closepath fill
	vpt 0 360 arc closepath} bind def
/C7 {BL [] 0 setdash 2 copy moveto
	2 copy vpt 0 270 arc closepath fill
	vpt 0 360 arc closepath} bind def
/C8 {BL [] 0 setdash 2 copy moveto
	2 copy vpt 270 360 arc closepath fill
	vpt 0 360 arc closepath} bind def
/C9 {BL [] 0 setdash 2 copy moveto
	2 copy vpt 270 450 arc closepath fill
	vpt 0 360 arc closepath} bind def
/C10 {BL [] 0 setdash 2 copy 2 copy moveto vpt 270 360 arc closepath fill
	2 copy moveto
	2 copy vpt 90 180 arc closepath fill
	vpt 0 360 arc closepath} bind def
/C11 {BL [] 0 setdash 2 copy moveto
	2 copy vpt 0 180 arc closepath fill
	2 copy moveto
	2 copy vpt 270 360 arc closepath fill
	vpt 0 360 arc closepath} bind def
/C12 {BL [] 0 setdash 2 copy moveto
	2 copy vpt 180 360 arc closepath fill
	vpt 0 360 arc closepath} bind def
/C13 {BL [] 0 setdash 2 copy moveto
	2 copy vpt 0 90 arc closepath fill
	2 copy moveto
	2 copy vpt 180 360 arc closepath fill
	vpt 0 360 arc closepath} bind def
/C14 {BL [] 0 setdash 2 copy moveto
	2 copy vpt 90 360 arc closepath fill
	vpt 0 360 arc} bind def
/C15 {BL [] 0 setdash 2 copy vpt 0 360 arc closepath fill
	vpt 0 360 arc closepath} bind def
/Rec {newpath 4 2 roll moveto 1 index 0 rlineto 0 exch rlineto
	neg 0 rlineto closepath} bind def
/Square {dup Rec} bind def
/Bsquare {vpt sub exch vpt sub exch vpt2 Square} bind def
/S0 {BL [] 0 setdash 2 copy moveto 0 vpt rlineto BL Bsquare} bind def
/S1 {BL [] 0 setdash 2 copy vpt Square fill Bsquare} bind def
/S2 {BL [] 0 setdash 2 copy exch vpt sub exch vpt Square fill Bsquare} bind def
/S3 {BL [] 0 setdash 2 copy exch vpt sub exch vpt2 vpt Rec fill Bsquare} bind def
/S4 {BL [] 0 setdash 2 copy exch vpt sub exch vpt sub vpt Square fill Bsquare} bind def
/S5 {BL [] 0 setdash 2 copy 2 copy vpt Square fill
	exch vpt sub exch vpt sub vpt Square fill Bsquare} bind def
/S6 {BL [] 0 setdash 2 copy exch vpt sub exch vpt sub vpt vpt2 Rec fill Bsquare} bind def
/S7 {BL [] 0 setdash 2 copy exch vpt sub exch vpt sub vpt vpt2 Rec fill
	2 copy vpt Square fill Bsquare} bind def
/S8 {BL [] 0 setdash 2 copy vpt sub vpt Square fill Bsquare} bind def
/S9 {BL [] 0 setdash 2 copy vpt sub vpt vpt2 Rec fill Bsquare} bind def
/S10 {BL [] 0 setdash 2 copy vpt sub vpt Square fill 2 copy exch vpt sub exch vpt Square fill
	Bsquare} bind def
/S11 {BL [] 0 setdash 2 copy vpt sub vpt Square fill 2 copy exch vpt sub exch vpt2 vpt Rec fill
	Bsquare} bind def
/S12 {BL [] 0 setdash 2 copy exch vpt sub exch vpt sub vpt2 vpt Rec fill Bsquare} bind def
/S13 {BL [] 0 setdash 2 copy exch vpt sub exch vpt sub vpt2 vpt Rec fill
	2 copy vpt Square fill Bsquare} bind def
/S14 {BL [] 0 setdash 2 copy exch vpt sub exch vpt sub vpt2 vpt Rec fill
	2 copy exch vpt sub exch vpt Square fill Bsquare} bind def
/S15 {BL [] 0 setdash 2 copy Bsquare fill Bsquare} bind def
/D0 {gsave translate 45 rotate 0 0 S0 stroke grestore} bind def
/D1 {gsave translate 45 rotate 0 0 S1 stroke grestore} bind def
/D2 {gsave translate 45 rotate 0 0 S2 stroke grestore} bind def
/D3 {gsave translate 45 rotate 0 0 S3 stroke grestore} bind def
/D4 {gsave translate 45 rotate 0 0 S4 stroke grestore} bind def
/D5 {gsave translate 45 rotate 0 0 S5 stroke grestore} bind def
/D6 {gsave translate 45 rotate 0 0 S6 stroke grestore} bind def
/D7 {gsave translate 45 rotate 0 0 S7 stroke grestore} bind def
/D8 {gsave translate 45 rotate 0 0 S8 stroke grestore} bind def
/D9 {gsave translate 45 rotate 0 0 S9 stroke grestore} bind def
/D10 {gsave translate 45 rotate 0 0 S10 stroke grestore} bind def
/D11 {gsave translate 45 rotate 0 0 S11 stroke grestore} bind def
/D12 {gsave translate 45 rotate 0 0 S12 stroke grestore} bind def
/D13 {gsave translate 45 rotate 0 0 S13 stroke grestore} bind def
/D14 {gsave translate 45 rotate 0 0 S14 stroke grestore} bind def
/D15 {gsave translate 45 rotate 0 0 S15 stroke grestore} bind def
/DiaE {stroke [] 0 setdash vpt add M
  hpt neg vpt neg V hpt vpt neg V
  hpt vpt V hpt neg vpt V closepath stroke} def
/BoxE {stroke [] 0 setdash exch hpt sub exch vpt add M
  0 vpt2 neg V hpt2 0 V 0 vpt2 V
  hpt2 neg 0 V closepath stroke} def
/TriUE {stroke [] 0 setdash vpt 1.12 mul add M
  hpt neg vpt -1.62 mul V
  hpt 2 mul 0 V
  hpt neg vpt 1.62 mul V closepath stroke} def
/TriDE {stroke [] 0 setdash vpt 1.12 mul sub M
  hpt neg vpt 1.62 mul V
  hpt 2 mul 0 V
  hpt neg vpt -1.62 mul V closepath stroke} def
/PentE {stroke [] 0 setdash gsave
  translate 0 hpt M 4 {72 rotate 0 hpt L} repeat
  closepath stroke grestore} def
/CircE {stroke [] 0 setdash 
  hpt 0 360 arc stroke} def
/Opaque {gsave closepath 1 setgray fill grestore 0 setgray closepath} def
/DiaW {stroke [] 0 setdash vpt add M
  hpt neg vpt neg V hpt vpt neg V
  hpt vpt V hpt neg vpt V Opaque stroke} def
/BoxW {stroke [] 0 setdash exch hpt sub exch vpt add M
  0 vpt2 neg V hpt2 0 V 0 vpt2 V
  hpt2 neg 0 V Opaque stroke} def
/TriUW {stroke [] 0 setdash vpt 1.12 mul add M
  hpt neg vpt -1.62 mul V
  hpt 2 mul 0 V
  hpt neg vpt 1.62 mul V Opaque stroke} def
/TriDW {stroke [] 0 setdash vpt 1.12 mul sub M
  hpt neg vpt 1.62 mul V
  hpt 2 mul 0 V
  hpt neg vpt -1.62 mul V Opaque stroke} def
/PentW {stroke [] 0 setdash gsave
  translate 0 hpt M 4 {72 rotate 0 hpt L} repeat
  Opaque stroke grestore} def
/CircW {stroke [] 0 setdash 
  hpt 0 360 arc Opaque stroke} def
/BoxFill {gsave Rec 1 setgray fill grestore} def
/Density {
  /Fillden exch def
  currentrgbcolor
  /ColB exch def /ColG exch def /ColR exch def
  /ColR ColR Fillden mul Fillden sub 1 add def
  /ColG ColG Fillden mul Fillden sub 1 add def
  /ColB ColB Fillden mul Fillden sub 1 add def
  ColR ColG ColB setrgbcolor} def
/BoxColFill {gsave Rec PolyFill} def
/PolyFill {gsave Density fill grestore grestore} def
/h {rlineto rlineto rlineto gsave fill grestore} bind def
%
% PostScript Level 1 Pattern Fill routine for rectangles
% Usage: x y w h s a XX PatternFill
%	x,y = lower left corner of box to be filled
%	w,h = width and height of box
%	  a = angle in degrees between lines and x-axis
%	 XX = 0/1 for no/yes cross-hatch
%
/PatternFill {gsave /PFa [ 9 2 roll ] def
  PFa 0 get PFa 2 get 2 div add PFa 1 get PFa 3 get 2 div add translate
  PFa 2 get -2 div PFa 3 get -2 div PFa 2 get PFa 3 get Rec
  gsave 1 setgray fill grestore clip
  currentlinewidth 0.5 mul setlinewidth
  /PFs PFa 2 get dup mul PFa 3 get dup mul add sqrt def
  0 0 M PFa 5 get rotate PFs -2 div dup translate
  0 1 PFs PFa 4 get div 1 add floor cvi
	{PFa 4 get mul 0 M 0 PFs V} for
  0 PFa 6 get ne {
	0 1 PFs PFa 4 get div 1 add floor cvi
	{PFa 4 get mul 0 2 1 roll M PFs 0 V} for
 } if
  stroke grestore} def
%
/languagelevel where
 {pop languagelevel} {1} ifelse
 2 lt
	{/InterpretLevel1 true def}
	{/InterpretLevel1 Level1 def}
 ifelse
%
% PostScript level 2 pattern fill definitions
%
/Level2PatternFill {
/Tile8x8 {/PaintType 2 /PatternType 1 /TilingType 1 /BBox [0 0 8 8] /XStep 8 /YStep 8}
	bind def
/KeepColor {currentrgbcolor [/Pattern /DeviceRGB] setcolorspace} bind def
<< Tile8x8
 /PaintProc {0.5 setlinewidth pop 0 0 M 8 8 L 0 8 M 8 0 L stroke} 
>> matrix makepattern
/Pat1 exch def
<< Tile8x8
 /PaintProc {0.5 setlinewidth pop 0 0 M 8 8 L 0 8 M 8 0 L stroke
	0 4 M 4 8 L 8 4 L 4 0 L 0 4 L stroke}
>> matrix makepattern
/Pat2 exch def
<< Tile8x8
 /PaintProc {0.5 setlinewidth pop 0 0 M 0 8 L
	8 8 L 8 0 L 0 0 L fill}
>> matrix makepattern
/Pat3 exch def
<< Tile8x8
 /PaintProc {0.5 setlinewidth pop -4 8 M 8 -4 L
	0 12 M 12 0 L stroke}
>> matrix makepattern
/Pat4 exch def
<< Tile8x8
 /PaintProc {0.5 setlinewidth pop -4 0 M 8 12 L
	0 -4 M 12 8 L stroke}
>> matrix makepattern
/Pat5 exch def
<< Tile8x8
 /PaintProc {0.5 setlinewidth pop -2 8 M 4 -4 L
	0 12 M 8 -4 L 4 12 M 10 0 L stroke}
>> matrix makepattern
/Pat6 exch def
<< Tile8x8
 /PaintProc {0.5 setlinewidth pop -2 0 M 4 12 L
	0 -4 M 8 12 L 4 -4 M 10 8 L stroke}
>> matrix makepattern
/Pat7 exch def
<< Tile8x8
 /PaintProc {0.5 setlinewidth pop 8 -2 M -4 4 L
	12 0 M -4 8 L 12 4 M 0 10 L stroke}
>> matrix makepattern
/Pat8 exch def
<< Tile8x8
 /PaintProc {0.5 setlinewidth pop 0 -2 M 12 4 L
	-4 0 M 12 8 L -4 4 M 8 10 L stroke}
>> matrix makepattern
/Pat9 exch def
/Pattern1 {PatternBgnd KeepColor Pat1 setpattern} bind def
/Pattern2 {PatternBgnd KeepColor Pat2 setpattern} bind def
/Pattern3 {PatternBgnd KeepColor Pat3 setpattern} bind def
/Pattern4 {PatternBgnd KeepColor Landscape {Pat5} {Pat4} ifelse setpattern} bind def
/Pattern5 {PatternBgnd KeepColor Landscape {Pat4} {Pat5} ifelse setpattern} bind def
/Pattern6 {PatternBgnd KeepColor Landscape {Pat9} {Pat6} ifelse setpattern} bind def
/Pattern7 {PatternBgnd KeepColor Landscape {Pat8} {Pat7} ifelse setpattern} bind def
} def
%
%
%End of PostScript Level 2 code
%
/PatternBgnd {
  TransparentPatterns {} {gsave 1 setgray fill grestore} ifelse
} def
%
% Substitute for Level 2 pattern fill codes with
% grayscale if Level 2 support is not selected.
%
/Level1PatternFill {
/Pattern1 {0.250 Density} bind def
/Pattern2 {0.500 Density} bind def
/Pattern3 {0.750 Density} bind def
/Pattern4 {0.125 Density} bind def
/Pattern5 {0.375 Density} bind def
/Pattern6 {0.625 Density} bind def
/Pattern7 {0.875 Density} bind def
} def
%
% Now test for support of Level 2 code
%
Level1 {Level1PatternFill} {Level2PatternFill} ifelse
%
/Symbol-Oblique /Symbol findfont [1 0 .167 1 0 0] makefont
dup length dict begin {1 index /FID eq {pop pop} {def} ifelse} forall
currentdict end definefont pop
end
%%EndProlog
%%Page: 1 1
gnudict begin
gsave
50 50 translate
0.100 0.100 scale
90 rotate
0 -5040 translate
0 setgray
newpath
(Helvetica) findfont 140 scalefont setfont
1.000 UL
LTb
1.000 UL
LTb
971 1249 M
2896 2356 L
6229 1717 M
2896 2356 L
971 1249 M
0 2214 V
0 -2214 R
47 27 V
908 1188 M
( 4.6) Cshow
1.000 UL
LTb
1.000 UL
LTb
2896 2356 M
-48 -27 V
1388 1169 M
47 27 V
-111 -88 R
( 4.7) Cshow
1.000 UL
LTb
1.000 UL
LTb
3313 2276 M
-48 -27 V
1804 1089 M
48 27 V
-111 -88 R
( 4.8) Cshow
1.000 UL
LTb
1.000 UL
LTb
3728 2197 M
-47 -28 V
2221 1009 M
48 27 V
2158 948 M
( 4.9) Cshow
1.000 UL
LTb
1.000 UL
LTb
4145 2117 M
-47 -28 V
2638 929 M
47 27 V
2575 868 M
( 5) Cshow
1.000 UL
LTb
1.000 UL
LTb
4562 2037 M
-47 -28 V
3055 849 M
47 27 V
2992 788 M
( 5.1) Cshow
1.000 UL
LTb
1.000 UL
LTb
4979 1957 M
-48 -28 V
3472 769 M
47 27 V
3408 709 M
( 5.2) Cshow
1.000 UL
LTb
1.000 UL
LTb
5396 1877 M
-48 -27 V
3887 689 M
48 27 V
3824 629 M
( 5.3) Cshow
1.000 UL
LTb
1.000 UL
LTb
5812 1797 M
-47 -27 V
4304 609 M
48 28 V
4241 549 M
( 5.4) Cshow
1.000 UL
LTb
1.000 UL
LTb
6229 1717 M
-47 -27 V
4304 609 M
-54 11 V
127 -34 R
( 4.6) Cshow
1.000 UL
LTb
1.000 UL
LTb
971 1249 M
54 -11 V
4545 748 M
-55 10 V
127 -34 R
( 4.7) Cshow
1.000 UL
LTb
1.000 UL
LTb
1212 1387 M
54 -10 V
4785 886 M
-54 11 V
127 -34 R
( 4.8) Cshow
1.000 UL
LTb
1.000 UL
LTb
1452 1526 M
55 -11 V
5026 1025 M
-55 10 V
128 -34 R
( 4.9) Cshow
1.000 UL
LTb
1.000 UL
LTb
1693 1664 M
54 -10 V
5267 1163 M
-55 11 V
127 -34 R
( 5) Cshow
1.000 UL
LTb
1.000 UL
LTb
1933 1803 M
55 -11 V
5507 1302 M
-54 10 V
127 -34 R
( 5.1) Cshow
1.000 UL
LTb
1.000 UL
LTb
2174 1941 M
55 -10 V
5748 1440 M
-55 10 V
128 -33 R
( 5.2) Cshow
1.000 UL
LTb
1.000 UL
LTb
2415 2080 M
54 -11 V
5988 1578 M
-54 11 V
127 -34 R
( 5.3) Cshow
1.000 UL
LTb
1.000 UL
LTb
2655 2218 M
55 -10 V
6229 1717 M
-54 10 V
127 -33 R
( 5.4) Cshow
1.000 UL
LTb
1.000 UL
LTb
2896 2356 M
54 -10 V
971 1987 M
63 0 V
-189 0 R
( 0.01965) Rshow
1.000 UL
LTb
1.000 UL
LTb
971 2151 M
63 0 V
-189 0 R
( 0.0197) Rshow
1.000 UL
LTb
1.000 UL
LTb
971 2315 M
63 0 V
-189 0 R
( 0.01975) Rshow
1.000 UL
LTb
1.000 UL
LTb
971 2479 M
63 0 V
-189 0 R
( 0.0198) Rshow
1.000 UL
LTb
1.000 UL
LTb
971 2643 M
63 0 V
-189 0 R
( 0.01985) Rshow
1.000 UL
LTb
1.000 UL
LTb
971 2807 M
63 0 V
-189 0 R
( 0.0199) Rshow
1.000 UL
LTb
1.000 UL
LTb
971 2971 M
63 0 V
-189 0 R
( 0.01995) Rshow
1.000 UL
LTb
1.000 UL
LTb
971 3135 M
63 0 V
-189 0 R
( 0.02) Rshow
1.000 UL
LTb
1.000 UL
LTb
971 3299 M
63 0 V
-189 0 R
( 0.02005) Rshow
1.000 UL
LTb
1.000 UL
LTb
971 3463 M
63 0 V
-189 0 R
( 0.0201) Rshow
1.000 UL
LTb
1.000 UP
1.000 UP
1.000 UL
LT0
LTb
/Helvetica findfont 140 scalefont setfont
6402 4556 M
("single-disk.out") Rshow
1.000 UP
1.000 UL
LT0
6685 4556 Pls
2007 3246 Pls
2038 3263 Pls
2068 3280 Pls
2098 3298 Pls
2128 3315 Pls
2158 3332 Pls
2188 3350 Pls
2218 3367 Pls
1939 3166 Pls
1969 3184 Pls
1999 3201 Pls
2030 3218 Pls
2060 3236 Pls
2090 3253 Pls
2120 3270 Pls
2150 3288 Pls
2180 3305 Pls
2210 3322 Pls
2240 3340 Pls
2270 3357 Pls
2301 3374 Pls
2331 3392 Pls
2361 3409 Pls
2391 3426 Pls
1901 3104 Pls
1931 3122 Pls
1961 3139 Pls
1991 3156 Pls
2021 3174 Pls
2052 3191 Pls
2082 3208 Pls
2112 3226 Pls
2142 3243 Pls
2172 3260 Pls
2202 3278 Pls
2232 3295 Pls
2262 3312 Pls
2292 3330 Pls
2323 3347 Pls
2353 3364 Pls
2383 3382 Pls
2413 3399 Pls
2443 3416 Pls
2473 3433 Pls
2503 3451 Pls
2533 3468 Pls
1893 3060 Pls
1923 3077 Pls
1953 3094 Pls
1983 3112 Pls
2013 3129 Pls
2044 3146 Pls
2074 3164 Pls
2104 3181 Pls
2134 3198 Pls
2164 3216 Pls
2194 3233 Pls
2224 3250 Pls
2254 3268 Pls
2284 3285 Pls
2315 3302 Pls
2345 3320 Pls
2375 3337 Pls
2405 3354 Pls
2435 3371 Pls
2465 3389 Pls
2495 3406 Pls
2525 3423 Pls
2555 3441 Pls
2586 3458 Pls
2616 3475 Pls
2646 3493 Pls
1885 3015 Pls
1915 3032 Pls
1945 3050 Pls
1975 3067 Pls
2005 3084 Pls
2035 3102 Pls
2066 3119 Pls
2096 3136 Pls
2126 3154 Pls
2156 3171 Pls
2186 3188 Pls
2216 3206 Pls
2246 3223 Pls
2276 3240 Pls
2306 3258 Pls
2337 3275 Pls
2367 3292 Pls
2397 3310 Pls
2427 3327 Pls
2457 3344 Pls
2487 3361 Pls
2517 3379 Pls
2547 3396 Pls
2578 3413 Pls
2608 3431 Pls
2638 3448 Pls
2668 3465 Pls
2698 3483 Pls
2728 3500 Pls
2758 3517 Pls
1877 2970 Pls
1907 2988 Pls
1937 3005 Pls
1967 3022 Pls
1997 3040 Pls
2027 3057 Pls
2057 3074 Pls
2088 3092 Pls
2118 3109 Pls
2148 3126 Pls
2178 3144 Pls
2208 3161 Pls
2238 3178 Pls
2268 3196 Pls
2298 3213 Pls
2329 3230 Pls
2359 3248 Pls
2389 3265 Pls
2419 3282 Pls
2449 3300 Pls
2479 3317 Pls
2509 3334 Pls
2539 3351 Pls
2569 3369 Pls
2600 3386 Pls
2630 3403 Pls
2660 3421 Pls
2690 3438 Pls
2720 3455 Pls
2750 3473 Pls
2780 3490 Pls
2810 3507 Pls
2840 3525 Pls
2871 3542 Pls
1899 2943 Pls
1929 2960 Pls
1959 2978 Pls
1989 2995 Pls
2019 3012 Pls
2049 3030 Pls
2080 3047 Pls
2110 3064 Pls
2140 3082 Pls
2170 3099 Pls
2200 3116 Pls
2230 3134 Pls
2260 3151 Pls
2290 3168 Pls
2320 3186 Pls
2351 3203 Pls
2381 3220 Pls
2411 3238 Pls
2441 3255 Pls
2471 3272 Pls
2501 3289 Pls
2531 3307 Pls
2561 3324 Pls
2591 3341 Pls
2622 3359 Pls
2652 3376 Pls
2682 3393 Pls
2712 3411 Pls
2742 3428 Pls
2772 3445 Pls
2802 3463 Pls
2832 3480 Pls
2863 3497 Pls
2893 3515 Pls
2923 3532 Pls
2953 3549 Pls
1921 2916 Pls
1951 2933 Pls
1981 2950 Pls
2011 2968 Pls
2041 2985 Pls
2071 3002 Pls
2102 3020 Pls
2132 3037 Pls
2162 3054 Pls
2192 3072 Pls
2222 3089 Pls
2252 3106 Pls
2282 3124 Pls
2312 3141 Pls
2342 3158 Pls
2373 3176 Pls
2403 3193 Pls
2433 3210 Pls
2463 3228 Pls
2493 3245 Pls
2523 3262 Pls
2553 3279 Pls
2583 3297 Pls
2614 3314 Pls
2644 3331 Pls
2674 3349 Pls
2704 3366 Pls
2734 3383 Pls
2764 3401 Pls
2794 3418 Pls
2824 3435 Pls
2854 3453 Pls
2885 3470 Pls
2915 3487 Pls
2945 3505 Pls
2975 3522 Pls
3005 3539 Pls
3035 3557 Pls
1943 2888 Pls
1973 2906 Pls
2003 2923 Pls
2033 2940 Pls
2063 2958 Pls
2093 2975 Pls
2124 2992 Pls
2154 3010 Pls
2184 3027 Pls
2214 3044 Pls
2244 3062 Pls
2274 3079 Pls
2304 3096 Pls
2334 3114 Pls
2365 3131 Pls
2395 3148 Pls
2425 3166 Pls
2455 3183 Pls
2485 3200 Pls
2515 3218 Pls
2545 3235 Pls
2575 3252 Pls
2605 3269 Pls
2636 3287 Pls
2666 3304 Pls
2696 3321 Pls
2726 3339 Pls
2756 3356 Pls
2786 3373 Pls
2816 3391 Pls
2846 3408 Pls
2877 3425 Pls
2907 3443 Pls
2937 3460 Pls
2967 3477 Pls
2997 3495 Pls
3027 3512 Pls
3057 3529 Pls
3087 3547 Pls
3117 3564 Pls
1965 2861 Pls
1995 2878 Pls
2025 2896 Pls
2055 2913 Pls
2085 2930 Pls
2116 2948 Pls
2146 2965 Pls
2176 2982 Pls
2206 3000 Pls
2236 3017 Pls
2266 3034 Pls
2296 3052 Pls
2326 3069 Pls
2356 3086 Pls
2387 3104 Pls
2417 3121 Pls
2447 3138 Pls
2477 3156 Pls
2507 3173 Pls
2537 3190 Pls
2567 3207 Pls
2597 3225 Pls
2628 3242 Pls
2658 3259 Pls
2688 3277 Pls
2718 3294 Pls
2748 3311 Pls
2778 3329 Pls
2808 3346 Pls
2838 3363 Pls
2868 3381 Pls
2899 3398 Pls
2929 3415 Pls
2959 3433 Pls
2989 3450 Pls
3019 3467 Pls
3049 3485 Pls
3079 3502 Pls
3109 3519 Pls
3139 3537 Pls
3170 3554 Pls
3200 3571 Pls
1987 2834 Pls
2017 2851 Pls
2047 2868 Pls
2077 2886 Pls
2107 2903 Pls
2138 2920 Pls
2168 2938 Pls
2198 2955 Pls
2228 2972 Pls
2258 2990 Pls
2288 3007 Pls
2318 3024 Pls
2348 3042 Pls
2379 3059 Pls
2409 3076 Pls
2439 3094 Pls
2469 3111 Pls
2499 3128 Pls
2529 3146 Pls
2559 3163 Pls
2589 3180 Pls
2619 3197 Pls
2650 3215 Pls
2680 3232 Pls
2710 3249 Pls
2740 3267 Pls
2770 3284 Pls
2800 3301 Pls
2830 3319 Pls
2860 3336 Pls
2890 3353 Pls
2921 3371 Pls
2951 3388 Pls
2981 3405 Pls
3011 3423 Pls
3041 3440 Pls
3071 3457 Pls
3101 3475 Pls
3131 3492 Pls
3162 3509 Pls
3192 3527 Pls
3222 3544 Pls
3252 3561 Pls
3282 3579 Pls
2009 2806 Pls
2039 2824 Pls
2069 2841 Pls
2099 2858 Pls
2130 2876 Pls
2160 2893 Pls
2190 2910 Pls
2220 2928 Pls
2250 2945 Pls
2280 2962 Pls
2310 2980 Pls
2340 2997 Pls
2370 3014 Pls
2401 3032 Pls
2431 3049 Pls
2461 3066 Pls
2491 3084 Pls
2521 3101 Pls
2551 3118 Pls
2581 3136 Pls
2611 3153 Pls
2641 3170 Pls
2672 3187 Pls
2702 3205 Pls
2732 3222 Pls
2762 3239 Pls
2792 3257 Pls
2822 3274 Pls
2852 3291 Pls
2882 3309 Pls
2913 3326 Pls
2943 3343 Pls
2973 3361 Pls
3003 3378 Pls
3033 3395 Pls
3063 3413 Pls
3093 3430 Pls
3123 3447 Pls
3153 3465 Pls
3184 3482 Pls
3214 3499 Pls
3244 3517 Pls
3274 3534 Pls
3304 3551 Pls
3334 3569 Pls
3364 3586 Pls
2031 2779 Pls
2061 2796 Pls
2091 2814 Pls
2121 2831 Pls
2152 2848 Pls
2182 2866 Pls
2212 2883 Pls
2242 2900 Pls
2272 2918 Pls
2302 2935 Pls
2332 2952 Pls
2362 2970 Pls
2392 2987 Pls
2423 3004 Pls
2453 3022 Pls
2483 3039 Pls
2513 3056 Pls
2543 3074 Pls
2573 3091 Pls
2603 3108 Pls
2633 3125 Pls
2664 3143 Pls
2694 3160 Pls
2724 3177 Pls
2754 3195 Pls
2784 3212 Pls
2814 3229 Pls
2844 3247 Pls
2874 3264 Pls
2904 3281 Pls
2935 3299 Pls
2965 3316 Pls
2995 3333 Pls
3025 3351 Pls
3055 3368 Pls
3085 3385 Pls
3115 3403 Pls
3145 3420 Pls
3176 3437 Pls
3206 3455 Pls
3236 3472 Pls
3266 3489 Pls
3296 3507 Pls
3326 3524 Pls
3356 3541 Pls
3386 3559 Pls
3416 3576 Pls
3447 3593 Pls
2083 2769 Pls
2113 2786 Pls
2144 2804 Pls
2174 2821 Pls
2204 2838 Pls
2234 2856 Pls
2264 2873 Pls
2294 2890 Pls
2324 2908 Pls
2354 2925 Pls
2384 2942 Pls
2415 2960 Pls
2445 2977 Pls
2475 2994 Pls
2505 3012 Pls
2535 3029 Pls
2565 3046 Pls
2595 3064 Pls
2625 3081 Pls
2655 3098 Pls
2686 3115 Pls
2716 3133 Pls
2746 3150 Pls
2776 3167 Pls
2806 3185 Pls
2836 3202 Pls
2866 3219 Pls
2896 3237 Pls
2927 3254 Pls
2957 3271 Pls
2987 3289 Pls
3017 3306 Pls
3047 3323 Pls
3077 3341 Pls
3107 3358 Pls
3137 3375 Pls
3167 3393 Pls
3198 3410 Pls
3228 3427 Pls
3258 3445 Pls
3288 3462 Pls
3318 3479 Pls
3348 3497 Pls
3378 3514 Pls
3408 3531 Pls
3438 3549 Pls
3469 3566 Pls
3499 3583 Pls
2105 2742 Pls
2135 2759 Pls
2166 2776 Pls
2196 2794 Pls
2226 2811 Pls
2256 2828 Pls
2286 2846 Pls
2316 2863 Pls
2346 2880 Pls
2376 2898 Pls
2406 2915 Pls
2437 2932 Pls
2467 2950 Pls
2497 2967 Pls
2527 2984 Pls
2557 3002 Pls
2587 3019 Pls
2617 3036 Pls
2647 3054 Pls
2678 3071 Pls
2708 3088 Pls
2738 3105 Pls
2768 3123 Pls
2798 3140 Pls
2828 3157 Pls
2858 3175 Pls
2888 3192 Pls
2918 3209 Pls
2949 3227 Pls
2979 3244 Pls
3009 3261 Pls
3039 3279 Pls
3069 3296 Pls
3099 3313 Pls
3129 3331 Pls
3159 3348 Pls
3189 3365 Pls
3220 3383 Pls
3250 3400 Pls
3280 3417 Pls
3310 3435 Pls
3340 3452 Pls
3370 3469 Pls
3400 3487 Pls
3430 3504 Pls
3461 3521 Pls
3491 3539 Pls
3521 3556 Pls
3551 3573 Pls
3581 3591 Pls
2157 2732 Pls
2188 2749 Pls
2218 2766 Pls
2248 2784 Pls
2278 2801 Pls
2308 2818 Pls
2338 2836 Pls
2368 2853 Pls
2398 2870 Pls
2429 2888 Pls
2459 2905 Pls
2489 2922 Pls
2519 2940 Pls
2549 2957 Pls
2579 2974 Pls
2609 2992 Pls
2639 3009 Pls
2669 3026 Pls
2700 3043 Pls
2730 3061 Pls
2760 3078 Pls
2790 3095 Pls
2820 3113 Pls
2850 3130 Pls
2880 3147 Pls
2910 3165 Pls
2940 3182 Pls
2971 3199 Pls
3001 3217 Pls
3031 3234 Pls
3061 3251 Pls
3091 3269 Pls
3121 3286 Pls
3151 3303 Pls
3181 3321 Pls
3212 3338 Pls
3242 3355 Pls
3272 3373 Pls
3302 3390 Pls
3332 3407 Pls
3362 3425 Pls
3392 3442 Pls
3422 3459 Pls
3452 3477 Pls
3483 3494 Pls
3513 3511 Pls
3543 3529 Pls
3573 3546 Pls
3603 3563 Pls
3633 3581 Pls
2180 2704 Pls
2210 2722 Pls
2240 2739 Pls
2270 2756 Pls
2300 2774 Pls
2330 2791 Pls
2360 2808 Pls
2390 2826 Pls
2420 2843 Pls
2451 2860 Pls
2481 2878 Pls
2511 2895 Pls
2541 2912 Pls
2571 2930 Pls
2601 2947 Pls
2631 2964 Pls
2661 2982 Pls
2691 2999 Pls
2722 3016 Pls
2752 3033 Pls
2782 3051 Pls
2812 3068 Pls
2842 3085 Pls
2872 3103 Pls
2902 3120 Pls
2932 3137 Pls
2963 3155 Pls
2993 3172 Pls
3023 3189 Pls
3053 3207 Pls
3083 3224 Pls
3113 3241 Pls
3143 3259 Pls
3173 3276 Pls
3203 3293 Pls
3234 3311 Pls
3264 3328 Pls
3294 3345 Pls
3324 3363 Pls
3354 3380 Pls
3384 3397 Pls
3414 3415 Pls
3444 3432 Pls
3474 3449 Pls
3505 3467 Pls
3535 3484 Pls
3565 3501 Pls
3595 3519 Pls
3625 3536 Pls
3655 3553 Pls
3685 3571 Pls
3715 3588 Pls
2232 2694 Pls
2262 2712 Pls
2292 2729 Pls
2322 2746 Pls
2352 2764 Pls
2382 2781 Pls
2412 2798 Pls
2442 2816 Pls
2473 2833 Pls
2503 2850 Pls
2533 2868 Pls
2563 2885 Pls
2593 2902 Pls
2623 2920 Pls
2653 2937 Pls
2683 2954 Pls
2714 2972 Pls
2744 2989 Pls
2774 3006 Pls
2804 3023 Pls
2834 3041 Pls
2864 3058 Pls
2894 3075 Pls
2924 3093 Pls
2954 3110 Pls
2985 3127 Pls
3015 3145 Pls
3045 3162 Pls
3075 3179 Pls
3105 3197 Pls
3135 3214 Pls
3165 3231 Pls
3195 3249 Pls
3226 3266 Pls
3256 3283 Pls
3286 3301 Pls
3316 3318 Pls
3346 3335 Pls
3376 3353 Pls
3406 3370 Pls
3436 3387 Pls
3466 3405 Pls
3497 3422 Pls
3527 3439 Pls
3557 3457 Pls
3587 3474 Pls
3617 3491 Pls
3647 3509 Pls
3677 3526 Pls
3707 3543 Pls
3737 3561 Pls
3768 3578 Pls
2254 2667 Pls
2284 2684 Pls
2314 2702 Pls
2344 2719 Pls
2374 2736 Pls
2404 2754 Pls
2434 2771 Pls
2465 2788 Pls
2495 2806 Pls
2525 2823 Pls
2555 2840 Pls
2585 2858 Pls
2615 2875 Pls
2645 2892 Pls
2675 2910 Pls
2705 2927 Pls
2736 2944 Pls
2766 2961 Pls
2796 2979 Pls
2826 2996 Pls
2856 3013 Pls
2886 3031 Pls
2916 3048 Pls
2946 3065 Pls
2977 3083 Pls
3007 3100 Pls
3037 3117 Pls
3067 3135 Pls
3097 3152 Pls
3127 3169 Pls
3157 3187 Pls
3187 3204 Pls
3217 3221 Pls
3248 3239 Pls
3278 3256 Pls
3308 3273 Pls
3338 3291 Pls
3368 3308 Pls
3398 3325 Pls
3428 3343 Pls
3458 3360 Pls
3488 3377 Pls
3519 3395 Pls
3549 3412 Pls
3579 3429 Pls
3609 3447 Pls
3639 3464 Pls
3669 3481 Pls
3699 3499 Pls
3729 3516 Pls
3760 3533 Pls
3790 3551 Pls
3820 3568 Pls
3850 3585 Pls
2306 2657 Pls
2336 2674 Pls
2366 2692 Pls
2396 2709 Pls
2426 2726 Pls
2456 2744 Pls
2487 2761 Pls
2517 2778 Pls
2547 2796 Pls
2577 2813 Pls
2607 2830 Pls
2637 2848 Pls
2667 2865 Pls
2697 2882 Pls
2728 2900 Pls
2758 2917 Pls
2788 2934 Pls
2818 2951 Pls
2848 2969 Pls
2878 2986 Pls
2908 3003 Pls
2938 3021 Pls
2968 3038 Pls
2999 3055 Pls
3029 3073 Pls
3059 3090 Pls
3089 3107 Pls
3119 3125 Pls
3149 3142 Pls
3179 3159 Pls
3209 3177 Pls
3239 3194 Pls
3270 3211 Pls
3300 3229 Pls
3330 3246 Pls
3360 3263 Pls
3390 3281 Pls
3420 3298 Pls
3450 3315 Pls
3480 3333 Pls
3511 3350 Pls
3541 3367 Pls
3571 3385 Pls
3601 3402 Pls
3631 3419 Pls
3661 3437 Pls
3691 3454 Pls
3721 3471 Pls
3751 3489 Pls
3782 3506 Pls
3812 3523 Pls
3842 3541 Pls
3872 3558 Pls
3902 3575 Pls
2328 2630 Pls
2358 2647 Pls
2388 2664 Pls
2418 2682 Pls
2448 2699 Pls
2479 2716 Pls
2509 2734 Pls
2539 2751 Pls
2569 2768 Pls
2599 2786 Pls
2629 2803 Pls
2659 2820 Pls
2689 2838 Pls
2719 2855 Pls
2750 2872 Pls
2780 2890 Pls
2810 2907 Pls
2840 2924 Pls
2870 2941 Pls
2900 2959 Pls
2930 2976 Pls
2960 2993 Pls
2990 3011 Pls
3021 3028 Pls
3051 3045 Pls
3081 3063 Pls
3111 3080 Pls
3141 3097 Pls
3171 3115 Pls
3201 3132 Pls
3231 3149 Pls
3262 3167 Pls
3292 3184 Pls
3322 3201 Pls
3352 3219 Pls
3382 3236 Pls
3412 3253 Pls
3442 3271 Pls
3472 3288 Pls
3502 3305 Pls
3533 3323 Pls
3563 3340 Pls
3593 3357 Pls
3623 3375 Pls
3653 3392 Pls
3683 3409 Pls
3713 3427 Pls
3743 3444 Pls
3773 3461 Pls
3804 3479 Pls
3834 3496 Pls
3864 3513 Pls
3894 3531 Pls
3924 3548 Pls
3954 3565 Pls
3984 3583 Pls
2380 2620 Pls
2410 2637 Pls
2440 2654 Pls
2470 2672 Pls
2501 2689 Pls
2531 2706 Pls
2561 2724 Pls
2591 2741 Pls
2621 2758 Pls
2651 2776 Pls
2681 2793 Pls
2711 2810 Pls
2741 2828 Pls
2772 2845 Pls
2802 2862 Pls
2832 2879 Pls
2862 2897 Pls
2892 2914 Pls
2922 2931 Pls
2952 2949 Pls
2982 2966 Pls
3013 2983 Pls
3043 3001 Pls
3073 3018 Pls
3103 3035 Pls
3133 3053 Pls
3163 3070 Pls
3193 3087 Pls
3223 3105 Pls
3253 3122 Pls
3284 3139 Pls
3314 3157 Pls
3344 3174 Pls
3374 3191 Pls
3404 3209 Pls
3434 3226 Pls
3464 3243 Pls
3494 3261 Pls
3525 3278 Pls
3555 3295 Pls
3585 3313 Pls
3615 3330 Pls
3645 3347 Pls
3675 3365 Pls
3705 3382 Pls
3735 3399 Pls
3765 3417 Pls
3796 3434 Pls
3826 3451 Pls
3856 3469 Pls
3886 3486 Pls
3916 3503 Pls
3946 3521 Pls
3976 3538 Pls
4006 3555 Pls
4036 3573 Pls
2432 2610 Pls
2462 2627 Pls
2492 2644 Pls
2523 2662 Pls
2553 2679 Pls
2583 2696 Pls
2613 2714 Pls
2643 2731 Pls
2673 2748 Pls
2703 2766 Pls
2733 2783 Pls
2764 2800 Pls
2794 2818 Pls
2824 2835 Pls
2854 2852 Pls
2884 2869 Pls
2914 2887 Pls
2944 2904 Pls
2974 2921 Pls
3004 2939 Pls
3035 2956 Pls
3065 2973 Pls
3095 2991 Pls
3125 3008 Pls
3155 3025 Pls
3185 3043 Pls
3215 3060 Pls
3245 3077 Pls
3276 3095 Pls
3306 3112 Pls
3336 3129 Pls
3366 3147 Pls
3396 3164 Pls
3426 3181 Pls
3456 3199 Pls
3486 3216 Pls
3516 3233 Pls
3547 3251 Pls
3577 3268 Pls
3607 3285 Pls
3637 3303 Pls
3667 3320 Pls
3697 3337 Pls
3727 3355 Pls
3757 3372 Pls
3787 3389 Pls
3818 3407 Pls
3848 3424 Pls
3878 3441 Pls
3908 3459 Pls
3938 3476 Pls
3968 3493 Pls
3998 3511 Pls
4028 3528 Pls
4059 3545 Pls
4089 3563 Pls
2484 2600 Pls
2515 2617 Pls
2545 2634 Pls
2575 2652 Pls
2605 2669 Pls
2635 2686 Pls
2665 2704 Pls
2695 2721 Pls
2725 2738 Pls
2755 2756 Pls
2786 2773 Pls
2816 2790 Pls
2846 2808 Pls
2876 2825 Pls
2906 2842 Pls
2936 2859 Pls
2966 2877 Pls
2996 2894 Pls
3027 2911 Pls
3057 2929 Pls
3087 2946 Pls
3117 2963 Pls
3147 2981 Pls
3177 2998 Pls
3207 3015 Pls
3237 3033 Pls
3267 3050 Pls
3298 3067 Pls
3328 3085 Pls
3358 3102 Pls
3388 3119 Pls
3418 3137 Pls
3448 3154 Pls
3478 3171 Pls
3508 3189 Pls
3538 3206 Pls
3569 3223 Pls
3599 3241 Pls
3629 3258 Pls
3659 3275 Pls
3689 3293 Pls
3719 3310 Pls
3749 3327 Pls
3779 3345 Pls
3810 3362 Pls
3840 3379 Pls
3870 3397 Pls
3900 3414 Pls
3930 3431 Pls
3960 3449 Pls
3990 3466 Pls
4020 3483 Pls
4050 3501 Pls
4081 3518 Pls
4111 3535 Pls
4141 3553 Pls
2506 2572 Pls
2537 2590 Pls
2567 2607 Pls
2597 2624 Pls
2627 2642 Pls
2657 2659 Pls
2687 2676 Pls
2717 2694 Pls
2747 2711 Pls
2778 2728 Pls
2808 2746 Pls
2838 2763 Pls
2868 2780 Pls
2898 2797 Pls
2928 2815 Pls
2958 2832 Pls
2988 2849 Pls
3018 2867 Pls
3049 2884 Pls
3079 2901 Pls
3109 2919 Pls
3139 2936 Pls
3169 2953 Pls
3199 2971 Pls
3229 2988 Pls
3259 3005 Pls
3289 3023 Pls
3320 3040 Pls
3350 3057 Pls
3380 3075 Pls
3410 3092 Pls
3440 3109 Pls
3470 3127 Pls
3500 3144 Pls
3530 3161 Pls
3561 3179 Pls
3591 3196 Pls
3621 3213 Pls
3651 3231 Pls
3681 3248 Pls
3711 3265 Pls
3741 3283 Pls
3771 3300 Pls
3801 3317 Pls
3832 3335 Pls
3862 3352 Pls
3892 3369 Pls
3922 3387 Pls
3952 3404 Pls
3982 3421 Pls
4012 3439 Pls
4042 3456 Pls
4072 3473 Pls
4103 3491 Pls
4133 3508 Pls
4163 3525 Pls
4193 3543 Pls
4223 3560 Pls
2559 2562 Pls
2589 2580 Pls
2619 2597 Pls
2649 2614 Pls
2679 2632 Pls
2709 2649 Pls
2739 2666 Pls
2769 2684 Pls
2800 2701 Pls
2830 2718 Pls
2860 2736 Pls
2890 2753 Pls
2920 2770 Pls
2950 2787 Pls
2980 2805 Pls
3010 2822 Pls
3040 2839 Pls
3071 2857 Pls
3101 2874 Pls
3131 2891 Pls
3161 2909 Pls
3191 2926 Pls
3221 2943 Pls
3251 2961 Pls
3281 2978 Pls
3312 2995 Pls
3342 3013 Pls
3372 3030 Pls
3402 3047 Pls
3432 3065 Pls
3462 3082 Pls
3492 3099 Pls
3522 3117 Pls
3552 3134 Pls
3583 3151 Pls
3613 3169 Pls
3643 3186 Pls
3673 3203 Pls
3703 3221 Pls
3733 3238 Pls
3763 3255 Pls
3793 3273 Pls
3823 3290 Pls
3854 3307 Pls
3884 3325 Pls
3914 3342 Pls
3944 3359 Pls
3974 3377 Pls
4004 3394 Pls
4034 3411 Pls
4064 3429 Pls
4095 3446 Pls
4125 3463 Pls
4155 3481 Pls
4185 3498 Pls
4215 3515 Pls
4245 3533 Pls
4275 3550 Pls
2611 2552 Pls
2641 2570 Pls
2671 2587 Pls
2701 2604 Pls
2731 2622 Pls
2761 2639 Pls
2791 2656 Pls
2822 2674 Pls
2852 2691 Pls
2882 2708 Pls
2912 2726 Pls
2942 2743 Pls
2972 2760 Pls
3002 2777 Pls
3032 2795 Pls
3063 2812 Pls
3093 2829 Pls
3123 2847 Pls
3153 2864 Pls
3183 2881 Pls
3213 2899 Pls
3243 2916 Pls
3273 2933 Pls
3303 2951 Pls
3334 2968 Pls
3364 2985 Pls
3394 3003 Pls
3424 3020 Pls
3454 3037 Pls
3484 3055 Pls
3514 3072 Pls
3544 3089 Pls
3575 3107 Pls
3605 3124 Pls
3635 3141 Pls
3665 3159 Pls
3695 3176 Pls
3725 3193 Pls
3755 3211 Pls
3785 3228 Pls
3815 3245 Pls
3846 3263 Pls
3876 3280 Pls
3906 3297 Pls
3936 3315 Pls
3966 3332 Pls
3996 3349 Pls
4026 3367 Pls
4056 3384 Pls
4086 3401 Pls
4117 3419 Pls
4147 3436 Pls
4177 3453 Pls
4207 3471 Pls
4237 3488 Pls
4267 3505 Pls
4297 3523 Pls
4327 3540 Pls
2663 2542 Pls
2693 2560 Pls
2723 2577 Pls
2753 2594 Pls
2783 2612 Pls
2814 2629 Pls
2844 2646 Pls
2874 2664 Pls
2904 2681 Pls
2934 2698 Pls
2964 2715 Pls
2994 2733 Pls
3024 2750 Pls
3054 2767 Pls
3085 2785 Pls
3115 2802 Pls
3145 2819 Pls
3175 2837 Pls
3205 2854 Pls
3235 2871 Pls
3265 2889 Pls
3295 2906 Pls
3326 2923 Pls
3356 2941 Pls
3386 2958 Pls
3416 2975 Pls
3446 2993 Pls
3476 3010 Pls
3506 3027 Pls
3536 3045 Pls
3566 3062 Pls
3597 3079 Pls
3627 3097 Pls
3657 3114 Pls
3687 3131 Pls
3717 3149 Pls
3747 3166 Pls
3777 3183 Pls
3807 3201 Pls
3837 3218 Pls
3868 3235 Pls
3898 3253 Pls
3928 3270 Pls
3958 3287 Pls
3988 3305 Pls
4018 3322 Pls
4048 3339 Pls
4078 3357 Pls
4109 3374 Pls
4139 3391 Pls
4169 3409 Pls
4199 3426 Pls
4229 3443 Pls
4259 3461 Pls
4289 3478 Pls
4319 3495 Pls
4349 3513 Pls
4380 3530 Pls
2715 2532 Pls
2745 2550 Pls
2775 2567 Pls
2805 2584 Pls
2836 2602 Pls
2866 2619 Pls
2896 2636 Pls
2926 2654 Pls
2956 2671 Pls
2986 2688 Pls
3016 2705 Pls
3046 2723 Pls
3077 2740 Pls
3107 2757 Pls
3137 2775 Pls
3167 2792 Pls
3197 2809 Pls
3227 2827 Pls
3257 2844 Pls
3287 2861 Pls
3317 2879 Pls
3348 2896 Pls
3378 2913 Pls
3408 2931 Pls
3438 2948 Pls
3468 2965 Pls
3498 2983 Pls
3528 3000 Pls
3558 3017 Pls
3588 3035 Pls
3619 3052 Pls
3649 3069 Pls
3679 3087 Pls
3709 3104 Pls
3739 3121 Pls
3769 3139 Pls
3799 3156 Pls
3829 3173 Pls
3860 3191 Pls
3890 3208 Pls
3920 3225 Pls
3950 3243 Pls
3980 3260 Pls
4010 3277 Pls
4040 3295 Pls
4070 3312 Pls
4100 3329 Pls
4131 3347 Pls
4161 3364 Pls
4191 3381 Pls
4221 3399 Pls
4251 3416 Pls
4281 3433 Pls
4311 3451 Pls
4341 3468 Pls
4371 3485 Pls
4402 3503 Pls
4432 3520 Pls
2767 2522 Pls
2797 2540 Pls
2828 2557 Pls
2858 2574 Pls
2888 2592 Pls
2918 2609 Pls
2948 2626 Pls
2978 2644 Pls
3008 2661 Pls
3038 2678 Pls
3068 2695 Pls
3099 2713 Pls
3129 2730 Pls
3159 2747 Pls
3189 2765 Pls
3219 2782 Pls
3249 2799 Pls
3279 2817 Pls
3309 2834 Pls
3339 2851 Pls
3370 2869 Pls
3400 2886 Pls
3430 2903 Pls
3460 2921 Pls
3490 2938 Pls
3520 2955 Pls
3550 2973 Pls
3580 2990 Pls
3611 3007 Pls
3641 3025 Pls
3671 3042 Pls
3701 3059 Pls
3731 3077 Pls
3761 3094 Pls
3791 3111 Pls
3821 3129 Pls
3851 3146 Pls
3882 3163 Pls
3912 3181 Pls
3942 3198 Pls
3972 3215 Pls
4002 3233 Pls
4032 3250 Pls
4062 3267 Pls
4092 3285 Pls
4122 3302 Pls
4153 3319 Pls
4183 3337 Pls
4213 3354 Pls
4243 3371 Pls
4273 3389 Pls
4303 3406 Pls
4333 3423 Pls
4363 3441 Pls
4394 3458 Pls
4424 3475 Pls
4454 3493 Pls
4484 3510 Pls
2819 2512 Pls
2850 2530 Pls
2880 2547 Pls
2910 2564 Pls
2940 2582 Pls
2970 2599 Pls
3000 2616 Pls
3030 2634 Pls
3060 2651 Pls
3090 2668 Pls
3121 2685 Pls
3151 2703 Pls
3181 2720 Pls
3211 2737 Pls
3241 2755 Pls
3271 2772 Pls
3301 2789 Pls
3331 2807 Pls
3362 2824 Pls
3392 2841 Pls
3422 2859 Pls
3452 2876 Pls
3482 2893 Pls
3512 2911 Pls
3542 2928 Pls
3572 2945 Pls
3602 2963 Pls
3633 2980 Pls
3663 2997 Pls
3693 3015 Pls
3723 3032 Pls
3753 3049 Pls
3783 3067 Pls
3813 3084 Pls
3843 3101 Pls
3873 3119 Pls
3904 3136 Pls
3934 3153 Pls
3964 3171 Pls
3994 3188 Pls
4024 3205 Pls
4054 3223 Pls
4084 3240 Pls
4114 3257 Pls
4145 3275 Pls
4175 3292 Pls
4205 3309 Pls
4235 3327 Pls
4265 3344 Pls
4295 3361 Pls
4325 3379 Pls
4355 3396 Pls
4385 3413 Pls
4416 3431 Pls
4446 3448 Pls
4476 3465 Pls
4506 3483 Pls
4536 3500 Pls
2872 2502 Pls
2902 2520 Pls
2932 2537 Pls
2962 2554 Pls
2992 2572 Pls
3022 2589 Pls
3052 2606 Pls
3082 2623 Pls
3113 2641 Pls
3143 2658 Pls
3173 2675 Pls
3203 2693 Pls
3233 2710 Pls
3263 2727 Pls
3293 2745 Pls
3323 2762 Pls
3353 2779 Pls
3384 2797 Pls
3414 2814 Pls
3444 2831 Pls
3474 2849 Pls
3504 2866 Pls
3534 2883 Pls
3564 2901 Pls
3594 2918 Pls
3624 2935 Pls
3655 2953 Pls
3685 2970 Pls
3715 2987 Pls
3745 3005 Pls
3775 3022 Pls
3805 3039 Pls
3835 3057 Pls
3865 3074 Pls
3896 3091 Pls
3926 3109 Pls
3956 3126 Pls
3986 3143 Pls
4016 3161 Pls
4046 3178 Pls
4076 3195 Pls
4106 3213 Pls
4136 3230 Pls
4167 3247 Pls
4197 3265 Pls
4227 3282 Pls
4257 3299 Pls
4287 3317 Pls
4317 3334 Pls
4347 3351 Pls
4377 3369 Pls
4408 3386 Pls
4438 3403 Pls
4468 3421 Pls
4498 3438 Pls
4528 3455 Pls
4558 3473 Pls
4588 3490 Pls
2924 2492 Pls
2954 2510 Pls
2984 2527 Pls
3014 2544 Pls
3044 2562 Pls
3074 2579 Pls
3104 2596 Pls
3135 2613 Pls
3165 2631 Pls
3195 2648 Pls
3225 2665 Pls
3255 2683 Pls
3285 2700 Pls
3315 2717 Pls
3345 2735 Pls
3376 2752 Pls
3406 2769 Pls
3436 2787 Pls
3466 2804 Pls
3496 2821 Pls
3526 2839 Pls
3556 2856 Pls
3586 2873 Pls
3616 2891 Pls
3647 2908 Pls
3677 2925 Pls
3707 2943 Pls
3737 2960 Pls
3767 2977 Pls
3797 2995 Pls
3827 3012 Pls
3857 3029 Pls
3887 3047 Pls
3918 3064 Pls
3948 3081 Pls
3978 3099 Pls
4008 3116 Pls
4038 3133 Pls
4068 3151 Pls
4098 3168 Pls
4128 3185 Pls
4159 3203 Pls
4189 3220 Pls
4219 3237 Pls
4249 3255 Pls
4279 3272 Pls
4309 3289 Pls
4339 3307 Pls
4369 3324 Pls
4399 3341 Pls
4430 3359 Pls
4460 3376 Pls
4490 3393 Pls
4520 3411 Pls
4550 3428 Pls
4580 3445 Pls
4610 3463 Pls
4640 3480 Pls
2976 2482 Pls
3006 2500 Pls
3036 2517 Pls
3066 2534 Pls
3096 2551 Pls
3127 2569 Pls
3157 2586 Pls
3187 2603 Pls
3217 2621 Pls
3247 2638 Pls
3277 2655 Pls
3307 2673 Pls
3337 2690 Pls
3367 2707 Pls
3398 2725 Pls
3428 2742 Pls
3458 2759 Pls
3488 2777 Pls
3518 2794 Pls
3548 2811 Pls
3578 2829 Pls
3608 2846 Pls
3638 2863 Pls
3669 2881 Pls
3699 2898 Pls
3729 2915 Pls
3759 2933 Pls
3789 2950 Pls
3819 2967 Pls
3849 2985 Pls
3879 3002 Pls
3910 3019 Pls
3940 3037 Pls
3970 3054 Pls
4000 3071 Pls
4030 3089 Pls
4060 3106 Pls
4090 3123 Pls
4120 3141 Pls
4150 3158 Pls
4181 3175 Pls
4211 3193 Pls
4241 3210 Pls
4271 3227 Pls
4301 3245 Pls
4331 3262 Pls
4361 3279 Pls
4391 3297 Pls
4421 3314 Pls
4452 3331 Pls
4482 3349 Pls
4512 3366 Pls
4542 3383 Pls
4572 3401 Pls
4602 3418 Pls
4632 3435 Pls
4662 3453 Pls
4693 3470 Pls
3058 2490 Pls
3088 2507 Pls
3118 2524 Pls
3149 2541 Pls
3179 2559 Pls
3209 2576 Pls
3239 2593 Pls
3269 2611 Pls
3299 2628 Pls
3329 2645 Pls
3359 2663 Pls
3389 2680 Pls
3420 2697 Pls
3450 2715 Pls
3480 2732 Pls
3510 2749 Pls
3540 2767 Pls
3570 2784 Pls
3600 2801 Pls
3630 2819 Pls
3661 2836 Pls
3691 2853 Pls
3721 2871 Pls
3751 2888 Pls
3781 2905 Pls
3811 2923 Pls
3841 2940 Pls
3871 2957 Pls
3901 2975 Pls
3932 2992 Pls
3962 3009 Pls
3992 3027 Pls
4022 3044 Pls
4052 3061 Pls
4082 3079 Pls
4112 3096 Pls
4142 3113 Pls
4172 3131 Pls
4203 3148 Pls
4233 3165 Pls
4263 3183 Pls
4293 3200 Pls
4323 3217 Pls
4353 3235 Pls
4383 3252 Pls
4413 3269 Pls
4444 3287 Pls
4474 3304 Pls
4504 3321 Pls
4534 3339 Pls
4564 3356 Pls
4594 3373 Pls
4624 3391 Pls
4654 3408 Pls
4684 3425 Pls
4715 3443 Pls
3110 2480 Pls
3140 2497 Pls
3171 2514 Pls
3201 2531 Pls
3231 2549 Pls
3261 2566 Pls
3291 2583 Pls
3321 2601 Pls
3351 2618 Pls
3381 2635 Pls
3412 2653 Pls
3442 2670 Pls
3472 2687 Pls
3502 2705 Pls
3532 2722 Pls
3562 2739 Pls
3592 2757 Pls
3622 2774 Pls
3652 2791 Pls
3683 2809 Pls
3713 2826 Pls
3743 2843 Pls
3773 2861 Pls
3803 2878 Pls
3833 2895 Pls
3863 2913 Pls
3893 2930 Pls
3923 2947 Pls
3954 2965 Pls
3984 2982 Pls
4014 2999 Pls
4044 3017 Pls
4074 3034 Pls
4104 3051 Pls
4134 3069 Pls
4164 3086 Pls
4195 3103 Pls
4225 3121 Pls
4255 3138 Pls
4285 3155 Pls
4315 3173 Pls
4345 3190 Pls
4375 3207 Pls
4405 3225 Pls
4435 3242 Pls
4466 3259 Pls
4496 3277 Pls
4526 3294 Pls
4556 3311 Pls
4586 3329 Pls
4616 3346 Pls
4646 3363 Pls
4676 3381 Pls
4707 3398 Pls
4737 3415 Pls
4767 3433 Pls
3163 2469 Pls
3193 2487 Pls
3223 2504 Pls
3253 2521 Pls
3283 2539 Pls
3313 2556 Pls
3343 2573 Pls
3373 2591 Pls
3403 2608 Pls
3434 2625 Pls
3464 2643 Pls
3494 2660 Pls
3524 2677 Pls
3554 2695 Pls
3584 2712 Pls
3614 2729 Pls
3644 2747 Pls
3674 2764 Pls
3705 2781 Pls
3735 2799 Pls
3765 2816 Pls
3795 2833 Pls
3825 2851 Pls
3855 2868 Pls
3885 2885 Pls
3915 2903 Pls
3946 2920 Pls
3976 2937 Pls
4006 2955 Pls
4036 2972 Pls
4066 2989 Pls
4096 3007 Pls
4126 3024 Pls
4156 3041 Pls
4186 3059 Pls
4217 3076 Pls
4247 3093 Pls
4277 3111 Pls
4307 3128 Pls
4337 3145 Pls
4367 3163 Pls
4397 3180 Pls
4427 3197 Pls
4458 3215 Pls
4488 3232 Pls
4518 3249 Pls
4548 3267 Pls
4578 3284 Pls
4608 3301 Pls
4638 3319 Pls
4668 3336 Pls
4698 3353 Pls
4729 3371 Pls
4759 3388 Pls
4789 3405 Pls
4819 3423 Pls
3215 2459 Pls
3245 2477 Pls
3275 2494 Pls
3305 2511 Pls
3335 2529 Pls
3365 2546 Pls
3395 2563 Pls
3426 2581 Pls
3456 2598 Pls
3486 2615 Pls
3516 2633 Pls
3546 2650 Pls
3576 2667 Pls
3606 2685 Pls
3636 2702 Pls
3666 2719 Pls
3697 2737 Pls
3727 2754 Pls
3757 2771 Pls
3787 2789 Pls
3817 2806 Pls
3847 2823 Pls
3877 2841 Pls
3907 2858 Pls
3937 2875 Pls
3968 2893 Pls
3998 2910 Pls
4028 2927 Pls
4058 2945 Pls
4088 2962 Pls
4118 2979 Pls
4148 2997 Pls
4178 3014 Pls
4209 3031 Pls
4239 3049 Pls
4269 3066 Pls
4299 3083 Pls
4329 3101 Pls
4359 3118 Pls
4389 3135 Pls
4419 3153 Pls
4449 3170 Pls
4480 3187 Pls
4510 3205 Pls
4540 3222 Pls
4570 3239 Pls
4600 3257 Pls
4630 3274 Pls
4660 3291 Pls
4690 3309 Pls
4720 3326 Pls
4751 3343 Pls
4781 3361 Pls
4811 3378 Pls
4841 3395 Pls
4871 3413 Pls
3297 2467 Pls
3327 2484 Pls
3357 2501 Pls
3387 2519 Pls
3417 2536 Pls
3448 2553 Pls
3478 2571 Pls
3508 2588 Pls
3538 2605 Pls
3568 2623 Pls
3598 2640 Pls
3628 2657 Pls
3658 2675 Pls
3688 2692 Pls
3719 2709 Pls
3749 2727 Pls
3779 2744 Pls
3809 2761 Pls
3839 2779 Pls
3869 2796 Pls
3899 2813 Pls
3929 2831 Pls
3960 2848 Pls
3990 2865 Pls
4020 2883 Pls
4050 2900 Pls
4080 2917 Pls
4110 2935 Pls
4140 2952 Pls
4170 2969 Pls
4200 2987 Pls
4231 3004 Pls
4261 3021 Pls
4291 3039 Pls
4321 3056 Pls
4351 3073 Pls
4381 3091 Pls
4411 3108 Pls
4441 3125 Pls
4471 3143 Pls
4502 3160 Pls
4532 3177 Pls
4562 3195 Pls
4592 3212 Pls
4622 3229 Pls
4652 3247 Pls
4682 3264 Pls
4712 3281 Pls
4743 3299 Pls
4773 3316 Pls
4803 3333 Pls
4833 3351 Pls
4863 3368 Pls
4893 3385 Pls
3349 2457 Pls
3379 2474 Pls
3409 2491 Pls
3439 2509 Pls
3470 2526 Pls
3500 2543 Pls
3530 2561 Pls
3560 2578 Pls
3590 2595 Pls
3620 2613 Pls
3650 2630 Pls
3680 2647 Pls
3711 2665 Pls
3741 2682 Pls
3771 2699 Pls
3801 2717 Pls
3831 2734 Pls
3861 2751 Pls
3891 2769 Pls
3921 2786 Pls
3951 2803 Pls
3982 2821 Pls
4012 2838 Pls
4042 2855 Pls
4072 2873 Pls
4102 2890 Pls
4132 2907 Pls
4162 2925 Pls
4192 2942 Pls
4222 2959 Pls
4253 2977 Pls
4283 2994 Pls
4313 3011 Pls
4343 3029 Pls
4373 3046 Pls
4403 3063 Pls
4433 3081 Pls
4463 3098 Pls
4494 3115 Pls
4524 3133 Pls
4554 3150 Pls
4584 3167 Pls
4614 3185 Pls
4644 3202 Pls
4674 3219 Pls
4704 3237 Pls
4734 3254 Pls
4765 3271 Pls
4795 3289 Pls
4825 3306 Pls
4855 3323 Pls
4885 3341 Pls
4915 3358 Pls
4945 3375 Pls
3431 2464 Pls
3462 2481 Pls
3492 2499 Pls
3522 2516 Pls
3552 2533 Pls
3582 2551 Pls
3612 2568 Pls
3642 2585 Pls
3672 2603 Pls
3702 2620 Pls
3733 2637 Pls
3763 2655 Pls
3793 2672 Pls
3823 2689 Pls
3853 2707 Pls
3883 2724 Pls
3913 2741 Pls
3943 2759 Pls
3973 2776 Pls
4004 2793 Pls
4034 2811 Pls
4064 2828 Pls
4094 2845 Pls
4124 2863 Pls
4154 2880 Pls
4184 2897 Pls
4214 2915 Pls
4245 2932 Pls
4275 2949 Pls
4305 2967 Pls
4335 2984 Pls
4365 3001 Pls
4395 3019 Pls
4425 3036 Pls
4455 3053 Pls
4485 3071 Pls
4516 3088 Pls
4546 3105 Pls
4576 3123 Pls
4606 3140 Pls
4636 3157 Pls
4666 3175 Pls
4696 3192 Pls
4726 3209 Pls
4757 3227 Pls
4787 3244 Pls
4817 3261 Pls
4847 3279 Pls
4877 3296 Pls
4907 3313 Pls
4937 3331 Pls
4967 3348 Pls
3484 2454 Pls
3514 2471 Pls
3544 2489 Pls
3574 2506 Pls
3604 2523 Pls
3634 2541 Pls
3664 2558 Pls
3694 2575 Pls
3725 2593 Pls
3755 2610 Pls
3785 2627 Pls
3815 2645 Pls
3845 2662 Pls
3875 2679 Pls
3905 2697 Pls
3935 2714 Pls
3965 2731 Pls
3996 2749 Pls
4026 2766 Pls
4056 2783 Pls
4086 2801 Pls
4116 2818 Pls
4146 2835 Pls
4176 2853 Pls
4206 2870 Pls
4236 2887 Pls
4267 2905 Pls
4297 2922 Pls
4327 2939 Pls
4357 2957 Pls
4387 2974 Pls
4417 2991 Pls
4447 3009 Pls
4477 3026 Pls
4508 3043 Pls
4538 3061 Pls
4568 3078 Pls
4598 3095 Pls
4628 3113 Pls
4658 3130 Pls
4688 3147 Pls
4718 3165 Pls
4748 3182 Pls
4779 3199 Pls
4809 3217 Pls
4839 3234 Pls
4869 3251 Pls
4899 3269 Pls
4929 3286 Pls
4959 3303 Pls
4989 3321 Pls
5019 3338 Pls
3566 2461 Pls
3596 2479 Pls
3626 2496 Pls
3656 2513 Pls
3686 2531 Pls
3716 2548 Pls
3747 2565 Pls
3777 2583 Pls
3807 2600 Pls
3837 2617 Pls
3867 2635 Pls
3897 2652 Pls
3927 2669 Pls
3957 2687 Pls
3987 2704 Pls
4018 2721 Pls
4048 2739 Pls
4078 2756 Pls
4108 2773 Pls
4138 2791 Pls
4168 2808 Pls
4198 2825 Pls
4228 2843 Pls
4259 2860 Pls
4289 2877 Pls
4319 2895 Pls
4349 2912 Pls
4379 2929 Pls
4409 2947 Pls
4439 2964 Pls
4469 2981 Pls
4499 2999 Pls
4530 3016 Pls
4560 3033 Pls
4590 3051 Pls
4620 3068 Pls
4650 3085 Pls
4680 3103 Pls
4710 3120 Pls
4740 3137 Pls
4770 3155 Pls
4801 3172 Pls
4831 3189 Pls
4861 3207 Pls
4891 3224 Pls
4921 3241 Pls
4951 3259 Pls
4981 3276 Pls
5011 3293 Pls
5042 3311 Pls
3618 2451 Pls
3648 2469 Pls
3678 2486 Pls
3708 2503 Pls
3738 2521 Pls
3769 2538 Pls
3799 2555 Pls
3829 2573 Pls
3859 2590 Pls
3889 2607 Pls
3919 2625 Pls
3949 2642 Pls
3979 2659 Pls
4010 2677 Pls
4040 2694 Pls
4070 2711 Pls
4100 2729 Pls
4130 2746 Pls
4160 2763 Pls
4190 2781 Pls
4220 2798 Pls
4250 2815 Pls
4281 2833 Pls
4311 2850 Pls
4341 2867 Pls
4371 2885 Pls
4401 2902 Pls
4431 2919 Pls
4461 2937 Pls
4491 2954 Pls
4521 2971 Pls
4552 2989 Pls
4582 3006 Pls
4612 3023 Pls
4642 3041 Pls
4672 3058 Pls
4702 3075 Pls
4732 3093 Pls
4762 3110 Pls
4793 3127 Pls
4823 3145 Pls
4853 3162 Pls
4883 3179 Pls
4913 3197 Pls
4943 3214 Pls
4973 3231 Pls
5003 3249 Pls
5033 3266 Pls
5064 3283 Pls
5094 3301 Pls
3700 2459 Pls
3730 2476 Pls
3761 2493 Pls
3791 2511 Pls
3821 2528 Pls
3851 2545 Pls
3881 2563 Pls
3911 2580 Pls
3941 2597 Pls
3971 2615 Pls
4001 2632 Pls
4032 2649 Pls
4062 2667 Pls
4092 2684 Pls
4122 2701 Pls
4152 2719 Pls
4182 2736 Pls
4212 2753 Pls
4242 2771 Pls
4272 2788 Pls
4303 2805 Pls
4333 2823 Pls
4363 2840 Pls
4393 2857 Pls
4423 2875 Pls
4453 2892 Pls
4483 2909 Pls
4513 2927 Pls
4544 2944 Pls
4574 2961 Pls
4604 2979 Pls
4634 2996 Pls
4664 3013 Pls
4694 3031 Pls
4724 3048 Pls
4754 3065 Pls
4784 3083 Pls
4815 3100 Pls
4845 3117 Pls
4875 3135 Pls
4905 3152 Pls
4935 3169 Pls
4965 3187 Pls
4995 3204 Pls
5025 3221 Pls
5055 3239 Pls
5086 3256 Pls
5116 3273 Pls
3752 2449 Pls
3783 2466 Pls
3813 2483 Pls
3843 2501 Pls
3873 2518 Pls
3903 2535 Pls
3933 2553 Pls
3963 2570 Pls
3993 2587 Pls
4023 2605 Pls
4054 2622 Pls
4084 2639 Pls
4114 2657 Pls
4144 2674 Pls
4174 2691 Pls
4204 2709 Pls
4234 2726 Pls
4264 2743 Pls
4295 2761 Pls
4325 2778 Pls
4355 2795 Pls
4385 2813 Pls
4415 2830 Pls
4445 2847 Pls
4475 2865 Pls
4505 2882 Pls
4535 2899 Pls
4566 2917 Pls
4596 2934 Pls
4626 2951 Pls
4656 2969 Pls
4686 2986 Pls
4716 3003 Pls
4746 3021 Pls
4776 3038 Pls
4807 3055 Pls
4837 3073 Pls
4867 3090 Pls
4897 3107 Pls
4927 3125 Pls
4957 3142 Pls
4987 3159 Pls
5017 3177 Pls
5047 3194 Pls
5078 3211 Pls
5108 3229 Pls
5138 3246 Pls
5168 3263 Pls
3835 2456 Pls
3865 2473 Pls
3895 2491 Pls
3925 2508 Pls
3955 2525 Pls
3985 2543 Pls
4015 2560 Pls
4046 2577 Pls
4076 2595 Pls
4106 2612 Pls
4136 2629 Pls
4166 2647 Pls
4196 2664 Pls
4226 2681 Pls
4256 2699 Pls
4286 2716 Pls
4317 2733 Pls
4347 2751 Pls
4377 2768 Pls
4407 2785 Pls
4437 2803 Pls
4467 2820 Pls
4497 2837 Pls
4527 2855 Pls
4558 2872 Pls
4588 2889 Pls
4618 2907 Pls
4648 2924 Pls
4678 2941 Pls
4708 2959 Pls
4738 2976 Pls
4768 2993 Pls
4798 3011 Pls
4829 3028 Pls
4859 3045 Pls
4889 3063 Pls
4919 3080 Pls
4949 3097 Pls
4979 3115 Pls
5009 3132 Pls
5039 3149 Pls
5069 3167 Pls
5100 3184 Pls
5130 3201 Pls
5160 3219 Pls
5190 3236 Pls
3917 2463 Pls
3947 2481 Pls
3977 2498 Pls
4007 2515 Pls
4037 2533 Pls
4068 2550 Pls
4098 2567 Pls
4128 2585 Pls
4158 2602 Pls
4188 2619 Pls
4218 2637 Pls
4248 2654 Pls
4278 2671 Pls
4309 2689 Pls
4339 2706 Pls
4369 2723 Pls
4399 2741 Pls
4429 2758 Pls
4459 2775 Pls
4489 2793 Pls
4519 2810 Pls
4549 2827 Pls
4580 2845 Pls
4610 2862 Pls
4640 2879 Pls
4670 2897 Pls
4700 2914 Pls
4730 2931 Pls
4760 2949 Pls
4790 2966 Pls
4820 2983 Pls
4851 3001 Pls
4881 3018 Pls
4911 3035 Pls
4941 3053 Pls
4971 3070 Pls
5001 3087 Pls
5031 3105 Pls
5061 3122 Pls
5092 3139 Pls
5122 3157 Pls
5152 3174 Pls
5182 3191 Pls
5212 3209 Pls
3999 2471 Pls
4029 2488 Pls
4060 2505 Pls
4090 2523 Pls
4120 2540 Pls
4150 2557 Pls
4180 2575 Pls
4210 2592 Pls
4240 2609 Pls
4270 2627 Pls
4300 2644 Pls
4331 2661 Pls
4361 2679 Pls
4391 2696 Pls
4421 2713 Pls
4451 2731 Pls
4481 2748 Pls
4511 2765 Pls
4541 2783 Pls
4571 2800 Pls
4602 2817 Pls
4632 2835 Pls
4662 2852 Pls
4692 2869 Pls
4722 2887 Pls
4752 2904 Pls
4782 2921 Pls
4812 2939 Pls
4843 2956 Pls
4873 2973 Pls
4903 2991 Pls
4933 3008 Pls
4963 3025 Pls
4993 3043 Pls
5023 3060 Pls
5053 3077 Pls
5083 3095 Pls
5114 3112 Pls
5144 3129 Pls
5174 3147 Pls
5204 3164 Pls
5234 3181 Pls
4082 2478 Pls
4112 2495 Pls
4142 2513 Pls
4172 2530 Pls
4202 2547 Pls
4232 2565 Pls
4262 2582 Pls
4292 2599 Pls
4322 2617 Pls
4353 2634 Pls
4383 2651 Pls
4413 2669 Pls
4443 2686 Pls
4473 2703 Pls
4503 2721 Pls
4533 2738 Pls
4563 2755 Pls
4594 2773 Pls
4624 2790 Pls
4654 2807 Pls
4684 2825 Pls
4714 2842 Pls
4744 2859 Pls
4774 2877 Pls
4804 2894 Pls
4834 2911 Pls
4865 2929 Pls
4895 2946 Pls
4925 2963 Pls
4955 2981 Pls
4985 2998 Pls
5015 3015 Pls
5045 3033 Pls
5075 3050 Pls
5106 3067 Pls
5136 3085 Pls
5166 3102 Pls
5196 3119 Pls
5226 3137 Pls
5256 3154 Pls
4164 2485 Pls
4194 2503 Pls
4224 2520 Pls
4254 2537 Pls
4284 2555 Pls
4314 2572 Pls
4345 2589 Pls
4375 2607 Pls
4405 2624 Pls
4435 2641 Pls
4465 2659 Pls
4495 2676 Pls
4525 2693 Pls
4555 2711 Pls
4585 2728 Pls
4616 2745 Pls
4646 2763 Pls
4676 2780 Pls
4706 2797 Pls
4736 2815 Pls
4766 2832 Pls
4796 2849 Pls
4826 2867 Pls
4857 2884 Pls
4887 2901 Pls
4917 2919 Pls
4947 2936 Pls
4977 2953 Pls
5007 2971 Pls
5037 2988 Pls
5067 3005 Pls
5097 3023 Pls
5128 3040 Pls
5158 3057 Pls
5188 3075 Pls
5218 3092 Pls
5248 3109 Pls
5278 3127 Pls
4246 2493 Pls
4276 2510 Pls
4306 2527 Pls
4336 2545 Pls
4367 2562 Pls
4397 2579 Pls
4427 2597 Pls
4457 2614 Pls
4487 2631 Pls
4517 2649 Pls
4547 2666 Pls
4577 2683 Pls
4608 2701 Pls
4638 2718 Pls
4668 2735 Pls
4698 2753 Pls
4728 2770 Pls
4758 2787 Pls
4788 2805 Pls
4818 2822 Pls
4848 2839 Pls
4879 2857 Pls
4909 2874 Pls
4939 2891 Pls
4969 2909 Pls
4999 2926 Pls
5029 2943 Pls
5059 2961 Pls
5089 2978 Pls
5119 2995 Pls
5150 3013 Pls
5180 3030 Pls
5210 3047 Pls
5240 3065 Pls
5270 3082 Pls
5300 3099 Pls
4328 2500 Pls
4359 2517 Pls
4389 2535 Pls
4419 2552 Pls
4449 2569 Pls
4479 2587 Pls
4509 2604 Pls
4539 2621 Pls
4569 2639 Pls
4599 2656 Pls
4630 2673 Pls
4660 2691 Pls
4690 2708 Pls
4720 2725 Pls
4750 2743 Pls
4780 2760 Pls
4810 2777 Pls
4840 2795 Pls
4870 2812 Pls
4901 2829 Pls
4931 2847 Pls
4961 2864 Pls
4991 2881 Pls
5021 2899 Pls
5051 2916 Pls
5081 2933 Pls
5111 2951 Pls
5142 2968 Pls
5172 2985 Pls
5202 3003 Pls
5232 3020 Pls
5262 3037 Pls
5292 3055 Pls
5322 3072 Pls
4441 2525 Pls
4471 2542 Pls
4501 2559 Pls
4531 2577 Pls
4561 2594 Pls
4591 2611 Pls
4621 2629 Pls
4652 2646 Pls
4682 2663 Pls
4712 2681 Pls
4742 2698 Pls
4772 2715 Pls
4802 2733 Pls
4832 2750 Pls
4862 2767 Pls
4893 2785 Pls
4923 2802 Pls
4953 2819 Pls
4983 2837 Pls
5013 2854 Pls
5043 2871 Pls
5073 2889 Pls
5103 2906 Pls
5133 2923 Pls
5164 2941 Pls
5194 2958 Pls
5224 2975 Pls
5254 2993 Pls
5284 3010 Pls
5314 3027 Pls
4553 2549 Pls
4583 2567 Pls
4613 2584 Pls
4644 2601 Pls
4674 2619 Pls
4704 2636 Pls
4734 2653 Pls
4764 2671 Pls
4794 2688 Pls
4824 2705 Pls
4854 2723 Pls
4884 2740 Pls
4915 2757 Pls
4945 2775 Pls
4975 2792 Pls
5005 2809 Pls
5035 2827 Pls
5065 2844 Pls
5095 2861 Pls
5125 2879 Pls
5155 2896 Pls
5186 2913 Pls
5216 2931 Pls
5246 2948 Pls
5276 2965 Pls
5306 2983 Pls
4666 2574 Pls
4696 2591 Pls
4726 2609 Pls
4756 2626 Pls
4786 2643 Pls
4816 2661 Pls
4846 2678 Pls
4876 2695 Pls
4907 2713 Pls
4937 2730 Pls
4967 2747 Pls
4997 2765 Pls
5027 2782 Pls
5057 2799 Pls
5087 2817 Pls
5117 2834 Pls
5147 2851 Pls
5178 2869 Pls
5208 2886 Pls
5238 2903 Pls
5268 2921 Pls
5298 2938 Pls
4808 2616 Pls
4838 2633 Pls
4868 2651 Pls
4898 2668 Pls
4929 2685 Pls
4959 2703 Pls
4989 2720 Pls
5019 2737 Pls
5049 2755 Pls
5079 2772 Pls
5109 2789 Pls
5139 2807 Pls
5169 2824 Pls
5200 2841 Pls
5230 2859 Pls
5260 2876 Pls
4981 2675 Pls
5011 2693 Pls
5041 2710 Pls
5071 2727 Pls
5101 2745 Pls
5131 2762 Pls
5161 2779 Pls
5192 2797 Pls
1.000 UL
LTb
6229 1717 M
4304 609 L
971 1249 M
4304 609 L
1.000 UP
stroke
grestore
end
showpage
%%Trailer
%%DocumentFonts: Helvetica
%%Pages: 1
